[
    {
        "ident" : "pd2_AI_integration_customize",
        "version" : 2.9,
        "patchnotes_url" : "https://gitlab.com/LeftOwlRight/Smart-AI-integration-customize",
        "download_url" : "https://gitlab.com/LeftOwlRight/Smart-AI-integration-customize/-/archive/main/Smart-AI-integration-customize-main.zip"
    }
]
