{
	"menu_jowi" : "Wick",
	"hud_int_hold_grab_the_bag" : "Halte $INTERACT um $BAG zu nehmen",

	"wolfhud_dialog_force_start_title" : "Spielstart erzwingen?",
	"wolfhud_dialog_force_start_desc" : "Bist du sicher, das du den Spielstart erzwingen möchtest?\n\nBitte nutze diese Funktion nur für fehlerhafte Lobbies oder wenn Spieler afk sind.\nLasse deinen Mitspielern genügend Zeit, ihr Loadout zu wählen.",
	"wolfhud_dialog_install_title" : "Installiere: $NAME",
	"wolfhud_dialog_install_desc" : "Möchtest du '$NAME' installieren?",
	"wolfhud_dialog_remind_later" : "Erinnere mich später",
	"wolfhud_dialog_install_fed_inv_desc" : "Federal Inventory ist ein override mod für bunte Waffen-, Masken- und Equipment-Bilder.\nEs passt hervorragend zu CustomHUD und unterstützt automatische Updates durch BLT.",
	"wolfhud_dialog_rename_inv_tab" : "Benenne Inventar Seite um",
	"wolfhud_dialog_rename_inv_tab_desc" : "Bitte gib einen neuen Namen für diese Inventarseite ein.",
	"wolfhud_dialog_save" : "Speichern",
	"woldhud_notification_disabled_override_title" : "VHUDPlus: $NAME ist zurzeit deaktiviert.",
	"woldhud_notification_disabled_override_desc" : "Wenn du es dir anders überlegt hast, klicke hier um erneut gefragt zu werden.",
	"woldhud_notification_restart_override_title" : "VHUDPlus: $NAME ist bereit zur Installation.",
	"woldhud_notification_restart_override_desc" : "Bitte starte dein Spiel neu, um den Download zu starten.",

	"wolfhud_int_locked" : "DRÜCKE $BTN_CANCEL UM ABZUBRECHEN",
	"wolfhud_int_locked_pager" : "DRÜCKE $BTN_CANCEL UM ABZUBRECHEN\n(LÖST ALARM AUS)",

	"wolfhud_buy_all_assets" : "Alles kaufen",
	"wolfhud_buy_all_assets_desc" : "Alle Vorteile kaufen, die du erwerben kannst.",

	"wolfhud_preplanning_save" : "Plan speichern",
	"wolfhud_preplanning_load" : "Plan laden",
	"wolfhud_preplanning_reset" : "Plan zurücksetzen",
	"wolfhud_preplanning_reset_all" : "Alles zurücksetzen",
	"wolfhud_preplanning_delete" : "Plan löschen",
	"wolfhud_preplanning_save_tooltip_title" : "Aktuellen Plan speichern:",
	"wolfhud_preplanning_save_tooltip_desc" : "Aktuellen Plan speichern, um es das nächste Mal bei dieser Mission leichter zu haben.",
	"wolfhud_preplanning_load_tooltip_title" : "Lade gespeicherten Plan:",
	"wolfhud_preplanning_load_tooltip_desc" : "Öffnet ein Menü mit all deinen gespeicherten Plänen.",
	"wolfhud_preplanning_reset_tooltip_title" : "Aktuellen Plan zurücksetzen:",
	"wolfhud_preplanning_reset_tooltip_desc" : "Entfernt alle Vorteile, die du platziert hast, und setzt eure Stimmen zurück.",
	"wolfhud_preplanning_reset_all_tooltip_title" : "Plan komplett zurücksetzen",
	"wolfhud_preplanning_reset_all_tooltip_desc" : "Entfernt alle Vorteile, die von dir und anderen platziert worden sind, und setzt eure Stimmen zurück.",
	"wolfhud_preplanning_delete_tooltip_title" : "Gespeicherten Plan löschen:",
	"wolfhud_preplanning_delete_tooltip_desc" : "Lösche nicht länger benötigte Pläne, um die Übersicht zu behalten.",
	"wolfhud_preplanning_manager_title" : "Planungsmanager",
	"wolfhud_preplanning_error_no_saved_plans" : "Keine gespeicherten Pläne gefunden.",
	"wolfhud_preplanning_error_max_plans_reached" : "Maximale Anzahl an gespicherten Plänen erreicht.",
	"wolfhud_preplanning_votes_title" : "Abstimmung:",
	"wolfhud_preplanning_assets_title" : "Vorteile:",
	"wolfhud_preplanning_dialog_save" : "Plan speichern?",
	"wolfhud_preplanning_dialog_save_desc" : "$PLAN\n\n\nBitte gib diesem Plan einen Namen.\n(Die Wahl eines existierenden Namens wird diesen überschreiben.)",
	"wolfhud_preplanning_dialog_delete" : "Plan löschen?",
	"wolfhud_preplanning_dialog_delete_desc" : "Bist du sicher, das du den Plan '$NAME' löschen möchtest?",
	"wolfhud_preplanning_msg_saved_success" : "Aktueller Plan erfolgreich gespeichert.",
	"wolfhud_preplanning_msg_saved_failed" : "Das Speichern des aktuellen Plans ist fehlgeschlagen.",
	"wolfhud_preplanning_msg_no_save_slot" : "Maximale Anzahl an gespeicherten Plänen erreicht.",
	"wolfhud_preplanning_msg_no_current_plan" : "Es ist zurzeit nichts geplant, was gespeichert werden könnte.",
	"wolfhud_preplanning_msg_loaded_success" : "Plan erfolgreich geladen.",
	"wolfhud_preplanning_msg_loaded_failed" : "Laden des Plans fehlgeschlagen.",
	"wolfhud_preplanning_msg_loaded_partitially" : "Plan teilweise geladen: $ERRORMSG",
	"wolfhud_preplanning_msg_loaded_missing_skill" : "Eine Fähigkeit fehlt",
	"wolfhud_preplanning_msg_loaded_missing_favours" : "Nicht genug Gefallen",
	"wolfhud_preplanning_msg_loaded_missing_money" : "Nicht genug Geld",
	"wolfhud_preplanning_msg_reseted_success" : "Aktueller Plan erfolgreich zurückgesetzt.",
	"wolfhud_preplanning_msg_reseted_failed" : "Beim Zurücksetzen des Plans ist ein Fehler aufgetreten.",
	"wolfhud_preplanning_msg_deleted_success" : "Plan erfolgreich gelöscht",
	"wolfhud_preplanning_msg_deleted_failed" : "Löschen des Plans fehlgeschlagen.",
	"wolfhud_preplanning_msg_folder_creation_failed" : "Fehler beim Erstellen des Ordners: $FOLDER \nBitte vergewissere dich, dass das Spiel die benötigten Rechte hat, oder erstelle ihn manuell.",
	"wolfhud_preplanning_msg_file_creation_failed" : "Fehler beim Erstellen der Datei: $FILE \nBitte vergewissere dich, dass das Spiel die benötigten Rechte hat, oder erstelle ihn manuell.",

	"wolfhud_inv_tab_rename_hint" : "Klicke doppelt auf den aktiven Inventar-Tab, um ihn umzubenennen.",

	"wolfhud_loadout_hours_played" : "$HOURS Std.",

    "wolfhud_profile_switch_title" : "Profil wechseln",
    "wolfhud_profile_switch_title_profiles" : "Profil:",

	"victory_most_damage" : "Meister Schaden:",
	"victory_session_damage" : "Gesamter Schaden:",

	"wolfhud_advassault_phase_title" : "Vorstoß-Phase:",
	"wolfhud_advassault_spawns_title" : "Verbleibende Spawns:",
	"wolfhud_advassault_time_title" : "Verbleibende Zeit:",
	"wolfhud_advassault_phase_anticipation" : "Erwartung",
	"wolfhud_advassault_phase_build" : "Aufbau",
	"wolfhud_advassault_phase_sustain" : "Aushalten",
	"wolfhud_advassault_phase_fade" : "Abklang",
	"wolfhud_advassault_time_overdue" : "ÜBERFÄLLIG",
	"wolfhud_locked_assault" : "Endloser Polizeivorstoß!!!  Fliehe so schnell wie möglich!!!",

	"wolfhud_customhud_interaction_done" : "ABGESCHLOSSEN",
	"wolfhud_customhud_interaction_aborted" : "ABGEBROCHEN",

	"wolfhud_hudlist_device_timer" : "Timer",
	"wolfhud_hudlist_device_drill" : "Bohrer",
	"wolfhud_hudlist_device_hack" : "Hack",
	"wolfhud_hudlist_device_saw" : "Säge",
	"wolfhud_hudlist_device_security" : "Hacks",
	"wolfhud_hudlist_device_security_bar" : "Hack $CURRENT/$TOTAL",
	"wolfhud_hudlist_loot_armor" : "Rüstung",
	"wolfhud_hudlist_loot_bomb" : "Bombe",
	"wolfhud_hudlist_loot_weapon" : "Waffe",
	"wolfhud_hudlist_loot_diamond" : "Diamant",
	"wolfhud_hudlist_loot_evidence" : "Beweise",
	"wolfhud_hudlist_loot_toast" : "Toastbrot",
	"wolfhud_hudlist_loot_crate" : "Kiste",
	"wolfhud_hudlist_loot_toothbrush" : "Zahnbürste",
	"wolfhud_hudlist_loot_bag" : "Tasche",
	"wolfhud_hudlist_loot_shoes" : "Schuhe",
	"wolfhud_hudlist_loot_toy" : "Spielzeug",
	"wolfhud_hudlist_loot_vr" : "Headset",
	"wolfhud_hudlist_showcase" : "Vitrine",

	"wolfhud_hudlist_buff_basic" : "Normal",
	"wolfhud_hudlist_buff_aced" : "Perfekt",
	"wolfhud_hudlist_buff_boost" : "Boost",
	"wolfhud_hudlist_buff_revive" : "Aufhelfen",
	"wolfhud_hudlist_buff_crew_inspire_debuff" : "(AI)Aufhelfen",
	"wolfhud_hudlist_buff_dmg_inc" : "+Dmg",
	"wolfhud_hudlist_buff_dmg_dec" : "-Dmg",
	"wolfhud_hudlist_buff_mdmg_inc" : "+M.Dmg",
	"wolfhud_hudlist_buff_phealth_reg" : "+HP",
	"wolfhud_hudlist_buff_tot_dodge" : "%Dodge",

	"wolfhud_tabstats_total_damage" : "Gesamter Schaden:",
	"wolfhud_tabstats_tanks_killed" : "Bulldozer getötet:",
	"wolfhud_tabstats_cloakers_killed" : "Cloaker getötet:",
	"wolfhud_tabstats_shields_killed" : "Schilder getötet:",
	"wolfhud_tabstats_snipers_killed" : "Sniper getötet:",
	"wolfhud_tabstats_tasers_killed" : "Taser getötet:",
	"wolfhud_tabstats_gensec_killed" : "GENSEC getötet:",
	"wolfhud_tabstats_medic_killed" : "Medics getötet:",
	"wolfhud_tabstats_melee_kills" : "Nahkampf Kills:",
	"wolfhud_tabstats_explosion_kills" : "Tötungen durch Explosion:",
	"wolfhud_tabstats_nonspecial_kills" : "Normale Tötungen:",
	"wolfhud_tabstats_total_revives" : "Wiederbelebungen (P/AI):",
	"wolfhud_tabstats_alltime_stat" : "Zeit insgesamt:",

	"wolfhud_enemy_civilian" : "Zivilist",
	"wolfhud_enemy_gangster" : "Räuber",
	"wolfhud_enemy_biker" : "Biker",
	"wolfhud_enemy_bolivian_security" : "Sosa Sicherheit",
	"wolfhud_enemy_bolivian_thug" : "Sosa Schläger",
	"wolfhud_enemy_mobster" : "Russischer Gangster",
	"wolfhud_enemy_security" : "Wache",
	"wolfhud_enemy_gensec" : "GENSEC Einheit",
	"wolfhud_enemy_cop" : "Polizist",
	"wolfhud_enemy_fbi" : "FBI Einheit",
	"wolfhud_enemy_swat" : "SWAT Einheit",
	"wolfhud_enemy_heavy_swat" : "Schw. SWAT",
    "wolfhud_enemy_heavy_swat_sniper" : "Schw. SWAT Scharfschütze",
	"wolfhud_enemy_city_swat" : "Eliteeinheit",
	"wolfhud_enemy_shield" : "Schild",
	"wolfhud_enemy_spook" : "Cloaker",
	"wolfhud_enemy_shadow_spook" :"Schatten-Cloaker",
	"wolfhud_enemy_taser" : "Taser",
	"wolfhud_enemy_sniper" : "Scharfschütze",
	"wolfhud_enemy_medic" : "Medic",
	"wolfhud_enemy_tank" : "Bulldozer",
	"wolfhud_enemy_tank_hw" : "Kopfloser Dozer",
	"wolfhud_enemy_tank_medic" : "Medic-Dozer",
	"wolfhud_enemy_tank_mini" : "Minigun-Dozer",
	"wolfhud_enemy_phalanx_minion" : "Winters Schild",
	"wolfhud_enemy_phalanx_vip" : "Captain Winters",
	"wolfhud_enemy_swat_van" : "SWAT GESCHÜTZ",
	"wolfhud_enemy_ceiling_turret" : "GESCHÜTZ",
	"wolfhud_enemy_aa_turret" : "LUFTABWEHR-GESCHÜTZ",
	"wolfhud_enemy_crate_turret" : "GESCHÜTZ",
	"wolfhud_enemy_sentry_gun" : "GESCHÜTZTURM",
	"wolfhud_enemy_mobster_boss" : "Der Komissar",
	"wolfhud_enemy_chavez_boss" : "Chavez",
	"wolfhud_enemy_druglord_boss" : "Sosa Boss",
	"wolfhud_enemy_druglord_boss_stealth" : "Sosa Boss",
	"wolfhud_enemy_biker_boss" : "Biker Boss",
	"wolfhud_enemy_bank_manager" : "Bank Manager",
	"wolfhud_enemy_dah_ralph" : "Ralph Garnet",
	"wolfhud_enemy_inside_man" : "Eingeweihter",
	"wolfhud_enemy_escort_undercover" : "Taxman",
	"wolfhud_enemy_escort_heatstreet" : "Matt",
	"wolfhud_enemy_escort_chinese_prisoner" : "Kazo",
	"wolfhud_enemy_escort_cfo" : "Garnett CFO",
	"wolfhud_enemy_escort_reservoirdogs" : "Mr. Pink",
	"wolfhud_enemy_escort_bain_locke" : "Locke / Bain",
	"wolfhud_enemy_drunk_pilot" : "Betrunkener Pilot",
	"wolfhud_enemy_escort" : "Escort",
	"wolfhud_enemy_boris" : "Boris",
	"wolfhud_enemy_spa_vip" : "Charon",
	"wolfhud_enemy_spa_vip_hurt" : "Charon (Verletzt)",
	"wolfhud_enemy_old_hoxton_mission" : "Hoxton",
	"wolfhud_enemy_locke_mission" : "Locke",
	"wolfhud_enemy_hector_boss" : "Hector (gepanzert)",
	"wolfhud_enemy_hector_boss_no_armor" : "Hector",
	"wolfhud_enemy_reservoirdogs" : "Mr. Blonde",
	"wolfhud_enemy_crew" : "Bandenmitglied",
	"wolfhud_enemy_butler" : "Aldstone",
	"wolfhud_enemy_vlad" : "Vlad",
	"wolfhud_enemy_kento" : "Kento",

	"wolfhud_enemy_boom" : "Grenadier",
	"wolfhud_enemy_omnia_lpf" : "OMNIA L.P.F.",
	"wolfhud_enemy_summers" : "Captain Summers",
	"wolfhud_enemy_boom_summers" : "Major Molly",
	"wolfhud_enemy_taser_summers" : "Engineer Electrika",
	"wolfhud_enemy_medic_summers" : "Sergeant Doc",
	"wolfhud_enemy_spring" : "Captain Spring",
	"wolfhud_enemy_fbi_vet" : "Polizeiveteran",

	"wolfhud_multiselect_all" : "Alle",
	"wolfhud_multiselect_none" : "Keine",
	"wolfhud_multiselect_disabled" : "Deaktiviert",
	"wolfhud_multiselect_random" : "Zufällig",
	"wolfhud_multiselect_left" : "Links",
	"wolfhud_multiselect_center" : "Mitte",
	"wolfhud_multiselect_right" : "Rechts",

	"wolfhud_colors_white"  : "Weiß",
	"wolfhud_colors_light_yellow"  : "Helles Gelb",
	"wolfhud_colors_light_orange"  : "Helles Orange",
	"wolfhud_colors_light_red"  : "Helles Rot",
	"wolfhud_colors_light_purple"  : "Helles Violett",
	"wolfhud_colors_light_green"  : "Helles Grün",
	"wolfhud_colors_light_blue"  : "Helles Blau",
	"wolfhud_colors_light_gray" : "Helles Grau",
	"wolfhud_colors_yellow"  : "Gelb",
	"wolfhud_colors_orange"  : "Orange",
	"wolfhud_colors_red" : "Rot",
	"wolfhud_colors_purple" : "Violett",
	"wolfhud_colors_green" : "Grün",
	"wolfhud_colors_blue" : "Blue",
	"wolfhud_colors_gray" : "Grau",
	"wolfhud_colors_black" : "Schwarz",
	"wolfhud_colors_rainbow" : "Regenbogen",

	"wolfhud_options_name" : "VanillaHUD Plus Einstellungen",
	"wolfhud_options_help" : "Konfiguriere VanillaHUD Plus nach deinen persönlichen Vorlieben.",

	"wolfhud_language_title" : "Sprache",
	"wolfhud_language_desc" : "Wähle eine Übersetzung für VHUDPlus.\n(Levelwechsel nötig)",	

	"wolfhud_languages_english" : "English",
	"wolfhud_languages_german" : "German",
	"wolfhud_languages_dutch" : "Dutch",
	"wolfhud_languages_french" : "French",
	"wolfhud_languages_italian" : "Italian",
	"wolfhud_languages_spanish" : "Spanish",
	"wolfhud_languages_portuguese" : "Portugese",
	"wolfhud_languages_russian" : "Russian",
	"wolfhud_languages_chinese" : "Chinese",
	"wolfhud_languages_korean" : "Korean",

	"wolfhud_skip_blackscreen_title" : "Überspringe schwarzen Bildschirm",
	"wolfhud_skip_blackscreen_desc" : "Überspringt den schwarzen Bildschirm beim Missionsstart.\n(Nur Host)",
	"wolfhud_instant_restart_title" : "Sofortiger Neustart",
	"wolfhud_instant_restart_desc" : "Startet das Spiel ohne den 5-Sekunden-Timer neu.\n(Nur Host)",
	"wolfhud_stat_screen_speedup_title" : "Schnelle Statistikschau",
	"wolfhud_stat_screen_speedup_desc" : "Erhöht die Geschwindigkeit der Erfahrungsauszählung, ohne dauerhaft die Leertaste gedrückt halten zu müssen.",
	"wolfhud_stat_screen_delay_title" : "Wartezeit Statistikschau",
	"wolfhud_stat_screen_delay_desc" : "Warte X Sekunden nachdem deine EXP gezählt wurde.\n(Nur Host, 0 = Deaktiviert)",
	"wolfhud_loot_screen_pick_card_title" : "Automatische Kartenwahl",
	"wolfhud_loot_screen_pick_card_desc" : "Wähle die Karte automatisch, wenn du den Beute-Bildschirm erreichst.",
	"wolfhud_loot_screen_pick_specific_card_title" : "Wähle bestimmte Karte",
	"wolfhud_loot_screen_pick_specific_card_desc" : "Gebe an, welche Karte automatisch gewählt werden soll.",
	"wolfhud_loot_screen_delay_title" : "Wartezeit Beute-Bildschirm",
	"wolfhud_loot_screen_delay_desc" : "Warte X Sekunden nachdem alle Beutekarten aufgedeckt wurden.\n(Nur Host, 0 = Deaktiviert)",
	"wolfhud_replace_weapon_names_title" : "Echte Waffennamen",
	"wolfhud_replace_weapon_names_desc" : "Ersetzt die erfundenen Waffennamen mit ihren realen Vorbildern.\n(Wird erst nach Mapwechsel aktiv...)",
	"wolfhud_inventory_tab_names_title" : "Benutze Inventar-Tab Namen",
	"wolfhud_inventory_tab_names_desc" : "Ändere die Namen der Tabs des Inventars.",
	"wolfhud_inventory_names_title" : "Zeige Inventar-Box Namen",
	"wolfhud_inventory_names_desc" : "Zeige die Namen von Waffen, Panzerung, Equipment etc. in der Box im Inventar.",
	"wolfhud_skill_names_title" : "Zeige Namen von Fähigkeiten",
	"wolfhud_skill_names_desc" : "Zeige immer die Namen der Fähigkeiten im Fähigkeitenmenü an.",
	"wolfhud_show_mini_icons_title" : "Zeige Mini-Icons durchgehend",
	"wolfhud_show_mini_icons_desc" : "Zeige die Modifikations Mini-Icons aller Waffen, nicht nur die der ausgewählten Waffe",
	"wolfhud_no_slowmotion_title" : "Keine Zeitlupe",
	"wolfhud_no_slowmotion_desc" : "Deaktiviere die Zeitlupe, während des Aufsetzens der Maske, oder wenn du zu Boden gehst.",
	"wolfhud_reset_options_title" : "Einstellungen Zurücksetzen",
	"wolfhud_reset_options_desc" : "Setze alle Einstellungen auf standard zurück.",
	"wolfhud_reset_options_confirm" : "Bist du sicher, dass du alle Einstellungen zurücksetzten willst?",

	"wolfhud_panels_options_name" : "Allgemeine HUD-Panel Optionen",
	"wolfhud_panels_options_help" : "Optionen für alle HUD-Panele, wie CustomHUD, die Verdachts- oder Schadensanzeige, und viele mehr.",

	"wolfhud_use_vanillahud_extras_title" : "VanillaHUD Extras",
	"wolfhud_use_vanillahud_extra_desc" : "Verbessert das standard HUD\n(Wird erst nach Mapwechsel aktiv...)",
	"wolfhud_adv_assault_title" : "Erweiterter Ansturm-Banner",
	"wolfhud_adv_assault_desc" : "Zeige die Phase des Ansturms, sowie die verbleibende Zeit und Spawns.\n(Nur Host)",

	"wolfhud_assault_position_title": "Mittiger Ansturmbanner",
	"wolfhud_assault_position_desc": "Platziert den Ansturmbanner in der Mitte",
	"wolfhud_mui_assault_fix_title": "Spielezeit in der Ansturm- und Casing-Box ausschalten",
	"wolfhud_mui_assault_fix_desc": "Das sollte mit HUDs wie MUI, BL2HUD, WarFrame u. a. benutzt werden, die Spielzeit ändern.",

	"wolfhud_pacified_civs_title" : "Zeige eingeschüchterte Zivilisten",
	"wolfhud_pacified_civs_desc" : "Ändere die Markierung von ungefesselten Zivilisten, solange sie eingeschüchtert sind.",
	"wolfhud_use_realammo_title" : "Alternative Munition",
	"wolfhud_use_realammo_desc" : "Zeigt die verbleibende Munition, ohne die geladene Munition mitzuzählen.",
	"wolfhud_enable_burstmode_title" : "Aktiviere Feuerstoß",
	"wolfhud_enable_burstmode_desc" : "Aktiviert einen Feuerstoß-Modus für deine Waffe.",

	"wolfhud_playerpanel_options_name" : "Spieler-Panel",
	"wolfhud_playerpanel_options_help" : "Einstellungen für dein eigenes HUD Panel.",

	"wolfhud_teampanels_options_name" : "Teamkameraden-Panele",
	"wolfhud_teampanels_options_help" : "Einstellungen für die Anzeigen deiner Teamkameraden.",

	"wolfhud_panels_show_armor_title": "Zeige Rüstungstimer",
	"wolfhud_panels_show_armor_desc": "Zeigt die Zeit, bis sich die Rüstung regeneriert.",
	"wolfhud_panels_show_inspire_title": "Zeige Anfeuern-Timer",
	"wolfhud_panels_show_inspire_desc": "Zeige die Zeit von Anfeuern.",
	"wolfhud_panels_show_underdog_title": "Zeige Indikator für Underdog Perfekt",
	"wolfhud_panels_show_underdog_desc": "Zeigt einen gelbblinkenden Schein, solange Underdog Perfekt aktiviert ist.",
	"wolfhud_panels_show_hps_meter_title" : "Aktiviere die HPS Anzeigen",
	"wolfhud_panels_show_hps_meter_desc" : "Aktiviert die Anzeige für Heilung Pro Sekunde.",
	"wolfhud_panels_hps_refresh_rate_title" : "Aktualisierungsrate",
	"wolfhud_panels_hps_refresh_rate_desc" : "Die Zeit zwischen Aktualisierungen (in Sekunden)",
	"wolfhud_panels_show_hps_current_title" : "Zeige aktuelle HPS",
	"wolfhud_panels_show_hps_current_desc" : "Zeigt die aktulle Heilung Pro Sekunde.",
	"wolfhud_panels_current_hps_timeout_title" : "Momentaner HPS-Timeout",
	"wolfhud_panels_current_hps_timeout_desc" : "Die Zeit zwischen Heilungen, um miteinbezogen und gezählt zu werden (Sekunden)",
	"wolfhud_panels_show_hps_total_title" : "Zeige totale HPS",
	"wolfhud_panels_show_hps_total_desc" : "Zeigt die Heilung Pro Sekunde für den Auftragstag.",

	"wolfhud_panels_position_title" : "Position",
	"wolfhud_panels_position_desc" : "Horizontale Position des HUD-Panels.",
	"wolfhud_panels_scale_title" : "Skalierung",
	"wolfhud_panels_scale_desc" : "Skalierungsfaktor des Panels.",
	"wolfhud_panels_oppacity_title" : "Deckkraft",
	"wolfhud_panels_oppacity_desc" : "Wähle die Deckkraft des HUD-Panels.",
	"wolfhud_panels_show_name_title" : "Zeige Namen",
	"wolfhud_panels_show_name_desc" : "Zeige den Spielernamen.",
	"wolfhud_panels_show_rank_title" : "Zeige Rang",
	"wolfhud_panels_rank_name_desc" : "Zeige den Spielerrang.",
	"wolfhud_panels_truncate_tags_title" : "Tags abschneiden",
	"wolfhud_panels_truncate_tags_desc" : "Versuche Clan-Tags in Spielernamen abzuschneiden.",
	"wolfhud_panels_show_char_title" : "Zeige Charakter",
	"wolfhud_panels_show_char_desc" : "Zeige den vom Spieler gewählten Charakter.",
	"wolfhud_panels_show_ping_title" : "Zeige Ping",
	"wolfhud_panels_show_ping_desc" : "Zeige den Ping des Spielers zu dir.",
	"wolfhud_panels_show_status_title" : "Zeige Status",
	"wolfhud_panels_show_status_desc" : "Zeige den Status des Spielers (Leben, Rüstung etc.)",
	"wolfhud_panels_condition_icon_color_title" : "Statusicon Farbe",
	"wolfhud_panels_condition_icon_color_desc" : "Setze die Farbe des Statusicons (verblutend, im Gefängnis, Schwanengesang etc.)",
	"wolfhud_panels_show_equip_title" : "Zeige Equipment",
	"wolfhud_panels_show_equip_desc" : "Zeige das Equipment des Spielers.",
	"wolfhud_panels_show_special_equip_title" : "Zeige spezielles Equipment",
	"wolfhud_panels_show_special_equip_desc" : "Zeige das aufgehobene spezielle Equipment des Spielers.",
	"wolfhud_panels_special_equip_rows_title" : "Spezielles Equipment Zeilen",
	"wolfhud_panels_special_equip_rows_desc" : "Anzahl an angezeigtem Spezial-Equipment pro Spalte.",
	"wolfhud_panels_show_callsign_title" : "Zeige Rufzeichen",
	"wolfhud_panels_show_callsign_desc" : "Zeige das Rufzeichen für den Spieler.",
	"wolfhud_panels_show_stamina_title" : "Zeige Ausdauer",
	"wolfhud_panels_show_stamina_desc" : "Zeigt deine Ausdauer als Kreis innerhalb der Lebensanzeige.",
	"wolfhud_panels_show_downcounter_title" : "Zeige Verblutungszähler",
	"wolfhud_panels_show_downcounter_desc" : "Zeigt den Verblutungszähler für jeden menschlichen Spieler. \nDer Zähler zeigt deine verbleibenden Verblutungen und die Anzahl der Verblutungen deiner Mitspieler.",
	"wolfhud_panels_show_carry_title" : "Zeige Trageinfos",
	"wolfhud_panels_show_carry_desc" : "Zeige getragene Tasche.",
	"wolfhud_panels_build_show_title" : "Zeige Fähigkeiten",
	"wolfhud_panels_build_show_desc" : "Zeige die Fähigkeiten von beitretenden Spielern.",
	"wolfhud_panels_build_time_title" : "Zeige Fähigkeiten - Dauer",
	"wolfhud_panels_build_time_desc" : "Zeige die Fähigkeiten eines beitretenden Spielers für X Sekunden.\n(0 = Immer)",
	"wolfhud_panels_weapon_icon_title" : "Waffensymbole",
	"wolfhud_panels_weapon_icon_desc" : "Welche Waffensymbol möchtest du sehen?",
	"wolfhud_panels_weapon_name_title" : "Waffennamen",
	"wolfhud_panels_weapon_name_desc" : "Waffennamen anzeigen?",
	"wolfhud_panels_weapon_ammo_title" : "Waffenmunition",
	"wolfhud_panels_weapon_ammo_desc" : "Anzeigemodus für Waffenmunitions.",
	"wolfhud_panels_weapon_firemode_title" : "Waffenfeuermodus",
	"wolfhud_panels_weapon_firemode_desc" : "Anzeigen oder verstecken des Waffenfeuermodus.",
	"wolfhud_panels_hide" : "Verstecken",
	"wolfhud_panels_selected" : "Nur Ausgewählte",
	"wolfhud_panels_unselected" : "Nur Abgewählte",
	"wolfhud_panels_both" : "Beide",
	"wolfhud_panels_ammo_total" : "Nur Gesamtmunition",
	"wolfhud_panels_show_interaction_title" : "Zeige Interaktion",
	"wolfhud_panels_show_interaction_desc" : "Zeige die Interaktion deiner Teamkameraden.",
	"wolfhud_panels_show_interaction_number_title" : "Interaktionstimer",
	"wolfhud_panels_show_interaction_number_desc" : "Zeige verbleibende Dauer der Interaktion.",
	"wolfhud_panels_show_interaction_text_title" : "Interaktionstext",
	"wolfhud_panels_show_interaction_text_desc" : "Zeige Interaktionstext.",
	"wolfhud_panels_interaction_time_title" : "Min Interaktionszeit",
	"wolfhud_panels_interaction_time_desc" : "Zeige nur Interaktionen von Mitpsielern, die länger als X Sekunden dauern.",
	"wolfhud_panels_use_ai_color_title" : "Nutze angepasste Botfarbe",
	"wolfhud_panels_use_ai_color_desc" : "Nutze die angepasste Farbe für Bots. (Dies wirkt sich auch auf Schadenspopups aus.)",
	"wolfhud_panels_ai_color_title" : "Angepasste Bot Farbe",
	"wolfhud_panels_ai_color_desc" : "Setze die angepasste Farbe für Bots. (Dies wirkt sich auch auf Schadenspopups aus.)",

	"wolfhud_chat_options_name" : "Chat Optionen",
	"wolfhud_chat_options_help" : "Optionen zur Anpassung des Chats.",

	"wolfhud_chat_enabled_title" : "Aktiviere angepassten Chat",
	"wolfhud_chat_enabled_desc" : "Ersetzt den Chat mit einer verbesserten und angepassten Version",

	"wolfhud_chat_waittime_title" : "Chat Ausblenden",
	"wolfhud_chat_waittime_desc" : "Die Zeit nachdem der Chat ausgeblendet wird.\n(0 = Nie)",
	"wolfhud_chat_fontsize_title" : "Chat Schriftgröße",
	"wolfhud_chat_fontsize_desc" : "Schriftgröße der Ingame Chat-Box.",
	"wolfhud_chat_outputlines_title" : "Max Chat Ausgabezeilen",
	"wolfhud_chat_outputlines_desc" : "Max angezeigter Zeilen, bevor du scrollen musst..",
	"wolfhud_spam_filter_title" : "Chat Spamfilter",
	"wolfhud_spam_filter_desc" : "Entfernt PocoHUD und [NGBTO] Spam-Nachrichten aus dem Chat.",
	"wolfhud_chat_width_title" : "Chat Breite",
	"wolfhud_chat_width_desc" : "Breite des Chatfensters.",
	"wolfhud_chat_inputlines_title" : "Max Chat Eingabezeilen",
	"wolfhud_chat_inputlines_desc" : "Anzahl an Zeilen Text, die du schreiben kannst.",
	"wolfhud_chat_colored_bg_title" : "Farbiger Hintergrund",
	"wolfhud_chat_colored_bg_desc" : "Färbt den Zeilenhintergrund basierend auf der Quelle der Nachricht.",
	"wolfhud_chat_scrollbar_align_title" : "Scrollbar Ausrichtung",
	"wolfhud_chat_scrollbar_align_desc" : "Ausrichtung der Scrollbar",

	"wolfhud_suspicion_options_name" : "Verdachtsoptionen",
	"wolfhud_suspicion_options_help" : "Optionen für die Größe der Verdachtsanziege, sowie ihrer sichtbaren Komponenten.",

	"wolfhud_susp_enabled_title" : "Aktiviere Verdachtsoptionen",
	"wolfhud_susp_enabled_desc" : "Aktiviert zusätzliche Verdachtsoptionen.",

	"wolfhud_suspicion_scale_title" : "Verdachtsskalierung",
	"wolfhud_suspicion_scale_desc" : "Skalierungsfaktor der Verdachtsanzeige.",
	"wolfhud_susp_eye_title" : "Zeige Verdachtsanzeige",
	"wolfhud_susp_eye_desc" : "Zeige das Standard-Verdachtspanel.",
	"wolfhud_susp_numberic_title" : "Zeige numerischen Verdacht",
	"wolfhud_susp_numberic_desc" : "Zeige den Verdachtswert mit Zahlen an.",
	"wolfhud_susp_numberic_outline_title" : "Schwarze Umrandung",
	"wolfhud_susp_numberic_outline_desc" : "Zeigt eine schwarze Umrandung um den Verdachtswert.",

	"wolfhud_killcounter_options_name" : "Killzähler Optionen",
	"wolfhud_killcounter_options_help" : "Optionen für die Darstellung des Killzählers",

	"wolfhud_killcounter_player_show_killcount_title" : "Zeige Spieler Killzähler",
	"wolfhud_killcounter_player_show_killcount_desc" : "Zeige den Killzähler in deinem HUD.",
	"wolfhud_killcounter_player_color_title" : "Killzähler Farbe",
	"wolfhud_killcounter_player_color_desc" : "Wähle die Farbe deines Killzählers.",
	"wolfhud_killcounter_player_show_special_title" : "Zähle getötete Spezialeinheiten",
	"wolfhud_killcounter_player_show_special_desc" : "Zeige deine Tötungen an Spezialeinheiten separat.",
	"wolfhud_killcounter_player_show_head_title" : "Zähle Kopfschüsse",
	"wolfhud_killcounter_player_show_head_desc" : "Zeige deine Anzahl an Kopfschüssen separat.",
	"wolfhud_killcounter_player_show_accuracy_title" : "Zeige Genauigkeit",
	"wolfhud_killcounter_player_show_accuracy_desc" : "Zeige deine Genauigkeit in deinem HUD.",
	"wolfhud_killcounter_team_show_killcount_title" : "Zeige Teamkameraden Killzähler",
	"wolfhud_killcounter_team_show_killcount_desc" : "Zeige den Killzähler deiner Teamkameraden in ihren HUDs.",
	"wolfhud_killcounter_team_color_title" : "Teamkameraden Killzähler Farbe",
	"wolfhud_killcounter_team_color_desc" : "Wähle die Farbe der Killzähler deiner Teamkameraden.",
	"wolfhud_killcounter_team_show_special_title" : "Zähle Teamkameraden Spezialeinheiten Tötungen",
	"wolfhud_killcounter_team_show_special_desc" : "Zeige die Tötungen an Spezialeinheiten deiner Teamkameraden separat.",
	"wolfhud_killcounter_team_show_head_title" : "Zähle Teamkameraden Kopfschüsse",
	"wolfhud_killcounter_team_show_head_desc" : "Zeige deine Anzahl an Kopfschüssen deienr Teamkameraden separat.",
	"wolfhud_killcounter_team_show_ai_title" : "Killzähler für Bots",
	"wolfhud_killcounter_team_show_ai_desc" : "Gibt Bots einen Killzähler.",
	"wolfhud_corpse_limit_title" : "Leichen-Limit",
	"wolfhud_corpse_limit_desc" : "Wie viele Leichen sollen zeitgleich herumliegen können?\n (Wird erst nach Mapwechsel aktiv...)",

	"wolfhud_drivinghud_options_name" : "Fahren-HUD Optionen",
	"wolfhud_drivinghud_options_help" : "Optionen für Fahren-HUD.",

	"wolfhud_show_drivinghud_title" : "Zeige Fahren-HUD",
	"wolfhud_show_drivinghud_desc" : "Zeige eine kleine HUD unten rechts, während du fährst.\n(Wird erst nach Mapwechsel aktiv...)",
	"wolfhud_drivinghud_scale_title" : "Skalierung",
	"wolfhud_drivinghud_scale_desc" : "Skalierungsfaktor für Fahren-HUD.",
	"wolfhud_drivinghud_show_vehicle_title" : "Zeige Bild des Fahrzeugs",
	"wolfhud_drivinghud_show_vehicle_desc" : "Zeige ein kleines Bild des Fahrzeugs in dem du fährst und die Masken deiner Teamkameraden, die mit dir im Fahrzeug sitzen.",
	"wolfhud_drivinghud_show_health_title" : "Zeige Lebenspunkte",
	"wolfhud_drivinghud_show_health_desc" : "Aktiviere die Lebensanzeige für Fahrzeuge.",
	"wolfhud_drivinghud_show_loot_title" : "Zeige Beute",
	"wolfhud_drivinghud_show_loot_desc" : "Zeigt die Anzahl an Beutetaschen, die sich zurzeit im Fahrzeug befinden und die maximale Anzahl an verstaubarer Beute.",
	"wolfhud_drivinghud_show_passengers_title" : "Zeige Mitfahrer",
	"wolfhud_drivinghud_show_passengers_desc" : "Zeige die Anzahl an Personen im Fahrzeug und die Sitzanzahl.",
	"wolfhud_drivinghud_show_gear_title" : "Zeige Gang",
	"wolfhud_drivinghud_show_gear_desc" : "Zeige in welchem Gang du gerade fährst.",
	"wolfhud_drivinghud_show_speed_title" : "Zeige Geschwindigkeit",
	"wolfhud_drivinghud_show_speed_desc" : "Zeige die Aktuelle Geschwindigkeit des Fahrzeugs.",
	"wolfhud_drivinghud_speed_in_mph_title" : "Geschwindigkeit in Meilen",
	"wolfhud_drivinghud_speed_in_mph_desc" : "Zeige die Geschwindigkeit in mph.\n(Ansonsten km/h)",
	"wolfhud_drivinghud_show_rpm_title" : "Zeige RPM",
	"wolfhud_drivinghud_show_rpm_desc" : "Zeige die aktuelle Drehzahl des Fahrzeugs.",

	"wolfhud_infopanels_options_name" : "HUD Info Optionen",
	"wolfhud_infopanels_options_help" : "Optionen für die Info-Boxen von HUD-Liste.",

	"wolfhud_hudlist_right_list_height_offset_title" : "Rechte Liste Versatz",
	"wolfhud_hudlist_right_list_height_offset_desc" : "Versatz oben der rechten Liste.",
	"wolfhud_hudlist_left_list_height_offset_title" : "Linke Liste Versatz",
	"wolfhud_hudlist_left_list_height_offset_desc" : "Versatz oben der linken Liste.",
	"wolfhud_hudlist_buff_list_height_offset_title" : "Buff Liste Versatz",
	"wolfhud_hudlist_buff_list_height_offset_desc" : "Versatz oben der Buff Liste.",
	"wolfhud_mui_buff_fix_title" : "Fix für MUI-Buff-Liste",
	"wolfhud_mui_buff_fix_desc" : "Verhindert die Überlappung der Buff-Liste mit Untertiteln.",

	"wolfhud_use_hudlist_title" : "Benutze HUDList",
	"wolfhud_use_hudlist_desc" : "HUDList kann viele nützliche Dinge anzeigen, wie z.B. Bohrerzeiten, Gegner- oder Beutezähler, Equipment auf der Karte etc. (Wird erst nach Mapwechsel aktiv...)",
	"wolfhud_hudlist_scale_right_title" : "Skalierung Liste rechts",
	"wolfhud_hudlist_scale_right_desc" : "Skalierungsfaktor für Boxen der rechten Liste.",
	"wolfhud_hudlist_scale_left_title" : "Skalierung Liste links",
	"wolfhud_hudlist_scale_left_desc" : "Skalierungsfaktor für Boxen der linken Liste.",
	"wolfhud_hudlist_scale_buff_title" : "Skalierung Buff Liste",
	"wolfhud_hudlist_scale_buff_desc" : "Skalierungsfaktor für Boxen der Buff Liste.",
	"wolfhud_hudlist_box_color_title" : "Box Textfarbe",
	"wolfhud_hudlist_box_color_desc" : "Vordergrund und Schriftfarbe der Info-Boxen.\n(Wird erst nach Mapwechsel aktiv...)",
	"wolfhud_hudlist_box_bg_color_title" : "Box Hintergrundfarbe",
	"wolfhud_hudlist_box_bg_color_desc" : "Hintergrundfarbe der Info-Boxen.\n(Wird erst nach Mapwechsel aktiv...)",
	"wolfhud_hudlist_civcolor_title" : "Zivilistenfarbe",
	"wolfhud_hudlist_civcolor_desc" : "Farbe der Zivilisten und Geiseln des Gegnerzählers.",
	"wolfhud_hudlist_thugcolor_title" : "Gangsterfarbe",
	"wolfhud_hudlist_thugcolor_desc" : "Farbe der Gangster des Gegnerzählers.",
	"wolfhud_hudlist_copcolor_title" : "Gegnerfarbe",
	"wolfhud_hudlist_copcolor_desc" : "Farbe der Polizisten, SWATs und Schwere SWATs des Gegnerzählers.",
	"wolfhud_hudlist_specialcolor_title" : "Spezialgegnerfarbe",
	"wolfhud_hudlist_specialcolor_desc" : "Farbe für Spezialgegner und Geschützwagen des Gegnerzählers.",
	"wolfhud_hudlist_progress_alpha_left_title" : "Fortschritt links Alpha",
	"wolfhud_hudlist_progress_alpha_left_desc" : "Alphawert der Fortschrittsanzeigen der linken Liste.",
	"wolfhud_hudlist_progress_alpha_right_title" : "Fortschritt rechts Alpha",
	"wolfhud_hudlist_progress_alpha_right_desc" : "Alphawert der Fortschrittsanzeigen der rechten Liste.",
	"wolfhud_hudlist_progress_alpha_buff_title" : "Buff-Fortschritt Alpha",
	"wolfhud_hudlist_progress_alpha_buff_desc" : "Alphawert der Fortschrittsanzeigen der Buff Liste.",

	"wolfhud_infopanels_left_options_name" : "Linke Info-Liste",
	"wolfhud_infopanels_left_options_help" : "Optionen der linken Liste.",

	"wolfhud_hudlist_show_timers_title" : "Zeige Timer",
	"wolfhud_hudlist_show_timers_desc" : "Zeige Timer für Bohrer, Hacks etc.",
	"wolfhud_hudlist_show_equipment_desc" : "Bestimme, ob das Equipment auf der rechten Seite angezeigt werden soll.",
	"wolfhud_hudlist_show_ammo_bags_title" : "Zeige Munitionstaschen",
	"wolfhud_hudlist_show_doc_bags_title" : "Zeige Arzttaschen",
	"wolfhud_hudlist_show_first_aid_kits_title" : "Zeige Erste-Hilfe-Sets",
	"wolfhud_hudlist_show_body_bags_title" : "Zeige Leichensäcke",
	"wolfhud_hudlist_show_grenade_crates_title" : "Zeige Granaten",
	"wolfhud_hudlist_sentries_title" : "Zeige Sentrys",
	"wolfhud_hudlist_sentries_desc" : "Zeige Sentrys Leben und Munition.",
	"wolfhud_hudlist_hide_empty_sentries_title" : "Verstecke leere Sentrys",
	"wolfhud_hudlist_hide_empty_sentries_desc" : "Verstecke leere Sentry-Boxen.",
	"wolfhud_hudlist_show_ecms_title" : "Zeige ECMs",
	"wolfhud_hudlist_show_ecms_desc" : "Zeige Timer für ECMs",
	"wolfhud_hudlist_show_ecm_retrigger_title" : "Zeige ECM-Reaktivierungen",
	"wolfhud_hudlist_show_ecm_retrigger_desc" : "Zeige, wenn ein ECM bereit für eine Reaktivierung ist.",
	"wolfhud_hudlist_show_minions_title" : "Zeige Joker",
	"wolfhud_hudlist_show_minions_desc" : "Zeige das Leben aller konvertierten Polizisten.",
	"wolfhud_hudlist_show_own_minions_only_title" : "Nur eigene Joker",
	"wolfhud_hudlist_show_own_minions_only_desc" : "Zeige nur eigene konvertierte Polizisten.",
	"wolfhud_hudlist_show_pagers_title" : "Zeige Pager",
	"wolfhud_hudlist_show_pagers_desc" : "Zeige Timer für die verbleibende Zeit des Pagers, bevor der Alarm aktiviert wird.",
	"wolfhud_hudlist_show_tape_loop_title" : "Zeige Kameraschleife",
	"wolfhud_hudlist_show_tape_loop_desc" : "Zeige Countdown für Kameraschleifen.",
	"wolfhud_hudlist_remove_answered_pagers_title" : "Entferne Pager Kontur",
	"wolfhud_hudlist_remove_answered_pagers_desc" : "Entferne die Pager-Umrandung, wenn er beantwortet wird.",

	"wolfhud_infopanels_right_options_name" : "Rechte Info-Liste",
	"wolfhud_infopanels_right_options_help" : "Optionen der rechten Liste.",

	"wolfhud_hudlist_show_enemies_title" : "Zeige Gegner",
	"wolfhud_hudlist_show_enemies_desc" : "Zeige die Anzahl an Gegnern auf der Karte.",
	"wolfhud_hudlist_aggregate_enemies_title" : "Gegner zusammenfassen",
	"wolfhud_hudlist_aggregate_enemies_desc" : "Zeige eine Info-Box für alle Gegnerklassen zusammen.",
	"wolfhud_hudlist_show_turrets_title" : "Zeige Geschützwagen",
	"wolfhud_hudlist_show_turrets_desc" : "Zeige die Anzahl von Geschützwagen auf der Karte.",
	"wolfhud_hudlist_show_civilians_title" : "Zeige Zivilisten",
	"wolfhud_hudlist_show_civilians_desc" : "Zeige die Anzahl ungefesselter Zivilisten auf der Karte.",
	"wolfhud_hudlist_show_hostages_title" : "Zeige Geiseln",
	"wolfhud_hudlist_show_hostages_desc" : "Zeige die Anzahl an gefesselten Zivilisten auf der Karte.",
	"wolfhud_hudlist_aggregate_hostages_title" : "Fasse Geiseln zusammen",
	"wolfhud_hudlist_aggregate_hostages_desc" : "Zeige alle Arten von Geiseln in einer Info-Box.",
	"wolfhud_hudlist_show_minion_count_title" : "Zeige konvertierte Geiseln",
	"wolfhud_hudlist_show_minion_count_desc" : "Zeige die Anzahl an konvertierten Polizeigeiseln auf der Karte.",
	"wolfhud_hudlist_show_pager_count_title" : "Zeige Pageranzahl",
	"wolfhud_hudlist_show_pager_count_desc" : "Zeige die Anzahl bereits ausgelöster Pager (nur Stealth).",
	"wolfhud_hudlist_show_cam_count_title" : "Zeige Kameraanzahl",
	"wolfhud_hudlist_show_cam_count_desc" : "Zeige die Anzahl an aktiven Kameras (nur Stealth).",
	"wolfhud_hudlist_show_bodybags_count_title" : "Zeige Leichensackanzahl",
	"wolfhud_hudlist_show_bodybags_count_desc" : "Zeige die Anzahl an mitgeführten Leichensäcken (nur Stealth).",
	"wolfhud_hudlist_show_corpse_count_title" : "Zeige Leichenanzahl",
	"wolfhud_hudlist_show_corpse_count_desc" : "Zeige die Anzahl an hermumliegenden Leichen und Leichensäcken im Level (nur Stealth).",
	"wolfhud_hudlist_show_loot_title" : "Zeige Beute",
	"wolfhud_hudlist_show_loot_desc" : "Zähle die Anzahl der Beute auf der Karte.",
	"wolfhud_hudlist_aggregate_loot_title" : "Fasse Beute zusammen",
	"wolfhud_hudlist_aggregate_loot_desc" : "Zeige alle Beutearten in einer Info-Box.",
	"wolfhud_hudlist_separate_bagged_loot_title" : "Separiere verpackte Beute",
	"wolfhud_hudlist_separate_bagged_loot_desc" : "Nicht verpackte und verpackte Beute einzeln anzeigen.",
	"wolfhud_hudlist_show_potential_loot_title" : "Zeige potenzielle Beute",
	"wolfhud_hudlist_show_potential_loot_desc" : "Zeige die Anzahl der Kisten auf der Map im Beute-Zähler.\n(Bedenke, Kisten können auch leer sein...)",
	"wolfhud_hudlist_show_special_pickups_title" : "Zeige Spezial-Equipment",
	"wolfhud_hudlist_show_special_pickups_desc" : "Zeige die Anzahl an Chemikalien, Schlüsselkarten etc. auf der Karte.",
	"wolfhud_hudlist_show_mission_pickups_title" : "Zeige Missions-Equipment",
	"wolfhud_hudlist_show_mission_pickups_desc" : "Zeige die Anzahl an Chemikalien, Schlüsselkarten, Brettern und anderem Missions-Equipment auf der Karte.",
	"wolfhud_hudlist_show_collectables_pickups_title" : "Zeige sammelbare Pickups",
	"wolfhud_hudlist_show_collectables_pickups_desc" : "Zeige die Anzahl an Gage-Paketen, Spec-Ops-Kisten und Schlüsseln etc. auf der Karte.",
	"wolfhud_hudlist_show_valuables_pickups_title" : "Zeige lose Beute-Pickups",
	"wolfhud_hudlist_show_valuables_pickups_desc" : "Zeige die Anzahl an Beute, wie Geldbündel oder Halsketten auf der Karte.",

	"wolfhud_infopanels_buff_options_name" : "Buff-Liste",
	"wolfhud_infopanels_buff_options_help" : "Optionen der Buff-Liste.",

	"wolfhud_infopanels_buff_mastermind_options_name" : "Drahtzieher-Fähigkeiten",
	"wolfhud_infopanels_buff_mastermind_options_help" : "Aktiviere oder Deaktiviere Indikatoren für Drahtzieher-Fähigkeiten.",
	"wolfhud_infopanels_buff_enforcer_options_name" : "Vollstrecker-Fähigkeiten",
	"wolfhud_infopanels_buff_enforcer_options_help" : "Aktiviere oder Deaktiviere Indikatoren für Vollstrecker-Fähigkeiten.",
	"wolfhud_infopanels_buff_technician_options_name" : "Techniker-Fähigkeiten",
	"wolfhud_infopanels_buff_technician_options_help" : "Aktiviere oder Deaktiviere Indikatoren für Techniker-Fähigkeiten.",
	"wolfhud_infopanels_buff_ghost_options_name" : "Geist-Fähigkeiten",
	"wolfhud_infopanels_buff_ghost_options_help" : "Aktiviere oder Deaktiviere Indikatoren für Geist Fähigkeiten.",
	"wolfhud_infopanels_buff_fugitive_options_name" : "Flüchtling-Fähigkeiten",
	"wolfhud_infopanels_buff_fugitive_options_help" : "Aktiviere oder Deaktiviere Indikatoren für Flüchtling-Fähigkeiten.",
	"wolfhud_infopanels_buff_perkdecks_options_name" : "Vorteilsdecks",
	"wolfhud_infopanels_buff_perkdecks_options_help" : "Aktiviere oder Deaktiviere Indikatoren für Vorteilsdecks.",
	"wolfhud_infopanels_buff_gageboosts_options_name" : "Gage Boosts",
	"wolfhud_infopanels_buff_gageboosts_options_help" : "Aktiviere oder Deaktiviere Indikatoren für Gage-Boosts.",
	"wolfhud_infopanels_buff_henchmen_options_name" : "Bot Fähigkeiten (Henchmen)",
	"wolfhud_infopanels_buff_henchmen_options_help" : "Aktiviere oder Deaktiviere Indikatoren für Bot-Fähigkeiten.",

	"wolfhud_hudlist_show_buffs_title" : "Zeige Buffs",
	"wolfhud_hudlist_show_buffs_desc" : "Zeige aktive Buffs in der unteren Mitte der HUD.",
	"wolfhud_hudlist_damage_increase_compbuff_title" : "Erhöhter Schaden Buff",
	"wolfhud_hudlist_damage_increase_compbuff_desc" : "Zusammenfassender Buff, zeigt den Wert der Schadenerhöhung aller aktiven Fähigkeiten zusammen.",
	"wolfhud_hudlist_damage_reduction_compbuff_title" : "Verringerter Schaden Buff",
	"wolfhud_hudlist_damage_reduction_compbuff_desc" : "Zusammenfassender Buff, zeigt den Wert der Schadensverringerung aller aktiven Fähigkeiten zusammen.",
	"wolfhud_hudlist_melee_damage_increase_compbuff_title" : "Erhöhter Nahkampfschaden Buff",
	"wolfhud_hudlist_melee_damage_increase_compbuff_desc" : "Zusammenfassender Buff, zeigt den Wert aller aktiven Nahkampffähigkeiten zusammen.",
	"wolfhud_hudlist_passive_health_regen_compbuff_title" : "Passive Lebensregeration",
	"wolfhud_hudlist_passive_health_regen_compbuff_desc" : "Zusammenfassender Buff, zeigt den Wert aller passiven Lebensregerationseffekte zusammen.",
	"wolfhud_hudlist_total_dodge_chance_compbuff_title" : "Gesamte Ausweich-Chance",
	"wolfhud_hudlist_total_dodge_chance_compbuff_desc" : "Zusammenfassender Buff, zeigt den Wert aller das Ausweichen erhöhender Fähigkeiten zusammen.",
	"wolfhud_hudlist_aggressive_reload_aced_buff_title" : "Aggressives Nachladen",
	"wolfhud_hudlist_aggressive_reload_aced_buff_desc" : "",
	"wolfhud_hudlist_ammo_efficiency_buff_title" : "Munitionseffizienz",
	"wolfhud_hudlist_ammo_efficiency_buff_desc" : "",
	"wolfhud_hudlist_armor_break_invulnerable_buff_title" : "Abklingzeit Immunität nach Panzerungszerstörung",
	"wolfhud_hudlist_armor_break_invulnerable_buff_desc" : "Gemeinsamer Buff für Waffentechnicker (Armorer) und Anarchist Decks.",
	"wolfhud_hudlist_berserker_buff_title" : "Berserker",
	"wolfhud_hudlist_berserker_buff_desc" : "Teil eines zusammenfassenden Buffs.",
	"wolfhud_hudlist_biker_buff_title" : "Regenerations Debuff (Biker)",
	"wolfhud_hudlist_biker_buff_desc" : "",
	"wolfhud_hudlist_bloodthirst_basic_buff_title" : "Blutdurst (Normal)",
	"wolfhud_hudlist_bloodthirst_basic_buff_desc" : "Teil eines zusammenfassenden Buffs.",
	"wolfhud_hudlist_bloodthirst_aced_buff_title" : "Blutdurst (Perfekt)",
	"wolfhud_hudlist_bloodthirst_aced_buff_desc" : "",
	"wolfhud_hudlist_bullet_storm_buff_title" : "Kugelhagel",
	"wolfhud_hudlist_bullet_storm_buff_desc" : "",
	"wolfhud_hudlist_close_contact_buff_title" : "Nahkampf (Spion)",
	"wolfhud_hudlist_close_contact_buff_desc" : "Teil eines zusammenfassenden Buffs.",
	"wolfhud_hudlist_combat_medic_buff_title" : "Sanitäter (Aktiv)",
	"wolfhud_hudlist_combat_medic_buff_desc" : "Teil eines zusammenfassenden Buffs.",
	"wolfhud_hudlist_combat_medic_passive_buff_title" : "Kampf-Sanitäter (Passiv)",
	"wolfhud_hudlist_combat_medic_passive_buff_desc" : "Teil eines zusammenfassenden Buffs.",
	"wolfhud_hudlist_desperado_buff_title" : "Desperados",
	"wolfhud_hudlist_desperado_buff_desc" : "",
	"wolfhud_hudlist_die_hard_buff_title" : "Stirb Langsam",
	"wolfhud_hudlist_die_hard_buff_desc" : "Teil eines zusammenfassenden Buffs.",
	"wolfhud_hudlist_dire_need_buff_title" : "Höchste Not",
	"wolfhud_hudlist_dire_need_buff_desc" : "",
	"wolfhud_hudlist_frenzy_buff_title" : "Raserei",
	"wolfhud_hudlist_frenzy_buff_desc" : "Teil eines zusammenfassenden Buffs.",
	"wolfhud_hudlist_grinder_buff_title" : "Lebensregeneration (Grinder))",
	"wolfhud_hudlist_grinder_buff_desc" : "",
	"wolfhud_hudlist_chico_injector_buff_title" : "Injektor Dauer (Kingpin)",
	"wolfhud_hudlist_chico_injector_buff_desc" : "",
	"wolfhud_hudlist_damage_control_debuff_title" : "Flaschen-Cooldown (Stoic)",
	"wolfhud_hudlist_damage_control_debuff_desc" : "",
	"wolfhud_hudlist_delayed_damage_buff_title" : "Verzögerter Schaden (Stoic)",
	"wolfhud_hudlist_delayed_damage_buff_desc" : "",
	"wolfhud_hudlist_hostage_situation_buff_title" : "Geiselnahme (Crewboss)",
	"wolfhud_hudlist_hostage_situation_buff_desc" : "Teil eines zusammenfassenden Buffs.",
	"wolfhud_hudlist_hostage_taker_buff_title" : "Geiselnehmer",
	"wolfhud_hudlist_hostage_taker_buff_desc" : "",
	"wolfhud_hudlist_inspire_buff_title" : "Anfeuern (Boost)",
	"wolfhud_hudlist_inspire_buff_desc" : "",
	"wolfhud_hudlist_lock_n_load_buff_title" : "Sichern und Laden",
	"wolfhud_hudlist_lock_n_load_buff_desc" : "",
	"wolfhud_hudlist_melee_stack_damage_buff_title" : "Nahkampfschaden Stapel (Spion)",
	"wolfhud_hudlist_melee_stack_damage_buff_desc" : "Teil eines zusammenfassenden Buffs.",
	"wolfhud_hudlist_maniac_buff_title" : "Schadensreduktion (Wahnsinniger)",
	"wolfhud_hudlist_maniac_buff_desc" : "",
	"wolfhud_hudlist_muscle_regen_buff_title" : "Lebensregeration (Muskelprotz)",
	"wolfhud_hudlist_muscle_regen_buff_desc" : "",
	"wolfhud_hudlist_messiah_buff_title" : "Messiah",
	"wolfhud_hudlist_messiah_buff_desc" : "",
	"wolfhud_hudlist_overdog_buff_title" : "Overdog (Spion)",
	"wolfhud_hudlist_overdog_buff_desc" : "",
	"wolfhud_hudlist_overkill_buff_title" : "Overkill",
	"wolfhud_hudlist_overkill_buff_desc" : "Teil eines zusammenfassenden Buffs.",
	"wolfhud_hudlist_painkiller_buff_title" : "Schmerzmittel",
	"wolfhud_hudlist_painkiller_buff_desc" : "Teil eines zusammenfassenden Buffs.",
	"wolfhud_hudlist_partner_in_crime_buff_title" : "Komplizen",
	"wolfhud_hudlist_partner_in_crime_buff_desc" : "Teil eines zusammenfassenden Buffs.",
	"wolfhud_hudlist_running_from_death_buff_title" : "Tod vortäuschen",
	"wolfhud_hudlist_running_from_death_buff_desc" : "",
	"wolfhud_hudlist_pocket_ecm_jammer_buff_title" : "Taschen-ECM-Dauer (Hacker)",
	"wolfhud_hudlist_pocket_ecm_jammer_buff_desc" : "",
	"wolfhud_hudlist_pocket_ecm_kill_dodge_buff_title" : "Taschen-ECm Ausweichen (Hacker)",
	"wolfhud_hudlist_pocket_ecm_kill_dodge_buff_desc" : "Teil eines zusammenfassenden Buffs.",
	"wolfhud_hudlist_quick_fix_buff_title" : "Notversorgung",
	"wolfhud_hudlist_quick_fix_buff_desc" : "Teil eines zusammenfassenden Buffs.",
	"wolfhud_hudlist_second_wind_buff_title" : "Second Wind",
	"wolfhud_hudlist_second_wind_buff_desc" : "",
	"wolfhud_hudlist_sixth_sense_buff_title" : "Sechster Sinn",
	"wolfhud_hudlist_sixth_sense_buff_desc" : "",
	"wolfhud_hudlist_sicario_dodge_buff_title" : "Zusätzliches Ausweichen (Sicario)",
	"wolfhud_hudlist_sicario_dodge_buff_desc" : "",
	"wolfhud_hudlist_smoke_screen_buff_title" : "Rauchgranate (Sicario)",
	"wolfhud_hudlist_smoke_screen_buff_desc" : "",
	"wolfhud_hudlist_tag_team_buff_title" : "Gas Dispenser (Tag Team)",
	"wolfhud_hudlist_tag_team_buff_desc" : "",
	"wolfhud_hudlist_swan_song_buff_title" : "Schwanengesang",
	"wolfhud_hudlist_swan_song_buff_desc" : "",
	"wolfhud_hudlist_tooth_and_claw_buff_title" : "Zähne und Klauen (Hitman)",
	"wolfhud_hudlist_tooth_and_claw_buff_desc" : "",
	"wolfhud_hudlist_trigger_happy_buff_title" : "Trigger Happy",
	"wolfhud_hudlist_trigger_happy_buff_desc" : "Teil eines zusammenfassenden Buffs.",
	"wolfhud_hudlist_underdog_buff_title" : "Underdog",
	"wolfhud_hudlist_underdog_buff_desc" : "Teil eines zusammenfassenden Buffs.",
	"wolfhud_hudlist_unseen_strike_buff_title" : "Schlag aus dem Nichts",
	"wolfhud_hudlist_unseen_strike_buff_desc" : "",
	"wolfhud_hudlist_up_you_go_buff_title" : "Hoch mit Dir",
	"wolfhud_hudlist_up_you_go_buff_desc" : "Teil eines zusammenfassenden Buffs.",
	"wolfhud_hudlist_uppers_buff_title" : "Aufputschmittel",
	"wolfhud_hudlist_uppers_buff_desc" : "",
	"wolfhud_hudlist_yakuza_buff_title" : "Rüstungsregeneration (Yakuza)",
	"wolfhud_hudlist_yakuza_buff_desc" : "",
	"wolfhud_hudlist_anarchist_armor_recovery_debuff_title" : "Lebenslust (Anarchist)",
	"wolfhud_hudlist_anarchist_armor_recovery_debuff_desc" : "",
	"wolfhud_hudlist_ammo_give_out_debuff_title" : "Teilen ist das neue Haben Debuff (Spieler)",
	"wolfhud_hudlist_ammo_give_out_debuff_desc" : "",
	"wolfhud_hudlist_bullseye_debuff_title" : "Bullseye Debuff",
	"wolfhud_hudlist_bullseye_debuff_desc" : "",
	"wolfhud_hudlist_inspire_debuff_title" : "Anfeuern Debuff (Boost)",
	"wolfhud_hudlist_inspire_debuff_desc" : "",
	"wolfhud_hudlist_inspire_revive_debuff_title" : "Anfeuern Debuff (Wiederbelebung)",
	"wolfhud_hudlist_inspire_revive_debuff_desc" : "",
	"wolfhud_hudlist_life_drain_debuff_title" : "Lebensentzug Debuff (Spion)",
	"wolfhud_hudlist_life_drain_debuff_desc" : "",
	"wolfhud_hudlist_medical_supplies_debuff_title" : "Mehr Heilung Debuff (Spieler)",
	"wolfhud_hudlist_medical_supplies_debuff_desc" : "",
	"wolfhud_hudlist_sociopath_debuff_title" : "Regenerations Debuff (Sociopath)",
	"wolfhud_hudlist_sociopath_debuff_desc" : "",
	"wolfhud_hudlist_armorer_teambuff_title" : "Erhöhte Rüstung Teambuff (Armorer)",
	"wolfhud_hudlist_armorer_teambuff_desc" : "",
	"wolfhud_hudlist_bulletproof_teambuff_title" : "Schockschwerenot Teambuff",
	"wolfhud_hudlist_bulletproof_teambuff_desc" : "",
	"wolfhud_hudlist_crew_chief_teambuff_title" : "Erhöhte Stats Teambuff (Crewboss)",
	"wolfhud_hudlist_crew_chief_teambuff_desc" : "Teil eines zusammenfassenden Buffs.",
	"wolfhud_hudlist_forced_friendship_teambuff_title" : "Zwangsfreundschaft Teambuff",
	"wolfhud_hudlist_forced_friendship_teambuff_desc" : "",
	"wolfhud_hudlist_life_steal_gage_debuff_title" : "Lebensraub",
	"wolfhud_hudlist_life_steal_gage_debuff_desc" : "",
	"wolfhud_hudlist_invulnerable_gage_buff_title" : "Unverwundbarkeit",
	"wolfhud_hudlist_invulnerable_gage_buff_desc" : "",
	"wolfhud_hudlist_crew_inspire_debuff_title" : "Inspirierend",
	"wolfhud_hudlist_crew_inspire_debuff_desc" : "",
	"wolfhud_hudlist_crew_throwable_regen_buff_title" : "Hamsterer",
	"wolfhud_hudlist_crew_throwable_regen_buff_desc" : "",
	"wolfhud_hudlist_crew_health_regen_buff_title" : "Heiler",
	"wolfhud_hudlist_crew_health_regen_buff_desc" : "",

	"wolfhud_waypoints_options_name" : "Zusätzliche Wegpunkte",
	"wolfhud_waypoints_options_help" : "Wähle die zusätzlichen Wegpunkte, die du angezeigt bekommen möchtest.",

	"wolfhud_waypoints_color_title" : "Wegpunktfarbe",
	"wolfhud_waypoints_color_desc" : "Die Farbe der standard Missions-Wegpunkte.",
	"wolfhud_waypoints_show_ammo_bag_title" : "Zeige Munitionstaschen",
	"wolfhud_waypoints_show_ammo_bag_desc" : "Zeige einen Wegpunkt für Munitionstaschen, der dir verrät, wie viel Munition übrig ist.",
	"wolfhud_waypoints_show_doc_bag_title" : "Zeige Arzttaschen",
	"wolfhud_waypoints_show_doc_bag_desc" : "Zeige einen Wegpunkt für Arzttaschen, der dir verrät, wie viele Ladungen übrig sind.",
	"wolfhud_waypoints_show_first_aid_kit_title" : "Zeige Erste-Hilfe-Sets",
	"wolfhud_waypoints_show_first_aid_kit_desc" : "Zeige einen Wegpunkt für Erste-Hilfe-Sets, der dir ihre geskillten Effekte verrät.",
	"wolfhud_waypoints_show_body_bag_title" : "Zeige Leichensack-Taschen",
	"wolfhud_waypoints_show_body_bag_desc" : "Zeige einen Wegpunkt für Leichensack-Taschen, der dir verrät, wie viele Leichensäcke übrig sind.",
	"wolfhud_waypoints_show_grenade_crate_title" : "Zeige Granatenkoffer",
	"wolfhud_waypoints_show_grenade_crate_desc" : "Zeige einen Wegpunkt für Granatenkoffer, der dir verrät, wie viele Granaten übrig sind.",
	"wolfhud_waypoints_show_sentries_title" : "Zeige Sentries",
	"wolfhud_waypoints_show_sentries_desc" : "Zeige einen Wegpunkt für Sentries, der dir ihre verbleibenden Lebenspunkte und Munition anzeigt.",
	"wolfhud_waypoints_show_ecms_title" : "Zeige ECMs",
	"wolfhud_waypoints_show_ecms_desc" : "Zeige einen Wegpunkt für ECMs, der dir die verbleibende Batterie- und Feedback-Dauer anzeigt.",
	"wolfhud_waypoints_show_timers_title" : "Zeige Timer",
	"wolfhud_waypoints_show_timers_desc" : "Zeige einen Wegpunkt für Timer, der dir die verbleibende Zeit und die aktiven Upgrades anzeigt.",
	"wolfhud_waypoints_show_loot_title" : "Zeige Beute",
	"wolfhud_waypoints_show_loot_desc" : "Zeige den Namen über der Beute, wenn du in deren Richtung schaust.",
	"wolfhud_waypoints_loot_icon_title" : "Taschensymbol",
	"wolfhud_waypoints_loot_icon_desc" : "Zeige das Taschensymbol für verpackte Beute.",
	"wolfhud_waypoints_loot_offset_title" : "Vertikaler Abstand",
	"wolfhud_waypoints_loot_offset_desc" : "Setze den vertikalen Abstand des Wegpunkts für unverpackte Beute.",
	"wolfhud_waypoints_loot_bagged_offset_title" : "Vertikaler Abstand (Verpackt)",
	"wolfhud_waypoints_loot_bagged_offset_desc" : "Setze den vertikalen Abstand des Wegpunkts für verpackte Beute.",
	"wolfhud_waypoints_loot_angle_title" : "Sichtbarer Winkel",
	"wolfhud_waypoints_loot_angle_desc" : "Setze den Winkel in dem der Wegpunkt sichtbar ist.",
	"wolfhud_waypoints_show_special_equipment_title" : "Zeige spezielles Equipment",
	"wolfhud_waypoints_show_special_equipment_desc" : "Zeige Wegpunkte für verschiedenes spezielles Equipment. Gut um die verschiedenen Fundorte zu lernen.",
	"wolfhud_waypoints_show_minions_title" : "Zeige Joker",
	"wolfhud_waypoints_show_minions_desc" : "Zeige den Namen von konvertierten Polizisten in der Farbe des Spielers der sie konvertierte.\nZeigt auch dessen Tötungen.",
	"wolfhud_waypoints_show_pager_title" : "Zeige Pager",
	"wolfhud_waypoints_show_pager_desc" : "Zeige einen Wegpunkt für aktivierte Pager. Ändert die Farbe, falls er von jemandem beantwortet wird.",

	"wolfhud_tabstats_options_name" : "TabStats Optionen",
	"wolfhud_tabstats_options_help" : "Konfiguriere das Aussehen des Tab-Panels.",

	"wolfhud_tabstats_clock_mode_title" : "Uhr-Modus",
	"wolfhud_tabstats_clock_mode_desc" : "Welchen Modus soll die Uhr benutzen?",
	"wolfhud_tabstats_clock_mode_a" : "12-h",
	"wolfhud_tabstats_clock_mode_b" : "24-h",
	"wolfhud_tabstats_clock_mode_c" : "Dauer des Auftrags",
	"wolfhud_use_tabstats_title" : "Benutze TabStats",
	"wolfhud_use_tabstats_desc" : "Zeige deine Statistiken auf dem Tab-Panel, anstatt der Missionseinführung.\n(Wird erst nach Mapwechsel aktiv...)",
	"wolfhud_tabstats_font_size_title" : "Schriftgröße der Liste",
	"wolfhud_tabstats_font_size_desc" : "Schriftgröße der Liste mit erweiterten Statistiken.",
	"wolfhud_tabstats_color_title" : "Farbe der Liste",
	"wolfhud_tabstats_color_desc" : "Farbe der Liste mit erweiterten Statistiken.",
	"wolfhud_tabstats_actual_mask_title" : "Benutze aktuelle Maske",
	"wolfhud_tabstats_actual_mask_desc" : "Zeige deine aktuelle Maske anstatt des Profilbildes des gespielten Charakters.",
	"wolfhud_tabstats_numberic_loot_title" : "Numerischer Beute Zähler",
	"wolfhud_tabstats_numberic_loot_desc" : "Ersetze das Minispiel des Taschenzählens mit der wirklichen Zahl an gesicherter Beute.",

	"wolfhud_crewloadout_options_name" : "Crew Loadout Optionen",
	"wolfhud_crewloadout_options_help" : "Wähle aus, wo du Informationen zu Ausrüstung und Fähigkeiten deiner Mitspieler angezeigt bekommen möchtest.",

	"wolfhud_crewloadout_lobby_title" : "Zeige in der Lobby",
	"wolfhud_crewloadout_lobby_desc" : "Fügt dem Lobby Bildschirm einen Knopf hinzu, der deine und die Ausrüstung deiner Crew anzeigt.",
	"wolfhud_crewloadout_cs_lobby_title" : "Zeige in Crimespree-Lobby",
	"wolfhud_crewloadout_cs_lobby_desc" : "Fügt der Crimespree-Lobby einen neuen Tab neben den Modifizierungen und Belohnungen hinzu.",
	"wolfhud_crewloadout_briefing_title" : "Ersetze in Briefing",
	"wolfhud_crewloadout_briefing_desc" : "Ersetzt das Standard Crew Loadout-Panel im Missionsbriefing.",
	"wolfhud_crewloadout_tabscreen_title" : "Zeige auf dem Tab-Panel",
	"wolfhud_crewloadout_tabscreen_desc" : "Zeigt die Fähigkeiten, Vorteildeck und aktuellen Ping der Spieler in deiner Lobby. \n(Deaktiviert, wenn du diese Funktion von LobbyPlayerInfo nutzt.)",
    "wolfhud_profilemenu_replace_title" : "Ersetze Profil-Menü",
    "wolfhud_profilemenu_replace_desc" : "Ersetzt die Standard Profil-Auswahl mit WolfHUDs verbessertem Menü.",

	"wolfhud_dmgindicator_options_name" : "Schadensindikator",
	"wolfhud_dmgindicator_options_help" : "Bestimme die Zeit, Größe und Farben des Schadensindikators.",

	"wolfhud_show_dmg_indicator_title" : "Dynamischer Schadensindikator",
	"wolfhud_show_dmg_indicator_desc" : "Ändert die 4 statischen Indikatoren in viele dynamische, die sich in Relation zu deiner aktuellen Position und der Schadensrichtung bewegen.",
	"wolfhud_dmg_ind_time_title" : "Indikatordauer",
	"wolfhud_dmg_ind_time_desc" : "Bestimmt die Dauer, die der Indikator angezeigt wird.",
	"wolfhud_dmg_ind_size_title" : "Indikatorgröße",
	"wolfhud_dmg_ind_size_desc" : "Bestimmt die Größe des Kreises, auf dem sich der Indikator bewegt.",
	"wolfhud_dmg_indicator_max_count_title" : "Max Indikatoranzahl",
	"wolfhud_dmg_indicator_max_count_desc" : "Lege die maximale Anzahl an Indikatoren auf deinem Bildschirm fest.",
	"wolfhud_dmg_shield_color_title" : "Rüstungsfarbe",
	"wolfhud_dmg_shield_color_desc" : "Farbe des Indikators, wenn du nur Rüstung verlierst.",
	"wolfhud_dmg_health_color_title" : "Lebensfarbe",
	"wolfhud_dmg_health_color_desc" : "Farbe des Indikators, wenn du Leben verlierst.",
	"wolfhud_dmg_crit_color_title" : "Niedriges Leben-Farbe",
	"wolfhud_dmg_crit_color_desc" : "Farbe des Indikators, wenn dein Leben zur Neige geht.",
	"wolfhud_dmg_vehicle_color_title" : "Fahrzeugfarbe",
	"wolfhud_dmg_vehicle_color_desc" : "Farbe des Indikators, wenn du in einem Fahrzeug bist, das Schaden nimmt.",
	"wolfhud_dmg_friendlyfire_color_title" : "Teambeschuss-Farbe",
	"wolfhud_dmg_friendlyfire_color_desc" : "Farbe des Indikators, wenn du Feuer- oder Explosivschaden nimmst.",

	"wolfhud_dmgpopup_options_name" : "Gegner Schadenspopup",
	"wolfhud_dmgpopup_options_help" : "Popup am Kopf des Gegners, zeigt an wie viel Schaden du ihm zugefügt hast.",

	"wolfhud_show_dmg_popup_title" : "WolfHUD Popups",
	"wolfhud_show_dmg_popup_desc" : "Aktiviere WolfHUD Schadenspopup.",
	"wolfhud_dmg_popup_player" : "Spieler",
	"wolfhud_dmg_popup_all" : "Jeder",
	"wolfhud_dmg_popup_scale_title" : "Popup-Skalierung",
	"wolfhud_dmg_popup_scale_desc" : "Ändert die Größe des Popups.",
	"wolfhud_dmg_popup_skull_scale_title" : "Schädel-Skalierung",
	"wolfhud_dmg_popup_skull_scale_desc" : "Ändert die Größe des Schadelicons bei einer Tötung.",
	"wolfhud_dmg_popup_skull_align_title" : "Schädel Ausrichtung",
	"wolfhud_dmg_popup_skull_align_desc" : "Ändert die Ausrichtung des Schädelicons bei einer Tötung.",
	"wolfhud_dmg_popup_time_title" : "Popup-Zeit",
	"wolfhud_dmg_popup_time_desc" : "Bestimmt wie lange das Popup angezeigt wird.",
	"wolfhud_dmg_popup_height_title" : "Popup-Höhe",
	"wolfhud_dmg_popup_height_desc" : "Bestimmt wie hoch über einem Gegner das Popup erscheinen wird.",
	"wolfhud_dmg_popup_alpha_title" : "Popup-Deckkraft",
	"wolfhud_dmg_popup_alpha_desc" : "Setzt die Deckkraft des Popups.",
	"wolfhud_dmg_popup_color_title" : "Körpertreffer Popup-Farbe",
	"wolfhud_dmg_popup_color_desc" : "Setzt die Farbe des Popups für normale Körpertreffer.",
	"wolfhud_dmg_popup_critical_color_title" : "Kritischer Treffer Popup-Farbe",
	"wolfhud_dmg_popup_critical_color_desc" : "Setzt die Farbe des Popups für kritische Treffer.",
	"wolfhud_dmg_popup_headshot_color_title" : "Kopfschuss Popup-Farbe",
	"wolfhud_dmg_popup_headshot_color_desc" : "Setzt die Farbe des Popups für Kopftreffer.",

	"wolfhud_dmg_popup_show_alt_popup_title" : "Zeige alternative Schadenspopups",
	"wolfhud_dmg_popup_show_alt_popup_desc" : "Aktiviert ein alternatives Popup für Schaden.",
	"wolfhud_dmg_popup_headshot_glow_color_title" : "Kopfschuss Aufleuchten-Farbe",
	"wolfhud_dmg_popup_headshot_glow_color_desc" : "Setzt die Farbe des Aufleuchtens bei Kopfschüssen.",

	"wolfhud_enemyhealthbar_options_name": "Gegner Lebensanzeige Optionen",
	"wolfhud_enemyhealthbar_options_help": "Optionen für die Lebensanzeige von Gegnern.",

	"wolfhud_enemyhealthbar_enable_enemy_health_circle" : "Gegner Lebensanzeige (Kreis)",
	"wolfhud_enemyhealthbar_enable_enemy_health_circle_desc" : "Zeigt gegnerische Lebensanzeigen als Kreis, wenn sie im Fadenkreuz sind.",
	"wolfhud_show_enemyhealthbar_title" : "Gegner Lebensanzeige (Balken)",
	"wolfhud_show_enemyhealthbar_desc" : "Zeigt gegnerische Lebensanzeigen als Balken, wenn sie im Fadenkreuz sind.\n(Wird erst nach Mapwechsel aktiv...)",
	"wolfhud_enemyhealthbar_ignore_civilian_health" : "Ignoriere Zivilisten",
	"wolfhud_enemyhealthbar_ignore_civilian_health_desc" : "Ignoriert die Lebensanzeige von Zivilisten, wenn sie im Fadenkreuz sind.",
	"wolfhud_enemyhealthbar_enemy_health_size" : "Gegner Lebensanzeige größe",
	"wolfhud_enemyhealthbar_enemy_health_size_desc" : "Setzt die Größe der gegnerischen Lebensanzeige. [Benötigt einen Neustart des Levels]",
	"wolfhud_enemyhealthbar_enemy_text_size" : "Gegner Lebensanzeige Textgröße",
	"wolfhud_enemyhealthbar_enemy_text_size_desc" : "Setzt die Textgröße gegnerischen Lebensanzeige. [Benötigt einen Neustart des Levels]",
	"wolfhud_enemyhealthbar_enemy_health_vertical_offset" : "Gegner Lebensanzeige Vertikale Position",
	"wolfhud_enemyhealthbar_enemy_health_vertical_offset_desc" : "Setzt die vertikale Position der gegnerischen Lebensanzeige. Ein leerer Schieber positioniert sie am oberen Rand. [Benötigt einen Neustart des Levels]",
	"wolfhud_enemyhealthbar_enemy_health_horizontal_offset" : "Gegner Lebensanzeige Horizontale Position",
	"wolfhud_enemyhealthbar_enemy_health_horizontal_offset_desc" : "Setzt die horizontale Position der gegnerischen Lebensanzeige. Ein leer Schieber positioniert sie am linken Rand. [Benötigt einen Neustart des Levels]",
	"wolfhud_enemyhealthbar_ignore_team_ai_health" : "Ignoriere Botleben",
	"wolfhud_enemyhealthbar_ignore_team_ai_health_desc" : "Ignoriert die Lebensanzeige von Bots",
	"wolfhud_ignore_carhealthbar_title" : "Zeige  Fahrzeugleben",
	"wolfhud_ignore_carhealthbar_desc" : "Zeigt Lebensanzeige für fahrbare Fahrzeuge.",
	"wolfhud_show_healthbar_pointer_title" : "Lebensanzeige Zeiger",
	"wolfhud_show_healthbar_pointer_desc" : "Setzt einen Pfeil unter der Lebensanzeige, die auf deren Besitzer zeigt.",

	"wolfhud_interaction_options_name" : "Interaktionsoptionen",
	"wolfhud_interaction_options_help" : "Wähle dein Interaktionsverhalten.",

	"wolfhud_press2hold_custom_huds_support_title" : "Unterstützung anderer HUDs",
	"wolfhud_press2hold_custom_huds_support_desc" : "MUI, PDTH HUD Fix",

	"wolfhud_press2hold_lock_mode_title" : "Sperrmodus",
	"wolfhud_press2hold_lock_mode_desc" : "Sperren, wenn schon länger als X Sekunden interagiert wird. (Fortschritt)\nSperren, wenn benötigte Interaktionszeit insgesamt länger ist als X Sekunden. (Gesamt)",
	"wolfhud_press2hold_lock_mode_a" : "Fortschritt",
	"wolfhud_press2hold_lock_mode_b" : "Gesamt",
	"wolfhud_press2hold_lock_mode_c" : "Pager + Schlösser",
	"wolfhud_press2hold_lock_mode_d" : "Nur Pager",
	"wolfhud_press2hold_min_timer_duration_title" : "Min. Timerdauer",
	"wolfhud_press2hold_min_timer_duration_desc" : "Die minimale Timerdauer um die Interaktion zu sperren.",
	"wolfhud_press2hold_show_lockindicator_title" : "Zeige Sperrindikator",
	"wolfhud_press2hold_show_lockindicator_desc" : "Zeige transparenten, rot-grünen Kreis zur Visualisierung, ob die Interaktion gesperrt ist oder nicht.",
	"wolfhud_press2hold_equipment_cancel_title" : "Equipment Abbrechen",
	"wolfhud_press2hold_equipment_cancel_desc" : "Breche eine gesperrte Interaktion mit der Equipment-Taste ab.\n(Andernfalls durch erneutes drücken der Interaktionstaste.)",
	"wolfhud_press2hold_interrupt_hint_title" : "Zeige 'Abbrechen' Hinweis",
	"wolfhud_press2hold_interrupt_hint_desc" : "Zeige einen Text zur Erinnerung, wie man die Interaktion abbricht.",
	"wolfhud_press2hold_show_timer_title" : "Zeige verbleibende Zeit",
	"wolfhud_press2hold_show_timer_desc" : "Zeigt die verbleibende Zeit innerhalb des Interaktionskreises.",
	"wolfhud_press2hold_show_circle_title" : "Zeige Interaktionskreis",
	"wolfhud_press2hold_show_circle_desc" : "Bestimmt, ob der normale Interaktionskreis angezeigt wird.",
	"wolfhud_press2hold_circle_scale_title" : "Interaktionskreis-Skalierung",
	"wolfhud_press2hold_circle_scale_desc" : "Skalierungsfaktor des Interaktionskreises",
	"wolfhud_press2hold_timer_scale_title" : "Timer-Skalierung",
	"wolfhud_press2hold_timer_scale_desc" : "Skalierungsfaktor des mittleren Timers (Wird auch von der Interaktionskreis Skalierung beeinflusst).",
	"wolfhud_press2hold_text_scale_title" : "Interaktionstext-Skalierung",
	"wolfhud_press2hold_text_scale_desc" : "Skalierungsfaktor des Interaktionstextes unter dem Kreis.",
	"wolfhud_press2hold_show_reload_circle_title" : "Zeige Nachladetimer",
	"wolfhud_press2hold_show_reload_circle_desc" : "Zeige Nachladen als Interaktion",
	"wolfhud_press2hold_show_melee_circle_title" : "Zeige Nahkampfaufladung",
	"wolfhud_press2hold_show_melee_circle_desc" : "Zeige Nahkapfaufladung als Interaktion.",
	"wolfhud_press2hold_timer_color_start_title" : "Timerfarbe (Start)",
	"wolfhud_press2hold_timer_color_start_desc" : "Farbe, mit der der Timer startet.",
	"wolfhud_press2hold_timer_color_title" : "Timerfarbe (Ende)",
	"wolfhud_press2hold_timer_color_desc" : "Farbe, die der Timer zum Abschluss hin erreicht.",
	"wolfhud_press2hold_show_timer_outline_title" : "Schwarze Umrandung",
	"wolfhud_press2hold_show_timer_outline_desc" : "Zeige eine schwarze Umrandung um den Timer Text.",
	"wolfhud_doubletap_nades_stealth_title" : "Granatenunterdrückung im Stealth",
	"wolfhud_doubletap_nades_stealth_desc" : "Wenn ausgewählt, musst du im Stealth 2x schnell die Granatentaste drücken, um sie zu werfen.\nZum Vorbeugen von Unfällen.",
	"wolfhud_hold_to_pick_title" : "Automatisches Aufheben",
	"wolfhud_hold_to_pick_desc" : "Kleine Beute wird automatisch aufgehoben, während du die Interaktionstaste gedrückt hältst.",

	"wolfhud_inventory_options_name" : "Inventar-Tweak- Optionen",
	"wolfhud_inventory_options_help" : "Optionen, um das Inventar und das Verhalten von Equipment zu verändern.",

	"wolfhud_equipment_senty_auto_ap_title" : "Sentry Auto AP-Modus",
	"wolfhud_equipment_senty_auto_ap_desc" : "Sentrys werden im AP-Modus platziert, wenn du den erforderlichen Skill hast.",
	"wolfhud_equipment_tripmine_auto_sensor_stealth_title" : "Stolpermine Auto Sensor-Modus",
	"wolfhud_equipment_tripmine_auto_sensor_stealth_desc" : "Stolperminen werden im Sensor-Modus platziert, solange du unentdeckt bleibst.",
	"wolfhud_equipment_ecm_feedback_disabled_stealth_title" : "Kein ECM-Feedback",
	"wolfhud_equipment_ecm_feedback_disabled_stealth_desc" : "ECM-Feedback wird deaktiviert, solange du unentdeckt bleibst.",
	"wolfhud_equipment_shaped_charge_disabled_stealth_title" : "Sprengladungunterdrückung im Stealth",
	"wolfhud_equipment_shaped_charge_disabled_stealth_desc" : "Wenn ausgewählt, musst du im Stealth 2x schnell die Interaktionstaste drücken, um eine Sprengladung zu platzieren.\nZum Vorbeugen von Unfällen.",
	"wolfhud_equipment_keycard_doors_disabled_title" : "Unterdrückung von Key-Card-Türen",
	"wolfhud_equipment_keycard_doors_disabled_desc" : "Wenn ausgewählt, musst du am 2. Tag von Hoxtons Ausbruch 2x schnell die Interaktionstaste drücken, um eine Tür zu schließen.\nZum Vorbeugen von Unfällen.",

	"wolfhud_gadget_options_name" : "Waffen-Gadget-Optionen",
	"wolfhud_gadget_options_help" : "Wähle Laserfarben",

	"wolfhud_laser_autoon_title" : "Auto-Laser An",
	"wolfhud_laser_autoon_desc" : "Schaltet die Laser beim Missionsstart automatisch ein, wenn die Waffe einen Laser besitzt.",
	"wolfhud_show_angeled_sight_title" : "Zeige Winkelvisier",
	"wolfhud_show_angeled_sight_desc" : "Neige die Waffe in deiner Hand, während ein Winkelvisier benutzt wird.",

	"wolfhud_gadget_player_laser_options_name" : "Spielerlaser",
	"wolfhud_gadget_player_laser_options_help" : "Einstellungen für deinen eigenen Laser.",
	"wolfhud_gadget_player_sentry_laser_options_name" : "Spielersentry-Optionen",
	"wolfhud_gadget_player_sentry_laser_options_help" : "Einstellungen für die Laser deiner Sentries.",
	"wolfhud_gadget_team_laser_options_name" : "Mitspielerlaser",
	"wolfhud_gadget_team_laser_options_help" : "Einstellungen für die Laser deiner Mitspieler.",
	"wolfhud_gadget_team_sentry_laser_options_name" : "Mitspielersentry-Laser",
	"wolfhud_gadget_team_sentry_laser_options_help" : "Einstellungen für die Laser der Sentries deiner Mitspieler.",
	"wolfhud_gadget_sniper_laser_options_name" : "Sniperlaser",
	"wolfhud_gadget_sniper_laser_options_help" : "Einstellungen für die Laser von gegnerischen Snipern.",
	"wolfhud_gadget_turret_laser_active_options_name" : "Geschützwagen Laser (Aktiv)",
	"wolfhud_gadget_turret_laser_active_options_help" : "Laser-Einstellungen für den aktiven SWAT Geschützwagen.",
	"wolfhud_gadget_turret_laser_rearming_options_name" : "Geschützwagen Laser (Nachladen)",
	"wolfhud_gadget_turret_laser_rearming_options_help" : "Laser-Einstellungen für den nachladenden SWAT Geschützwagen.",
	"wolfhud_gadget_turret_laser_mad_options_name" : "Geschützwagen Laser (Verrückt)",
	"wolfhud_gadget_turret_laser_mad_options_help" : "Laser-Einstellungen für den gejammten SWAT Geschützwagen.",
	"wolfhud_gadget_player_flashlight_options_name" : "Spielertaschenlampe",
	"wolfhud_gadget_player_flashlight_options_help" : "Einstellungen für deine eigene Taschenlampe.",
	"wolfhud_gadget_team_flashlight_options_name" : "Mitspielertaschenlampe",
	"wolfhud_gadget_team_flashlight_options_help" : "Einstellungen für die Taschenlampen deiner Mitspieler.",

	"wolfhud_gadgets_enabled_title" : "Überschreibe Farbe",
	"wolfhud_gadgets_enabled_desc" : "Benutze diese Einstellungen, anstatt der Gadget-Konfiguration.",
	"wolfhud_gadgets_beam_r_title" : "Laserstrahl (R)",
	"wolfhud_gadgets_beam_r_desc" : "Rotanteil der Laserfarbe.",
	"wolfhud_gadgets_beam_g_title" : "Laserstrahl (G)",
	"wolfhud_gadgets_beam_g_desc" : "Grünanteil der Laserfarbe.",
	"wolfhud_gadgets_beam_b_title" : "Laserstrahl (B)",
	"wolfhud_gadgets_beam_b_desc" : "Blauanteil der Laserfarbe.",
	"wolfhud_gadgets_beam_a_title" : "Laserstrahl Alpha",
	"wolfhud_gadgets_beam_a_desc" : "Deckkraft des Laserstrahls.",
	"wolfhud_gadgets_dot_match_title" : "Passende Punktfarbe",
	"wolfhud_gadgets_dot_match_desc" : "Bestimmt, ob der Punkt farblich zum Strahl passen soll.",
	"wolfhud_gadgets_dot_r_title" : "Laserpunkt (R)",
	"wolfhud_gadgets_dot_r_desc" : "Rotanteil der Laserpunktfarbe.",
	"wolfhud_gadgets_dot_g_title" : "Laserpunkt (G)",
	"wolfhud_gadgets_dot_g_desc" : "Grünanteil der Laserpunktfarbe.",
	"wolfhud_gadgets_dot_b_title" : "Laserpunkt (B)",
	"wolfhud_gadgets_dot_b_desc" : "Blauanteil der Laserpunktfarbe.",
	"wolfhud_gadgets_dot_a_title" : "Laserpunkt Alpha",
	"wolfhud_gadgets_dot_a_desc" : "Deckkraft des Laserpunkts",
	"wolfhud_gadgets_glow_match_title" : "Passende Scheinfarbe",
	"wolfhud_gadgets_glow_match_desc" : "Bestimmt, ob das Leuchten um den Punkt farblich zum Strahl passen soll.",
	"wolfhud_gadgets_glow_r_title" : "Laserschein (R)",
	"wolfhud_gadgets_glow_r_desc" : "Rotanteil der Laserscheinfarbe.",
	"wolfhud_gadgets_glow_g_title" : "Laserschein (G)",
	"wolfhud_gadgets_glow_g_desc" : "Grünanteil der Laserscheinfarbe.",
	"wolfhud_gadgets_glow_b_title" : "Laserschein (B)",
	"wolfhud_gadgets_glow_b_desc" : "Blauanteil der Laserscheinfarbe.",
	"wolfhud_gadgets_glow_a_title" : "Laserschein Alpha",
	"wolfhud_gadgets_glow_a_desc" : "Deckkraft der Laserscheinfarbe.",
	"wolfhud_gadgets_light_r_title" : "Taschenlampe (R)",
	"wolfhud_gadgets_light_r_desc" : "Rotanteil der Taschenlampenfarbe.",
	"wolfhud_gadgets_light_g_title" : "Taschenlampe (G)",
	"wolfhud_gadgets_light_g_desc" : "Grünanteil der Taschenlampenfarbe.",
	"wolfhud_gadgets_light_b_title" : "Taschenlampe (B)",
	"wolfhud_gadgets_light_b_desc" : "Blauanteil der Taschenlampenfarbe.",
	"wolfhud_gadgets_light_brightness_title" : "Taschenlampen Helligkeit",
	"wolfhud_gadgets_light_brightness_desc" : "Helligkeit der Taschenlampe.",
	"wolfhud_gadgets_light_angle_title" : "Taschenlampenwinkel",
	"wolfhud_gadgets_light_angle_desc" : "Der Winkel, in dem die Taschenlampe strahlt.",
	"wolfhud_gadgets_light_range_title" : "Taschenlampen Reichweite",
	"wolfhud_gadgets_light_range_desc" : "Entfernung, die die Taschenlampe abdecken kann.",
	"wolfhud_gadgets_rainbow_enabled_title" : "Aktiviere Regenbogen",
	"wolfhud_gadgets_rainbow_enabled_desc" : "Aktiviert den Regenbogen-Modus.",
	"wolfhud_gadgets_rainbow_frequency_title" : "Regenbogen-Frequenz",
	"wolfhud_gadgets_rainbow_frequency_desc" : "Bestimmt, wie schnell der Regenbogen die Farbe wechselt.",
	"wolfhud_gadgets_pulse_enabled_title" : "Aktiviere Pulsieren",
	"wolfhud_gadgets_pulse_enabled_desc" : "Aktiviert den pulsierenden Modus.",
	"wolfhud_gadgets_pulse_min_title" : "Puls Min",
	"wolfhud_gadgets_pulse_min_desc" : "Minimaler Deckkraft-Multiplikator.",
	"wolfhud_gadgets_pulse_max_title" : "Puls Max",
	"wolfhud_gadgets_pulse_max_desc" : "Maximaler Deckkraft-Multiplikator.",
	"wolfhud_gadgets_pulse_frequency_title" : "Puls Frequenz",
	"wolfhud_gadgets_pulse_frequency_desc" : "Bestimmt die Zeit, die der Puls vom minimalen zum maximalen Multiplikator benötigt.",

	"wolfhud_skipit_options_name" : "Skip-It Optionen",
	"wolfhud_skipit_options_help" : "Optionen um überflüssige Menüs automatisch zu überspringen, um Zeit zu sparen.",
	"wolfhud_assaultbanner_options_name" : "Ansturmbanner Optionen",
	"wolfhud_assaultbanner_options_help" : "Optionen um das Ansturmbanner zu verändern.",

	"wolfhud_panels_show_bulletstorm_title" : "Zeige Kugelhagel-Indikator",
	"wolfhud_panels_show_bulletstorm_desc" : "Zeigt ein blinkendes Leuchten, wenn die Kugelhagel-Fähigkeit aktiv ist.",
	"wolfhud_invertedfbg_title" : "Blendgranatenleuchten invertieren",
	"wolfhud_invertedfbg_desc" : "Ändert den Effekt von Blendgranaten von weiß zu schwarz",
	"wolfhud_enemy_bolivian_security_mex" : "Coyopa Sicherheit",

    "wolfhud_infopanels_buff_player_actions_options_name" : "Spieleraktionen-Optionen",
	"wolfhud_infopanels_buff_player_actions_options_help" : "Aktiviert/Deaktiviert bestimmte Aktionen",
	"wolfhud_hudlist_anarchist_armor_regeneration_action_title" : "Anarchist Rüstungsregeneration",
	"wolfhud_hudlist_anarchist_armor_regeneration_buff_desc" : "",
	"wolfhud_hudlist_standard_armor_regeneration_action_title" : "Rüstungsregeneration",
	"wolfhud_hudlist_standard_armor_regeneration_action_desc" : "",
	"wolfhud_hudlist_weapon_charge_action_title" : "Waffen aufladen",
	"wolfhud_hudlist_weapon_charge_action_desc" : "",
	"wolfhud_hudlist_melee_charge_action_title" : "Nahkampf aufladen",
	"wolfhud_hudlist_melee_charge_action_desc" : "",
	"wolfhud_hudlist_reload_action_title" : "Nachladen Dauer",
	"wolfhud_hudlist_reload_action_desc" : "",
	"wolfhud_hudlist_interact_action_title" : "Interaktionsdauer",
	"wolfhud_hudlist_interact_action_desc" : "",
	"wolfhud_heist_timer_title" : "Zeige Leveltimer im Chat",
	"wolfhud_heist_timer_desc" : "Zeigt einen Timer für den aktuellen Heist in der Chatbox",
	"wolfhud_enable_time_left_title" : "Ingame-Beitritt verbleibend",
	"wolfhud_enable_time_left_desc" : "Der Beitrittsdialog im Spiel zeigt Ihnen, wie viele Sekunden noch verbleiben",
	"wolfhud_infopanels_show_special_pickups_options_name" : "Spezialpickups-Optionen",
	"wolfhud_infopanels_show_special_pickups_options_help" : "Wähle welche Pickups in Spiel angezeigt werden.",
	"wolfhud_hudlist_show_crowbar_title" : "Zeige Brecheisen",
	"wolfhud_hudlist_show_crowbar_desc" : "",
	"wolfhud_hudlist_show_planks_title" : "Zeige Holzbretter/Planken",
	"wolfhud_hudlist_show_planks_desc" : "",
	"wolfhud_hudlist_show_keycard_title" : "Zeige Schlüsselkarten",
	"wolfhud_hudlist_show_keycard_desc" : "",
	"wolfhud_enable_peer_ping_title" : "Zeige Ping in der Lobby",
	"wolfhud_enable_peer_ping_desc" : "Zeigt die Höhe des Pings jedes Spielers in der Lobby.",
	"wolfhud_pacified_civs_alt_icon_title" : "Alternatives Symbol",
	"wolfhud_pacified_civs_alt_icon_desc" : "Ein optionales, grünes Symbol für besänftigte Zivilisten",
	"wolfhud_enable_headshot_title" : "Kopfschuss Bestätigungskreis",
	"wolfhud_enable_headshot_desc" : "Fügt bei Kopfschüssen einen Kreis zur Treffermarkierung hinzu",
	"wolfhud_enable_mask_instruct_title" : "Maskenanleitung",
	"wolfhud_enable_mask_instruct_desc" : "Zeigt die Aufforderung deine Maske anzuziehen wenn das Spiel beginnt",
	"wolfhud_enable_joker_contour_title" : "Farbige Jokerumrandung",
	"wolfhud_enable_joker_contour_desc" : "Die Farbe der Umrandung von konvertierten Polizisten passt sich der Farbe ihres Besitzers an.",
	"wolfhud_enable_sub_title" : "Untertitel Schatten",
	"wolfhud_enable_sub_desc" : "Fügt den Untertiteln einen Schatten hinzu",
    "wolfhud_sub_scale_title" : "Untertitel Skalierung",
    "wolfhud_sub_scale_desc" : "Ändere die Textgröße des Untertitels",
	"wolfhud_enable_inspire_hint_title" : "Anfeuern Abklingzeit Hinweis",
    "wolfhud_enable_inspire_hint_desc" : "Fügt einen Hinweis über die verbleibende Abklingzeit des Anfeuern-Skills",
	"wolfhud_inspire_hint_text" : "Anfeuern hat noch eine Abklingzeit von %.f Sekunden",
	"wolfhud_create_empty_lobby_title" : "Erstelle eine leere Lobby",
	"wolfhud_create_empty_lobby_desc" : "Erstellt eine Multiplayer-Lobby ohne Auftrag.",
	"wolfhud_mischud_options_name" : "Andere HUD-Optionen",
	"wolfhud_mischud_options_help" : "Enthält andere HUD-Optionen",
	"wolfhud_show_heat_title" : "Zeige Heat",
	"wolfhud_show_heat_desc" : "Zeige Heat-Symbole im Auftragsmanager",
	"wolfhud_crnt_size_title" : "CrimeNet Skalierung",
	"wolfhud_crnt_size_desc" : "Ändere die Schriftgröße im CrimeNet",
	"wolfhud_crnt_sort_title" : "Sortiere CrimeNet",
	"wolfhud_crnt_sort_desc" : "Sortiere CrimeNet Aufträge nach Schwierigkeitsgrad\nHinweis: Benötigt 'CrimeNet Ausrichten' zum funktioneren",
	"wolfhud_crnt_align_title" : "CrimeNet Ausrichten",
	"wolfhud_crnt_align_desc" : "Richte CrimeNet-Aufträge im Raster aus",
	"wolfhud_crnt_colorize_title" : "Färbe CrimeNet",
	"wolfhud_crnt_colorize_desc" : "Die CrimeNet-Aufträge sind nach Schwierigkeitsgrad farbkodiert und der Heat-Schein ist verringert",
	"wolfhud_show_reduction_title" : "Zeige Reduktion der Erfahrungspunkte",
	"wolfhud_show_reduction_desc" : "Zeigt Symbole zur Reduktion der Erfahrungspunkte im Auftragsmanager",
	"wolfhud_waypoints_color_enable_title" : "Erlaube farbige Wegpunkte",
	"wolfhud_waypoints_color_enable_desc" : "Erlaubt VanillaHUD die Farbe der Wegpunkte zu bestimmen",
	"wolfhud_wolfhud_pacified_civs_new_icons_title" : "Aktiviere Verdachtssymbol",
	"wolfhud_wolfhud_pacified_civs_new_icons_desc" : "Diese Option lässt dich verschiedene Verdachtssymbole einstellen",
	"wolfhud_pacified_civs_new_wolf_icon_title" : "Überwältigter Zivilist Blauer Marker",
	"wolfhud_pacified_civs_new_wolf_icon_desc" : "Ändert den Marker für überwältigte Zivilisten in ein blaues Zeichen",
	"wolfhud_pacified_civs_new_icon_title" : "Verbesserte Verdachtssymbole",
	"wolfhud_pacified_civs_new_icon_desc" : "Ändert das standardmäßige ? und ! in ein Informativeres Wachen-, Kamera- und Zivilisten-Symbol",
	"wolfhud_drill_icons_title" : "Zeige Bohrer Verbesserungssymbol",
	"wolfhud_drill_icons_desc" : "Zeige aktive Bohrer-Fähigkeiten bei Interaktion mit Bohrern/Sägen",
	"wolfhud_enemy_escort_it_guy" : "Bank EDV Typ",
	"wolfhud_hudlist_loot_egg" : "Ei",
	"wolfhud_hudlist_loot_treasure" : "Schatz",
	"wolfhud_enemy_mariachi" : "Mariachi Band Mitglied",
    "wolfhud_hud_scale_title" : "HUD Skalierung",
    "wolfhud_hud_scale_desc" : "Ändert die Größe des HUDs",
	"wolfhud_enable_joker_floating_name_title" : "Zeige Jokernamen",
	"wolfhud_enable_joker_floating_name_desc" : "Zeigt die Namen von Jokern über ihren Köpfen.",
	"wolfhud_enable_joker_floating_hp_title" : "Zeige Joker Lebensanzeigen",
	"wolfhud_enable_joker_floating_hp_desc" : "Zeigt Lebensanzeigen von Jokern über ihnen.",
	"wolfhud_enable_joker_floating_kills_title" : "Zeige Joker Kills",
	"wolfhud_enable_joker_floating_kills_desc" : "Zeigt Joker Kills über ihnen.",
	"wolfhud_enable_swan_song_effect_title" : "Schwanengesang-Effekt",
	"wolfhud_enable_swan_song_effect_desc" : "Der Bildschirm blinkt Blau, wenn Schwanengesang aktiviert wird.",
	"wolfhud_enable_kingpin_effect_title" : "Kingpin-Injektor-Effelt",
	"wolfhud_enable_kingpin_effect_desc" : "Der Bildschirm blinkt orange, wenn der Kingpin-Injektor aktiviert wird.",
	"wolfhud_enemy_deathvox_light" : "ZEAL Einheit",
	"wolfhud_enemy_deathvox_heavy" : "Schwerer ZEAL",
	"wolfhud_enemyhealthbarenemy_hurt_color_title" : "Gegnerschaden-Farbe",
	"wolfhud_enemyhealthbarenemy_hurt_color_desc" : "Stellen Sie die Farbe für die Lebensanzeige ein, wenn Sie einem Feind Schaden zufügen.",
	"wolfhud_enemyhealthbarenemy_kill_color_title" : "Gegnertötung-Farbe",
	"wolfhud_enemyhealthbarenemy_kill_color_desc" : "Stellen Sie die Farbe für die Lebensanzeige ein, wenn Sie einen Feind töten.",
	"wolfhud_dmg_popup_show_alt_civ_popup_title" : "Zeige Zivilisten Schadenspopups",
	"wolfhud_dmg_popup_show_alt_civ_popup_desc" : "Aktiviert die Schadenspopups von Zivilisten.",
	"wolfhud_dmg_popup_time_alt_title" : "Popup Alt Zeit",
	"wolfhud_dmg_popup_time_alt_desc" : "Bestimmt wie lange das Popup angezeigt wird.",
	"wolfhud_enemyhealthbar_show_multiplied_enemy_health" : "Zeige gegnerische Lebensanzeige x10",
	"wolfhud_enemyhealthbar_show_multiplied_enemy_health_desc" : "Zeigt die Gesundheit des Gegners mal 10 an. Dies passt die Gesundheit an den Waffenschaden an.",
	"wolfhud_dmg_popup_body_glow_color_title" : "Körpertreffer Leuchten Popup Farbe",
	"wolfhud_dmg_popup_body_glow_color_desc" : "Setzte die Farbe für das Leuchten bei Körpertreffern.",
	"wolfhud_original_hostage_box_title" : "Zeige originale Geisel-Box",
	"wolfhud_original_hostage_box_desc" : "Zeigt die originale Geisel-Box im HUD.",
	"wolfhud_shuffle_music_title" : "Zufallswiedergabe bei Musik",
	"wolfhud_shuffle_music_desc" : "Die Musik wechselt zwischen Anstürmen",
	"wolfhud_wave_counter_title" : "Angriffswellen-Zähler",
	"wolfhud_wave_counter_desc" : "Erlaubt benutzerdefinierte Angriffswellen-Zähler",
	"wolfhud_dmg_popup_show_rainbow_popups" : "Aktiviere Regenbogenpopups",
	"wolfhud_dmg_popup_show_rainbow_popups_desc" : "Erlaube Regenbogen-Schadenspopups\nBenötigt einen Neustart des Levels",
	"wolfhud_dmg_popup_show_damage_per_hit" : "Zeige Schaden für jeden Treffer",
	"wolfhud_dmg_popup_show_damage_per_hit_desc" : "Zeigt ein separates Popup für jeden Treffer oder als ein inkrementierendes",
	"wolfhud_dmg_popup_show_enemy_health_mul" : "Zeige gegnerische Lebensanzeige x10",
	"wolfhud_dmg_popup_show_enemy_health_mul_desc" : "Zeigt die Gesundheit des Gegners mal 10 an. Dies passt die Gesundheit an den Waffenschaden an.",
	"wolfhud_dmg_popup_hit_display_duration" : "Schadenspopup-Dauer",
	"wolfhud_dmg_popup_hit_display_duration_desc" : "Ändere die Dauer, die ein Schadenspopup angezeigt wird.",
	"wolfhud_dmg_popup_hit_chg_per_tick" : "Nicht-tödlicher Treffer Geschwindigkeit",
	"wolfhud_dmg_popup_hit_chg_per_tick_desc" : "Ändert die Geschwindigkeit mit der das Schadenspopup bei nicht-tödlichen Treffern nach oben wandert.",
	"wolfhud_dmg_popup_fatal_hit_chg_per_tick" : "Tödlicher Treffer Geschwindigkeit",
	"wolfhud_dmg_popup_fatal_hit_chg_per_tick_desc" : "Ändert die Geschwindigkeit mit der das Schadenspopup bei tödlichen Treffern nach oben wandert.",
	"wolfhud_dmg_popup_damage_vert_offset" : "Schadenspopup vertikaler Versatz",
	"wolfhud_dmg_popup_damage_vert_offset_desc" : "Ändere den vertikalen Versatz für Schadenspopups",
	"wolfhud_dmg_popup_damage_kill_flash_spd" : "Schadenspopup Blinkgeschwindigkeit",
	"wolfhud_dmg_popup_damage_kill_flash_spd_desc" : "Ändere die Geschwindigkeit, mit der das Schadenspopup blinkt",
	"wolfhud_confirn_dialogs_title" : "Aktiviere Bestätigungsdialoge",
	"wolfhud_confirn_dialogs_desc" : "Aktiviert Bestätigungsdialoge für bestimmte Aktionen",
	"wolfhud_save_filters_title" : "Speichere die Lobby-Einstellungen",
	"wolfhud_save_filters_desc" : "Erlaubt das speichern deiner Lobby-Einstellungen",
	"wolfhud_shoot_through_bots_title" : "Durch Bots/Joker hindurchschießen",
	"wolfhud_shoot_through_bots_desc" : "Deine Kugeln durchdringen Bots und Jokers",
	"wolfhud_dmg_popup_linux_compat_title" : "Windows-Kompatibilität",
	"wolfhud_dmg_popup_linux_compat_desc" : "Nur deaktiveren, wenn Linux benutzt wird",
	"wolfhud_replace_joker_title" : "Ersetze Joker",
	"wolfhud_replace_joker_desc" : "Wenn du einen Polizisten konvertierst, stirbt der vorherige Joker.",
	"wolfhud_dmg_popup_scale_alt_title" : "Popup-Skalierung WolfHUD",
	"wolfhud_dmg_popup_scale_alt_desc" : "Ändert die Größe des WolfHUD Schadenspopups.",
	"wolfhud_show_silent_weapons_title" : "Zeige gedämpfte Waffen",
	"wolfhud_show_silent_weapons_desc" : "Zeigt ein Geist-Symbol neben gedämpften Waffen im Inventar",
	"wolfhud_chat_y_pos_title" : "Bestimme Position von unten",
	"wolfhud_chat_y_pos_desc" : "Bewegt die Chatbox nach oben oder unten",
	"wolfhud_panels_health_armor_num_title" : "Zeige Leben und Rüstung als Zahl",
	"wolfhud_panels_health_armor_num_desc" : "Zeigt Leben und Rüstung als Zahl",
	"wolfhud_panels_hide_health_armor_title" : "Verstecke die Lebens- und Rüstungskreise",
	"wolfhud_panels_hide_health_armor_desc" : "Versteckt die Lebens- und Rüstungskreise",
	"fastnet_sa" : "FAST.Net",
	"state_filter" : "Status",
	"menu_state_filter" : "Status-Filter",
	"menu_lobby_days_title" : "TAGE:",
	"menu_state_lobby" : "Lobby",
	"menu_state_loading" : "Laden",
	"menu_state_ingame" : "Im Spiel",
	"menu_state_filter_help" : "Ändere den Filter für den aktuellen Lobby-Status.",
	"menu_servers_filter" : "Maximum an Servern",
	"menu_servers_filter_help" : "Wähle die maximale Anzahl an Servern, die auf einmal angezeigt werden",
	"menu_lobby_job_plan_title" : "Auftragsplan:",
	"menu_job_plan_-1" : "N/A",
	"menu_job_plan_1" : "Laut",
	"menu_job_plan_2" : "Leise",
	"menu_stat_job_completed_new" : "$stat",
	"menu_stat_job_new" : "Aufträge abgeschlossen: ",
	"menu_fastnet_help" : "Payday 2 Server Browser: Macht es einfacher Spiele zu finden",
	"FastNETMenuSortAlphabeticallyHeistsTitleID" : "Sortiere Heist-Filter",
	"FastNETMenuSortAlphabeticallyHeistsDescID" : "Sortiert die Heist-Filter alphabetisch",
	"xp_amount" : "Level erhalten: $XP",
	"wolfhud_show_custom_inv_names_title" : "Zeige benutzerdefinierte Inventarnamen",
	"wolfhud_show_custom_inv_names_desc" : "Zeigt benutzerdefinierte Inventarnamen. Deaktivere dies, wenn du TdlQ's version verwendest",
	"wolfhud_enemy_triad" : "Triaden",
	"FastNETENABLEDTitleID" : "Zeige Fast.Net im Hauptmenü",
	"FastNETENABLEDDescID" : "Zeigt Fast.Net im Hauptmenü",
	"wolfhud_hide_interaction_text_title" : "Zeige Interaktionsanleitung",
	"wolfhud_hide_interaction_text_desc" : "Zeigt den Text 'halte [Taste] zum interagieren'",
	"wolfhud_languages_japanese" : "Japanese",
	"wolfhud_hudlist_show_jokers_health_bar_title" : "Zeige Joker-Lebenspunkte",
	"wolfhud_hudlist_show_jokers_health_bar_desc" : "Zeigt die Lebenspunkte von Jokern",
	"wolfhud_hudlist_show_jokers_kill_counter_title" : "Zeige Joker-Kills",
	"wolfhud_hudlist_show_jokers_kill_counter_desc" : "Zeigt die Kills von Jokern",

	"wolfhud_disable_blend_mode_title" : "Deaktivere Mischmodus für CustomHUD",
	"wolfhud_disable_blend_mode_desc" : "Deaktivert den Mischmodus für CustomHUD",
	"wolfhud_pd2stylebox_title" : "Payday 2 Style Boxes",
	"wolfhud_pd2stylebox_desc" : "Wechselt die HUDList Boxen zum Payday2-Stil",

	"wolfhud_use_enhanced_objective_title" : "Aktiviere verbesserte Missionsziel-Panele",
	"wolfhud_use_enhanced_objective_desc" : "Ersetzt das ursprüngliche Missionsziel-Panel mit einem benutzerdefinierten",
	"wolfhud_use_customhud_title" : "WolfHUD's CustomHUD",
	"wolfhud_use_customhud_desc" : "Ersetzt das ursprüngliche HUD mit dem fortgeschrittenen CustomHUD, erstellt von Se7en.\n(Wird erst nach Mapwechsel aktiv...)",
	"wolfhud_use_vanilla" : "Vanilla",

	"wolfhud_menu_options_name" : "Menu Tweaks",
	"wolfhud_menu_options_help" : "Ändere Menü- und Inventar-Optionen",
	"wolfhud_equipment_options_name" : "Equipment Tweaks",
	"wolfhud_equipment_options_help" : "Ändere Equipment-Optionen",

	"wolfhud_hud_type_title" : "HUD-Typ",
	"wolfhud_hud_type_desc" : "Wähle den HUD-Typ, den du möchtest\n(Wird erst nach Mapwechsel aktiv...)",
	"wolfhud_waypoint_scale_title" : "Benutzerdefinierte Wegpunkte-Skalierung",
	"wolfhud_waypoint_scale_desc" : "Bestimme die Skalierung von benutzerdefinierten Wegpunkten",

	"wolfhud_show_empty_lobby_title" : "Leere Lobby Erstellen Ausschalten",
	"wolfhud_show_empty_lobby_desc" : "Schaltet den Hauptmenüpunkt aus, um leere Lobbys zu erstellen",

	"wolfhud_panels_show_new_downcounter_title" : "Zeige Vanilla-Verblütungszähler",
	"wolfhud_panels_show_new_downcounter_desc" : "Zeigt den Verblütungszähler von Vanilla für jeden nicht-KI.",

	"wolfhud_hudlist_copr_buff_title" : "Ampulle (Leech)",
	"wolfhud_hudlist_copr_buff_desc" : "",
	"wolfhud_dialog_force_start_msg" : "Das Spiel wurde zwangsmäßig gestartet.",

	"wolfhud_chat_x_pos_title" : "Setze die Position von links",
	"wolfhud_chat_x_pos_desc" : "Verschiebt die Custom Chatbox nach links oder rechts",

	"wolfhud_enemy_yufuwang_armored_boss" : "Armored Yufu Wang",
	"wolfhud_enemy_yufuwang_no_armor_boss" : "Yufu Wang",

	"wolfhud_enable_bg_title" : "Hintergrund bei HUDList-Box",
	"wolfhud_enable_bg_desc" : "Fügt einen Hintergrund zu HUDList-Boxen hinzu, erlaubt es die Farbe zu ändern",

	"wolfhud_hide_bag_value_text_title" : "Verstecke Taschenwert",
	"wolfhud_hide_bag_value_text_desc" : "Versteckt den Wert der Tasche beim Anschauen der Tasche",

	"wolfhud_hide_casing_title" : "Hide Casing Panel",
	"wolfhud_hide_casing_desc" : "Hides the casing panel",

	"wolfhud_hudlist_armor_break_invulnerable_debuff_title" : "Immunität nach Panzerungszerstörung Debuff",
	"wolfhud_hudlist_armor_break_invulnerable_debuff_desc" : "",

	"wolfhud_fastnet_update" : "$BTN_X; Aktualisieren",
	"wolfhud_fastnet_filters" : "$BTN_Y; Filtern",

	"wolfhud_enemy_marshal_marksman" : "Marshal Marksman",

	"wolfhud_sub_height_title" : "Setze Untertitelposition",
	"wolfhud_sub_height_desc" : "Setzt die Untertitelposition, 0 fängt oben an und 800 ist unten",

	"wolfhud_hudlist_buff_list_x_offset_title" : "Buff-Liste horizontaler Versatz",
	"wolfhud_hudlist_buff_list_x_offset_desc" : "Setzt den horizontalen Versatz für die Buff-Liste",

	"wolfhud_hudlist_loot_tea" : "Tee",
    "wolfhud_hudlist_loot_dragon" : "Drache",
	
	"wolfhud_panels_show_detectioncounter_title" : "Entdeckungsrisiko anzeigen",
	"wolfhud_panels_show_detectioncounter_desc" : "Zeigt das derzeitige Entdeckungsrisiko für jeden nicht-KI.\nDer Zähler zeigt entweder dein Entdeckungsrisiko, das des Kameraden oder beides.",

	"wolfhud_drill_icons_x_pos_title" : "Drill-Upgrades Icons horizontale Position",
	"wolfhud_drill_icons_x_pos_desc" : "Setzt die horizontale Position von den Drill-Upgrades Icons",
	"wolfhud_drill_icons_y_pos_title" : "Drill-Upgrades Icons vertikale Position",
	"wolfhud_drill_icons_y_pos_desc" : "Setzt die vertikale Position von den Drill-Upgrades Icons",
	"wolfhud_drill_icons_scale_title" : "Drill-Upgrades Icons Skalierung",
	"wolfhud_drill_icons_scale_desc" : "Setzt die Skalierung der Drill-Upgrades Icons",

	"wolfhud_use_standard_scene_title" : "FAST.NET Die Standardszene nutzen",
	"wolfhud_use_standard_scene_desc" : "Nutzt die Szene des Hauptmenüs für FAST.NET",

	"wolfhud_infopanels_color_options_name" : "HUDList Farboptionen",
	"wolfhud_infopanels_color_options_help" : "Farboptionen für HUDList",
	"wolfhud_hudlist_left_box_color_title" : "Linke Box Schriftfarbe",
	"wolfhud_hudlist_left_box_color_desc" : "Schriftfarbe für die linke Listenbox.\n(Wird erst nach Mapwechsel aktiv...)",
	"wolfhud_hudlist_left_box_bg_color_title" : "Linke Box Hintergrundfarbe",
	"wolfhud_hudlist_left_box_bg_color_desc" : "Hintergurndfarbe für die linke Listenbox.\n(Wird erst nach Mapwechsel aktiv...)",
	"wolfhud_hudlist_turret_color_title" : "Geschützturmfarbe",
	"wolfhud_hudlist_turret_color_desc" : "Farbe für Geschütztürme im Gegnerzähler.",
	"wolfhud_hudlist_shield_color_title" : "Farbe für Schilder",
	"wolfhud_hudlist_shield_color_desc" : "Farbe für Schilder im Gegnerzähler.",
	"wolfhud_hudlist_tank_color_title" : "Bulldozerfarbe",
	"wolfhud_hudlist_tank_color_desc" : "Farbe für Bulldozer im Gegnerzähler.",
	"wolfhud_hudlist_sniper_color_title" : "Farbe für Scharfschützen",
	"wolfhud_hudlist_sniper_color_desc" : "Farbe für Scharfschützen im Gegnerzähler.",
	"wolfhud_hudlist_spooc_color_title" : "Cloakerfarbe",
	"wolfhud_hudlist_spooc_color_desc" : "Farbe für Cloaker im Gegnerzähler.",
	"wolfhud_hudlist_taser_color_title" : "Taserfarbe",
	"wolfhud_hudlist_taser_color_desc" : "Farbe für Taser im Gegnerzähler.",
	"wolfhud_hudlist_medic_color_title" : "Medicfarbe",
	"wolfhud_hudlist_medic_color_desc" : "Farbe für Medics im Gegnerzähler.",
	"wolfhud_hudlist_phalanx_color_title" : "Captain Winters-Farbe",
	"wolfhud_hudlist_phalanx_color_desc" : "Farbe für Captain Winters im Gegnerzähler.",
	"wolfhud_hudlist_buff_icon_color_standard_title" : "Buff Icon Farbe Standard",
	"wolfhud_hudlist_buff_icon_color_standard_desc" : "",
	"wolfhud_hudlist_buff_icon_color_buff_title" : "Buff Icon Farbe Buffs",
	"wolfhud_hudlist_buff_icon_color_buff_desc" : "",
	"wolfhud_hudlist_buff_icon_color_debuff_title" : "Buff Icon Farbe Debuffs",
	"wolfhud_hudlist_buff_icon_color_debuff_desc" : "",
	"wolfhud_hudlist_buff_icon_color_team_title" : "Buff Icon Farbe Team",
	"wolfhud_hudlist_buff_icon_color_team_desc" : "",
	"wolfhud_enemy_marshal_shield" : "Marshal Shield",
	"wolfhud_enemy_marshal_shield_break" : "Marshal Special",
	"wolfhud_enemy_ranchmanager" : "Esteban",
	"wolfhud_hudlist_right_list_bg_alpha_title" : "Rechte Liste Hintergrund Alpha",
	"wolfhud_hudlist_right_list_bg_alpha_desc" : "Ändert den Alpha der rechten Hintergrundliste",
	"wolfhud_hudlist_left_list_bg_alpha_title" : "Linke Liste Hintergrund Alpha",
	"wolfhud_hudlist_left_list_bg_alpha_desc" : "Ändert den Alpha der linken Hintergrundliste",
	"wolfhud_hudlist_loot_plates" : "Printing Plates",
	"wolfhud_colors_debuff" : "Debuff",
	"wolfhud_colors_team" : "Team",

	"wolfhud_languages_polish" : "Polish",
	"wolfhud_hide_content_news_title" : "Neue-Inhalte-Banner verstecken",
	"wolfhud_hide_content_news_desc" : "Versteckt den Banner mit Contentneuigkeiten im Hauptmenü",
	"wolfhud_hudlist_old_sixth_sense_buff_title" : "Alter Sechster Sinn schnelles Kontur Markieren",
	"wolfhud_hudlist_old_sixth_sense_buff_desc" : "Lässt die Konturen sofort nach dem Countdown aufleuchten, anstatt nur einen nach dem anderen",

	"wolfhud_hudlist_copycat_health_invul_buff_title" : "Copycat (Unverwundbarkeit Leben)",
	"wolfhud_hudlist_copycat_health_invul_buff_desc" : "",
	"wolfhud_hudlist_copycat_health_shot_buff_title" : "Copycat (Kopfschuss Lebensregeneration)",
	"wolfhud_hudlist_copycat_health_shot_buff_desc" : "",

	"wolfhud_hudlist_guard_color_title" : "Wachenfarbe",
	"wolfhud_hudlist_guard_color_desc" : "Farbe für Wachen im Gegnerzähler.",
	"wolfhud_hudlist_timers_color_title" : "Timerfarbe",
	"wolfhud_hudlist_timers_color_desc" : "Farbe für Drills/Sägen/Hacks usw.",
	"wolfhud_hudlist_equipment_color_title" : "Platzierbare Ausrüstungsfarbe",
	"wolfhud_hudlist_equipment_color_desc" : "Farbe für die Anzahl von platzierten Ausrüstungsteilen auf der Karte",
	"wolfhud_hudlist_minions_info_color_title" : "Joker Kills- und Lebensinfo-Farbe",
	"wolfhud_hudlist_minions_info_color_desc" : "Farbe für Tötungen und Lebenspunkten von Jokern",
	"wolfhud_hudlist_pagers_timer_color_title" : "Pagertimerfarbe",
	"wolfhud_hudlist_pagers_timer_color_desc" : "Farbe für Pagertimer",
	"wolfhud_hudlist_ecms_color_title" : "ECM-Timerfarbe",
	"wolfhud_hudlist_ecms_color_desc" : "Farbe für ECM-Timer",
	"wolfhud_hudlist_ecm_feedback_color_title" : "ECM-Feedback-Timerfarbe",
	"wolfhud_hudlist_ecm_feedback_color_desc" : "Farbe für ECM-Timer",
	"wolfhud_hudlist_tape_loop_color_title" : "Kameraschleifentimerfarbe",
	"wolfhud_hudlist_tape_loop_color_desc" : "Farbe für Kameraschleifentimer",
	"wolfhud_hudlist_jokers_color_title" : "Jokerfarbe",
	"wolfhud_hudlist_jokers_color_desc" : "Farbe für die derzeitige Jokeranzahl",
	"wolfhud_hudlist_pagers_color_title" : "Pagerfarbe",
	"wolfhud_hudlist_pagers_color_desc" : "Farbe für die Anzahl der aktiven Pager auf der Karte",
	"wolfhud_hudlist_cam_color_title" : "Kamerafarbe",
	"wolfhud_hudlist_cam_color_desc" : "Anzahl für die Anzahl der aktiven Kameras auf der Karte",
	"wolfhud_hudlist_bodybags_color_title" : "Leichensackfarbe",
	"wolfhud_hudlist_bodybags_color_desc" : "Farbe für die im Inventar verbleibenden Leichensäcke",
	"wolfhud_hudlist_corpse_color_title" : "Leichenfarbe",
	"wolfhud_hudlist_corpse_color_desc" : "Farbe für die Anzahl an Leichen auf Siedepunkt (Boiling Point)",
	"wolfhud_hudlist_loot_color_title" : "Beutetaschenfarbe",
	"wolfhud_hudlist_loot_color_desc" : "Farbe für den auf der Karte verfügbaren Loot",
	"wolfhud_hudlist_special_items_color_title" : "Farbe für besondere Gegenstände",
	"wolfhud_hudlist_special_items_color_desc" : "Farbe für die Anzahl der auf der Karte verfügbaren besonderen Gegenstände",

	"wolfhud_hudlist_show_gage_packages_title" : "Show Gage Packages",
	"wolfhud_hudlist_show_gage_packages_desc" : "",

	"wolfhud_hudlist_loot_papers" : "Papers",
	"wolfhud_fastnet_reconnect" : "$BTN_START Reconnect",
	"wolfhud_no_lobby_collect_to" : "Seems like there's no server to connect to",

	"wolfhud_enemy_zeal_heavy_swat" : "Zeal Heavy SWAT",
	"wolfhud_enemy_zeal_swat" : "Zeal SWAT",
	"wolfhud_colored_ammo" : ""
}
