{
    "menu_jowi": "Wick",
    "hud_int_hold_grab_the_bag": "$INTERACT長押しで$BAGを掴む",

    "wolfhud_dialog_force_start_title": "強制的にゲームを開始しますか？",
    "wolfhud_dialog_force_start_desc": "本当にゲームを強制的に開始しますか？\n\n何らかのバグで開始できない場合や、応答の無いプレイヤーがいる場合にのみ使用してください。\n使用する前に、各プレイヤーが装備を選択する十分な時間を確保してください。",
    "wolfhud_dialog_install_title": "Install: $NAME",
    "wolfhud_dialog_install_desc": "Do you want to install '$NAME'?",
    "wolfhud_dialog_remind_later": "Ask me later",
    "wolfhud_dialog_install_fed_inv_desc": "Federal Inventory is an override mod, that gives you colorized icons for your weapons masks and deployables.\nIt looks great in when used with CustomHUD and will use BLTs Updater.",
    "wolfhud_dialog_rename_inv_tab": "タブの名前変更",
    "wolfhud_dialog_rename_inv_tab_desc": "現在開いているタブに付けたい名前を入力してください",
    "wolfhud_dialog_save": "セーブ",
    "woldhud_notification_disabled_override_title": "VHUDPlus: $NAME is currently disabled.",
    "woldhud_notification_disabled_override_desc": "If you changed your mind, click here to get asked again.",
    "woldhud_notification_restart_override_title": "VHUDPlus: $NAME is ready to install.",
    "woldhud_notification_restart_override_desc": "Please restart your game to start the download.",

    "wolfhud_int_locked": " $BTN_CANCELを押して中断する",
    "wolfhud_int_locked_pager": "$BTN_CANCELを押して中断する\n(アラームが鳴ります)",

    "wolfhud_buy_all_assets": "全て購入する",
    "wolfhud_buy_all_assets_desc": "購入可能なアセットを全て購入します",

    "wolfhud_preplanning_save": "セーブ",
    "wolfhud_preplanning_load": "ロード",
    "wolfhud_preplanning_reset": "リセット",
    "wolfhud_preplanning_reset_all": "全てリセット",
    "wolfhud_preplanning_delete": "削除",
    "wolfhud_preplanning_save_tooltip_title": "プランのセーブ:",
    "wolfhud_preplanning_save_tooltip_desc": "現在のプランをセーブし、次回以降に同じ構成をすぐ呼び出せるようにします",
    "wolfhud_preplanning_load_tooltip_title": "プランのロード:",
    "wolfhud_preplanning_load_tooltip_desc": "保存されているプランを全て表示します",
    "wolfhud_preplanning_reset_tooltip_title": "プランのリセット:",
    "wolfhud_preplanning_reset_tooltip_desc": "自分が設置・選択したアセットと投票を全てリセットします",
    "wolfhud_preplanning_reset_all_tooltip_title": "プランを完全にリセット:",
    "wolfhud_preplanning_reset_all_tooltip_desc": "設置されているアセットを全て除去し、自分の投票も初期状態に戻します",
    "wolfhud_preplanning_delete_tooltip_title": "プランの削除",
    "wolfhud_preplanning_delete_tooltip_desc": "保存されているプランを削除します",
    "wolfhud_preplanning_manager_title": "事前計画マネージャ",
    "wolfhud_preplanning_error_no_saved_plans": "保存されているプランはありませんでした",
    "wolfhud_preplanning_error_max_plans_reached": "保存可能なプラン数の上限に達しています",
    "wolfhud_preplanning_votes_title": "投票:",
    "wolfhud_preplanning_assets_title": "アセット:",
    "wolfhud_preplanning_dialog_save": "セーブしますか？",
    "wolfhud_preplanning_dialog_save_desc": "$PLAN\n\n\nプランの名前を入力してください。\n(既に存在する名前を入力した場合は上書きされます)",
    "wolfhud_preplanning_dialog_delete": "削除しますか？",
    "wolfhud_preplanning_dialog_delete_desc": "本当にプラン「$NAME」を削除しますか？",
    "wolfhud_preplanning_msg_saved_success": "プランのセーブに成功しました",
    "wolfhud_preplanning_msg_saved_failed": "プランのセーブ中にエラーが発生しました",
    "wolfhud_preplanning_msg_no_save_slot": "保存可能なプラン数の上限に達しています",
    "wolfhud_preplanning_msg_no_current_plan": "プランに何も設定されていません (セーブ自体は可能です)",
    "wolfhud_preplanning_msg_loaded_success": "プランのロードに成功しました",
    "wolfhud_preplanning_msg_loaded_failed": "プランのロード中にエラーが発生しました",
    "wolfhud_preplanning_msg_loaded_partitially": "プランが一部だけロードされました: $ERRORMSG",
    "wolfhud_preplanning_msg_loaded_missing_skill": "必要なスキルがありません",
    "wolfhud_preplanning_msg_loaded_missing_favours": "根回しが不足しています",
    "wolfhud_preplanning_msg_loaded_missing_money": "ポケットマネーが不足しています",
    "wolfhud_preplanning_msg_reseted_success": "プランをリセットしました",
    "wolfhud_preplanning_msg_reseted_failed": "プランのリセット中にエラーが発生しました",
    "wolfhud_preplanning_msg_deleted_success": "プランを削除しました",
    "wolfhud_preplanning_msg_deleted_failed": "プランの削除中にエラーが発生しました",
    "wolfhud_preplanning_msg_folder_creation_failed": "フォルダ「$FOLDER」の作成に失敗しました \n必要な権限を与えるか、手動で作成してください。",
    "wolfhud_preplanning_msg_file_creation_failed": "ファイル「$FILE」の作成に失敗しました \n必要な権限を与えるか、手動で作成してください。",

    "wolfhud_inv_tab_rename_hint": "インベントリのタブをダブルクリックして名前を変更する",

    "wolfhud_loadout_hours_played": "$HOURS 時間",

    "wolfhud_profile_switch_title": "プロフィールの変更",
    "wolfhud_profile_switch_title_profiles": "プロフィール:",

    "victory_most_damage": "最高ダメージ:",
    "victory_session_damage": "合計ダメージ:",

    "wolfhud_advassault_phase_title": "フェーズ: ",
    "wolfhud_advassault_spawns_title": "残りスポーン数: ",
    "wolfhud_advassault_time_title": "残り時間: ",
    "wolfhud_advassault_phase_anticipation": "Anticipation",
    "wolfhud_advassault_phase_build": "Build",
    "wolfhud_advassault_phase_sustain": "Sustain",
    "wolfhud_advassault_phase_fade": "Fade",
    "wolfhud_advassault_time_overdue": "OVERDUE",
    "wolfhud_locked_assault": "Endless Police Assault!!!  Get out as soon as possible!!!",

    "wolfhud_customhud_interaction_done": "完了",
    "wolfhud_customhud_interaction_aborted": "中断",

    "wolfhud_hudlist_device_timer": "タイマー",
    "wolfhud_hudlist_device_drill": "ドリル",
    "wolfhud_hudlist_device_hack": "ハック",
    "wolfhud_hudlist_device_saw": "ソー",
    "wolfhud_hudlist_device_security": "ハック",
    "wolfhud_hudlist_device_security_bar": "ハック $CURRENT/$TOTAL",
    "wolfhud_hudlist_loot_armor": "鎧",
    "wolfhud_hudlist_loot_bomb": "爆弾",
    "wolfhud_hudlist_loot_weapon": "武器",
    "wolfhud_hudlist_loot_diamond": "ダイヤ",
    "wolfhud_hudlist_loot_evidence": "証拠品",
    "wolfhud_hudlist_loot_toast": "トースト",
    "wolfhud_hudlist_loot_crate": "木箱",
    "wolfhud_hudlist_loot_toothbrush": "ブラシ",
    "wolfhud_hudlist_loot_bag": "バッグ",
    "wolfhud_hudlist_loot_shoes": "靴",
    "wolfhud_hudlist_loot_toy": "オモチャ",
    "wolfhud_hudlist_loot_vr": "VR",
    "wolfhud_hudlist_loot_egg": "卵",
    "wolfhud_hudlist_loot_treasure": "宝",
    "wolfhud_hudlist_showcase": "ショーケース",

    "wolfhud_hudlist_buff_basic": "ベーシック",
    "wolfhud_hudlist_buff_aced": "エース",
    "wolfhud_hudlist_buff_boost": "ブースト",
    "wolfhud_hudlist_buff_revive": "蘇生",
    "wolfhud_hudlist_buff_crew_inspire_debuff": "蘇生 (AI)",
    "wolfhud_hudlist_buff_dmg_inc": "+ダメージ",
    "wolfhud_hudlist_buff_dmg_dec": "-ダメージ",
    "wolfhud_hudlist_buff_mdmg_inc": "+近接",
    "wolfhud_hudlist_buff_phealth_reg": "+HP",
    "wolfhud_hudlist_buff_tot_dodge": "回避",

    "wolfhud_tabstats_total_damage": "合計ダメージ:",
    "wolfhud_tabstats_tanks_killed": "ブルドーザーキル:",
    "wolfhud_tabstats_cloakers_killed": "クローカーキル:",
    "wolfhud_tabstats_shields_killed": "シールドキル:",
    "wolfhud_tabstats_snipers_killed": "スナイパーキル:",
    "wolfhud_tabstats_tasers_killed": "テーザーキル:",
    "wolfhud_tabstats_gensec_killed": "ジェンセックキル:",
    "wolfhud_tabstats_medic_killed": "メディックキル:",
    "wolfhud_tabstats_melee_kills": "近接攻撃キル:",
    "wolfhud_tabstats_explosion_kills": "爆発物キル:",
    "wolfhud_tabstats_nonspecial_kills": "通常の敵キル:",
    "wolfhud_tabstats_total_revives": "蘇生回数 (プレイヤー/AI):",
    "wolfhud_tabstats_alltime_stat": "プレイ時間:",

    "wolfhud_enemy_civilian": "民間人",
    "wolfhud_enemy_gangster": "ギャング",
    "wolfhud_enemy_biker": "バイカー",
    "wolfhud_enemy_bolivian_security": "Sosaの警備",
    "wolfhud_enemy_bolivian_thug": "Sosaのチンピラ",
    "wolfhud_enemy_mobster": "ロシア人ギャング",
    "wolfhud_enemy_security": "警備員",
    "wolfhud_enemy_gensec": "GenSec部隊",
    "wolfhud_enemy_cop": "警官",
    "wolfhud_enemy_fbi": "FBI",
    "wolfhud_enemy_swat": "SWAT",
    "wolfhud_enemy_heavy_swat": "重装SWAT",
    "wolfhud_enemy_heavy_swat_sniper": "重装SWATスナイパー",
    "wolfhud_enemy_city_swat": "エリート",
    "wolfhud_enemy_shield": "シールド",
    "wolfhud_enemy_spook": "クローカー",
    "wolfhud_enemy_shadow_spook": "シャドウ・クローカー",
    "wolfhud_enemy_taser": "テーザー",
    "wolfhud_enemy_sniper": "スナイパー",
    "wolfhud_enemy_medic": "メディック",
    "wolfhud_enemy_tank": "ブルドーザー",
    "wolfhud_enemy_tank_hw": "ヘッドレスドーザー",
    "wolfhud_enemy_tank_medic": "メディックドーザー",
    "wolfhud_enemy_tank_mini": "ミニガンドーザー",
    "wolfhud_enemy_phalanx_minion": "Winters Shield",
    "wolfhud_enemy_phalanx_vip": "Captain Winters",
    "wolfhud_enemy_swat_van": "SWATバン・タレット",
    "wolfhud_enemy_ceiling_turret": "タレット",
    "wolfhud_enemy_aa_turret": "対空タレット",
    "wolfhud_enemy_crate_turret": "タレット",
    "wolfhud_enemy_sentry_gun": "セントリーガン",
    "wolfhud_enemy_mobster_boss": "The Commissar",
    "wolfhud_enemy_chavez_boss": "Chavez",
    "wolfhud_enemy_druglord_boss": "Ernesto Sosa",
    "wolfhud_enemy_druglord_boss_stealth": "Ernesto Sosa",
    "wolfhud_enemy_biker_boss": "バイカーのボス",
    "wolfhud_enemy_bank_manager": "マネージャ",
    "wolfhud_enemy_dah_ralph": "Ralph Garnet",
    "wolfhud_enemy_inside_man": "内通者",
    "wolfhud_enemy_escort_undercover": "税務署員",
    "wolfhud_enemy_escort_heatstreet": "Matt",
    "wolfhud_enemy_escort_chinese_prisoner": "Kazuo",
    "wolfhud_enemy_escort_cfo": "CFO",
    "wolfhud_enemy_escort_reservoirdogs": "Mr. Pink",
    "wolfhud_enemy_escort_bain_locke": "Locke / Bain",
    "wolfhud_enemy_drunk_pilot": "酔ったパイロット",
    "wolfhud_enemy_escort": "護衛対象",
    "wolfhud_enemy_boris": "Boris",
    "wolfhud_enemy_spa_vip": "Charon",
    "wolfhud_enemy_spa_vip_hurt": "Charon (負傷)",
    "wolfhud_enemy_old_hoxton_mission": "Hoxton",
    "wolfhud_enemy_locke_mission": "Locke",
    "wolfhud_enemy_hector_boss": "Hector (重装)",
    "wolfhud_enemy_hector_boss_no_armor": "Hector",
    "wolfhud_enemy_reservoirdogs": "Mr. Blonde",
    "wolfhud_enemy_crew": "仲間",
    "wolfhud_enemy_butler": "Aldstone",
    "wolfhud_enemy_vlad": "Vlad",
    "wolfhud_enemy_kento": "Kento",

    "wolfhud_enemy_boom": "Grenadier",
    "wolfhud_enemy_omnia_lpf": "OMNIA L.P.F.",
    "wolfhud_enemy_summers": "Captain Summers",
    "wolfhud_enemy_boom_summers": "Major Molly",
    "wolfhud_enemy_taser_summers": "Engineer Electrika",
    "wolfhud_enemy_medic_summers": "Sergeant Doc",
    "wolfhud_enemy_spring": "Captain Spring",
    "wolfhud_enemy_fbi_vet": "Veteran Cop",

    "wolfhud_enemy_bolivian_security_mex": "Coyopaの警備",
    "wolfhud_enemy_escort_it_guy": "IT技術者",
    "wolfhud_enemy_mariachi": "マリアッチバンド",
    "wolfhud_enemy_deathvox_light": "ZEAL部隊",
    "wolfhud_enemy_deathvox_heavy": "重装ZEAL",
    "wolfhud_enemy_triad": "三合会",

    "wolfhud_multiselect_all": "全て",
    "wolfhud_multiselect_none": "無し",
    "wolfhud_multiselect_disabled": "無効",
    "wolfhud_multiselect_random": "ランダム",
    "wolfhud_multiselect_left": "左",
    "wolfhud_multiselect_center": "中央",
    "wolfhud_multiselect_right": "右",

    "wolfhud_colors_white": "ホワイト",
    "wolfhud_colors_light_yellow": "ライトイエロー",
    "wolfhud_colors_light_orange": "ライトオレンジ",
    "wolfhud_colors_light_red": "ライトレッド",
    "wolfhud_colors_light_purple": "ライトパープル",
    "wolfhud_colors_light_green": "ライトグリーン",
    "wolfhud_colors_light_blue": "ライトブルー",
    "wolfhud_colors_light_gray": "ライトグレー",
    "wolfhud_colors_yellow": "イエロー",
    "wolfhud_colors_orange": "オレンジ",
    "wolfhud_colors_red": "レッド",
    "wolfhud_colors_purple": "パープル",
    "wolfhud_colors_green": "グリーン",
    "wolfhud_colors_blue": "ブルー",
    "wolfhud_colors_gray": "グレー",
    "wolfhud_colors_black": "ブラック",
    "wolfhud_colors_rainbow": "レインボー",

    "wolfhud_options_name": "VanillaHUD Plus",
    "wolfhud_options_help": "VanillaHUD Plusの設定を変更します",

    "wolfhud_language_title": "言語",
    "wolfhud_language_desc": "VanillaHUD Plusの言語を変更します\n(反映にはマップの再読込が必要です)",

    "wolfhud_languages_english": "English",
    "wolfhud_languages_german": "German",
    "wolfhud_languages_dutch": "Dutch",
    "wolfhud_languages_french": "French",
    "wolfhud_languages_italian": "Italian",
    "wolfhud_languages_spanish": "Spanish",
    "wolfhud_languages_portuguese": "Portugese",
    "wolfhud_languages_russian": "Russian",
    "wolfhud_languages_chinese": "Chinese",
    "wolfhud_languages_korean": "Korean",
    "wolfhud_languages_japanese": "Japanese",

    "wolfhud_skip_blackscreen_title": "黒画面をスキップ",
    "wolfhud_skip_blackscreen_desc": "黒画面 (Job開始時のイントロ) を自動でスキップします\n(ホスト時のみ)",
    "wolfhud_instant_restart_title": "即時リスタート",
    "wolfhud_instant_restart_desc": "オンラインロビーでリスタートする際の5秒のカウントをスキップします\n(ホスト時のみ)",
    "wolfhud_stat_screen_speedup_title": "リザルト画面を高速化",
    "wolfhud_stat_screen_speedup_desc": "Spaceを押さなくても自動でリザルトを高速化するようにします",
    "wolfhud_stat_screen_delay_title": "リザルト画面の表示時間",
    "wolfhud_stat_screen_delay_desc": "EXPの加算等が終わった後、次の画面へ移行するまでの時間を指定します\n(ホスト時のみ, 0で無効)",
    "wolfhud_loot_screen_pick_card_title": "カードの自動選択",
    "wolfhud_loot_screen_pick_card_desc": "報酬選択画面で自動的にカードを選ぶようにします",
    "wolfhud_loot_screen_pick_specific_card_title": "選択するカードの指定",
    "wolfhud_loot_screen_pick_specific_card_desc": "どのカードを自動選択するかを指定します",
    "wolfhud_loot_screen_delay_title": "報酬画面の表示時間",
    "wolfhud_loot_screen_delay_desc": "報酬の獲得後、次の画面へ移行するまでの時間を指定します\n(ホスト時のみ, 0で無効)",
    "wolfhud_replace_weapon_names_title": "Real Weapon Namesを有効化",
    "wolfhud_replace_weapon_names_desc": "武器の名前を対応する実銃の名前に変更します\n(反映にはマップの再読込が必要です)",
    "wolfhud_inventory_tab_names_title": "インベントリのタブの名付けを有効化",
    "wolfhud_inventory_tab_names_desc": "インベントリのタブに名前を付けられるようにします\n(/mods/saves/WolfHUD_InventoryNames.txt を編集してください)",
    "wolfhud_inventory_names_title": "インベントリのボックスに名前を表示する",
    "wolfhud_inventory_names_desc": "武器・アーマー・装備品などの名前を、それぞれのボックスに常に表示するようにします",
    "wolfhud_skill_names_title": "スキル名を表示",
    "wolfhud_skill_names_desc": "スキルツリー画面でスキル名を常に表示するようにします",
    "wolfhud_show_mini_icons_title": "武器のModアイコンの表示",
    "wolfhud_show_mini_icons_desc": "選択しているもの以外の武器のModのアイコンも表示するようにします",
    "wolfhud_no_slowmotion_title": "スロー演出を無効化",
    "wolfhud_no_slowmotion_desc": "マスクを被ったりダウンした際のスローモーション演出を無効化します",
    "wolfhud_reset_options_title": "設定をリセットする",
    "wolfhud_reset_options_desc": "全ての設定を既定値に戻します",
    "wolfhud_reset_options_confirm": "本当に設定をリセットしますか？",

    "wolfhud_panels_options_name": "一般的なHUDパネルの設定",
    "wolfhud_panels_options_help": "VanillaHUD Extras、ステルス時の疑惑表示、ダメージインジケータ、Driving HUDなど、すべての一般的なHUDパネルの設定",

    "wolfhud_use_vanillahud_extras_title": "VanillaHUD Extras",
    "wolfhud_use_vanillahud_extra_desc": "デフォルトのHUDに機能拡張を追加します\n(反映にはマップの再読込が必要です)",
    "wolfhud_adv_assault_title": "アサルトバナーの拡張",
    "wolfhud_adv_assault_desc": "アサルト中、フェーズや残り時間、残りスポーン数をバナーに表示します\n(ホスト時のみ)",

    "wolfhud_assault_position_title": "バナーを中央に表示",
    "wolfhud_assault_position_desc": "アサルトバナーの表示位置を中央に変更します",
    "wolfhud_mui_assault_fix_title": "Disable Game Clock In the Assault Or Casing Box",
	"wolfhud_mui_assault_fix_desc": "This should be used with HUDs like MUI, BL2HUD, WarFrame etc that modify the games clock",

    "wolfhud_pacified_civs_title": "制圧した市民の表示",
    "wolfhud_pacified_civs_desc": "拘束されていない状態で伏せている市民のウェイポイント表示を変更します",
    "wolfhud_use_realammo_title": "実際の残弾数を表示する",
    "wolfhud_use_realammo_desc": "マガジンに装填されている分を差し引いた残弾数を表示するようにします",
    "wolfhud_enable_burstmode_title": "3点バーストモード",
    "wolfhud_enable_burstmode_desc": "3点バースト機能を有効化します",

    "wolfhud_playerpanel_options_name": "自分のパネル",
    "wolfhud_playerpanel_options_help": "自分のHUDパネルの設定",

    "wolfhud_teampanels_options_name": "味方のパネル",
    "wolfhud_teampanels_options_help": "味方のHUDパネルの設定",

    "wolfhud_panels_show_armor_title": "アーマーの回復タイマーを表示",
    "wolfhud_panels_show_armor_desc": "アーマーが自動回復するまでの時間を表示します",
    "wolfhud_panels_show_inspire_title": "インスパイア (ベーシック) のタイマーを表示",
    "wolfhud_panels_show_inspire_desc": "インスパイア (ベーシック) のシャウト効果を受けた際に、効果時間を表示します",
    "wolfhud_panels_show_underdog_title": "敗北者 (エース) を表示",
    "wolfhud_panels_show_underdog_desc": "敗北者 (エース) の発動時、黄色い点滅で強調表示するようにします",
    "wolfhud_panels_show_hps_meter_title": "HPSメータを表示",
    "wolfhud_panels_show_hps_meter_desc": "秒間回復量 (heal per second, HPS) を表示します",
    "wolfhud_panels_hps_refresh_rate_title": "更新間隔",
    "wolfhud_panels_hps_refresh_rate_desc": "HPSメータの更新間隔を設定します (秒)",
    "wolfhud_panels_show_hps_current_title": "現在のHPSを表示",
    "wolfhud_panels_show_hps_current_desc": "現在の秒間回復量を表示します",
    "wolfhud_panels_current_hps_timeout_title": "現在のHPSに含める時間",
    "wolfhud_panels_current_hps_timeout_desc": "現在のHPSの計算に含める時間を設定します (秒)",
    "wolfhud_panels_show_hps_total_title": "合計HPSの表示",
    "wolfhud_panels_show_hps_total_desc": "一度のJob (Day) の間の合計HPSを表示します",

    "wolfhud_panels_position_title": "位置",
    "wolfhud_panels_position_desc": "HUDパネルの水平位置を変更します",
    "wolfhud_panels_scale_title": "スケール",
    "wolfhud_panels_scale_desc": "HUDパネルの表示倍率を変更します",
    "wolfhud_panels_oppacity_title": "不透明度",
    "wolfhud_panels_oppacity_desc": "HUDパネルの不透明度を変更します",
    "wolfhud_panels_show_name_title": "名前を表示",
    "wolfhud_panels_show_name_desc": "プレイヤーの名前を表示します",
    "wolfhud_panels_show_rank_title": "ランクを表示",
    "wolfhud_panels_rank_name_desc": "プレイヤーのランクを表示します",
    "wolfhud_panels_truncate_tags_title": "タグの切り捨て",
    "wolfhud_panels_truncate_tags_desc": "プレイヤー名にクランタグが含まれている場合、切り捨てを試みます",
    "wolfhud_panels_show_char_title": "キャラクターを表示",
    "wolfhud_panels_show_char_desc": "使用中のキャラクターを表示します",
    "wolfhud_panels_show_ping_title": "Pingを表示",
    "wolfhud_panels_show_ping_desc": "各プレイヤーとのPingを表示します",
    "wolfhud_panels_show_status_title": "ステータスを表示",
    "wolfhud_panels_show_status_desc": "プレイヤーのステータスを表示します (ヘルスやアーマー等)",
    "wolfhud_panels_condition_icon_color_title": "状態アイコンの色",
    "wolfhud_panels_condition_icon_color_desc": "状態アイコンの色を変更します (ダウン、収監、スワンソング等)",
    "wolfhud_panels_show_equip_title": "装備品の表示",
    "wolfhud_panels_show_equip_desc": "プレイヤーの装備品を表示します",
    "wolfhud_panels_show_special_equip_title": "ミッションアイテムを表示",
    "wolfhud_panels_show_special_equip_desc": "プレイヤーが拾ったミッションアイテムを表示します",
    "wolfhud_panels_special_equip_rows_title": "ミッションアイテムの表示数",
    "wolfhud_panels_special_equip_rows_desc": "ミッションアイテムを1行にいくつ表示するかを変更します",
    "wolfhud_panels_show_callsign_title": "コールサインを表示",
    "wolfhud_panels_show_callsign_desc": "プレイヤーのコールサインを表示します",
    "wolfhud_panels_show_stamina_title": "スタミナを表示",
    "wolfhud_panels_show_stamina_desc": "自分のヘルスバーの内側にスタミナサークルを表示します",
    "wolfhud_panels_show_downcounter_title": "ダウンカウンターを表示",
    "wolfhud_panels_show_downcounter_desc": "AIでないプレイヤーのダウン数を表示します\n自分には残機を、味方にはダウン回数を表示します",
    "wolfhud_panels_show_carry_title": "バッグを表示",
    "wolfhud_panels_show_carry_desc": "運んでいるバッグの情報を表示します",
    "wolfhud_panels_build_show_title": "ビルドを表示",
    "wolfhud_panels_build_show_desc": "参加しようとしているプレイヤーのビルドを表示します",
    "wolfhud_panels_build_time_title": "ビルドの表示時間",
    "wolfhud_panels_build_time_desc": "参加しようとしているプレイヤーのビルドを表示する時間を設定します (秒)\n(0で常に表示)",
    "wolfhud_panels_weapon_icon_title": "武器のアイコン",
    "wolfhud_panels_weapon_icon_desc": "武器のアイコンの表示設定",
    "wolfhud_panels_weapon_name_title": "武器の名前",
    "wolfhud_panels_weapon_name_desc": "武器の名前の表示設定",
    "wolfhud_panels_weapon_ammo_title": "残弾数",
    "wolfhud_panels_weapon_ammo_desc": "残弾数の表示設定",
    "wolfhud_panels_weapon_firemode_title": "射撃モード",
    "wolfhud_panels_weapon_firemode_desc": "射撃モードの表示設定",
    "wolfhud_panels_hide": "表示しない",
    "wolfhud_panels_selected": "装備時のみ",
    "wolfhud_panels_unselected": "非装備時のみ",
    "wolfhud_panels_both": "両方",
    "wolfhud_panels_ammo_total": "総弾数のみ",
    "wolfhud_panels_show_interaction_title": "インタラクト情報の表示",
    "wolfhud_panels_show_interaction_desc": "味方のインタラクト情報を表示します",
    "wolfhud_panels_show_interaction_number_title": "残り時間の表示",
    "wolfhud_panels_show_interaction_number_desc": "インタラクトの残り時間を数字で表示します",
    "wolfhud_panels_show_interaction_text_title": "内容を表示",
    "wolfhud_panels_show_interaction_text_desc": "インタラクトの内容を表示します",
    "wolfhud_panels_interaction_time_title": "表示する最小時間",
    "wolfhud_panels_interaction_time_desc": "指定した秒数より長いインタラクトの場合のみ表示します",
    "wolfhud_panels_use_ai_color_title": "AIのカラーを変更する",
    "wolfhud_panels_use_ai_color_desc": "AIの名前の色を変更します (ダメージポップアップにも反映されます)",
    "wolfhud_panels_ai_color_title": "色の指定",
    "wolfhud_panels_ai_color_desc": "AIの名前に使用する色を変更します (ダメージポップアップにも反映されます)",

    "wolfhud_chat_options_name": "チャットの設定",
    "wolfhud_chat_options_help": "チャットの動作に関する設定",

    "wolfhud_chat_enabled_title": "カスタムチャットを有効化",
    "wolfhud_chat_enabled_desc": "デフォルトのチャットをmodで拡張されたものに置き換えます",

    "wolfhud_chat_waittime_title": "フェード時間",
    "wolfhud_chat_waittime_desc": "チャットがフェードアウトするまでの秒数を変更します\n(0で無効)",
    "wolfhud_chat_fontsize_title": "文字サイズ",
    "wolfhud_chat_fontsize_desc": "チャットボックスの文字サイズを変更します",
    "wolfhud_chat_outputlines_title": "表示する行数",
    "wolfhud_chat_outputlines_desc": "1画面に表示する行数を変更します",
    "wolfhud_spam_filter_title": "スパムフィルタ",
    "wolfhud_spam_filter_desc": "PocoHUD や [NGBTO] のスパムメッセージを表示しないようにします",
    "wolfhud_chat_width_title": "横幅",
    "wolfhud_chat_width_desc": "チャットボックスの横幅を変更します",
    "wolfhud_chat_inputlines_title": "入力可能な最大行数",
    "wolfhud_chat_inputlines_desc": "入力可能な最大行数を変更します",
    "wolfhud_chat_colored_bg_title": "背景に色を付ける",
    "wolfhud_chat_colored_bg_desc": "発言者に応じてメッセージの背景色を変更します",
    "wolfhud_chat_scrollbar_align_title": "スクロールバーの位置",
    "wolfhud_chat_scrollbar_align_desc": "スクロールバーの配置を変更します",

    "wolfhud_suspicion_options_name": "ステルス時の疑惑表示の設定",
    "wolfhud_suspicion_options_help": "疑惑表示のサイズやオプションに関する設定",

    "wolfhud_susp_enabled_title": "オプションを有効化",
    "wolfhud_susp_enabled_desc": "追加機能を有効化します",

    "wolfhud_suspicion_scale_title": "疑惑度ゲージのスケール",
    "wolfhud_suspicion_scale_desc": "疑惑度ゲージなどのパネルの表示倍率を変更します",
    "wolfhud_susp_eye_title": "疑惑ゲージを表示する",
    "wolfhud_susp_eye_desc": "デフォルトの疑惑 (発見度) ゲージを表示します",
    "wolfhud_susp_numberic_title": "疑惑度を数値で表示する",
    "wolfhud_susp_numberic_desc": "NPCの疑惑度を数値で表示するようにします",
    "wolfhud_susp_numberic_outline_title": "数値表示を黒で縁取る",
    "wolfhud_susp_numberic_outline_desc": "数値表示に黒い縁取りを付けます",

    "wolfhud_killcounter_options_name": "キルカウンターの設定",
    "wolfhud_killcounter_options_help": "キルカウンターの表示に関する設定",

    "wolfhud_killcounter_player_show_killcount_title": "自分のキルカウンターを表示する",
    "wolfhud_killcounter_player_show_killcount_desc": "HUDに自分のキルカウンターを表示します",
    "wolfhud_killcounter_player_color_title": "自分のキル数表示の色",
    "wolfhud_killcounter_player_color_desc": "キルカウンターの色を変更できます",
    "wolfhud_killcounter_player_show_special_title": "特殊部隊員のキル数を表示する",
    "wolfhud_killcounter_player_show_special_desc": "特殊部隊員のキル数を別個で表示します",
    "wolfhud_killcounter_player_show_head_title": "ヘッドショットキル数を表示する",
    "wolfhud_killcounter_player_show_head_desc": "ヘッドショットによるキル数を別個で表示します",
    "wolfhud_killcounter_player_show_accuracy_title": "命中率を表示する",
    "wolfhud_killcounter_player_show_accuracy_desc": "HUDに現在の命中率を表示します",
    "wolfhud_killcounter_team_show_killcount_title": "味方のキルカウンターを表示する",
    "wolfhud_killcounter_team_show_killcount_desc": "HUDに味方のキルカウンターを表示します",
    "wolfhud_killcounter_team_color_title": "味方のキル数表示の色",
    "wolfhud_killcounter_team_color_desc": "キルカウンターの色を変更できます",
    "wolfhud_killcounter_team_show_special_title": "特殊部隊員のキル数を表示する",
    "wolfhud_killcounter_team_show_special_desc": "特殊部隊員のキル数を別個で表示します",
    "wolfhud_killcounter_team_show_head_title": "ヘッドショットキル数を表示する",
    "wolfhud_killcounter_team_show_head_desc": "ヘッドショットによるキル数を別個で表示します",
    "wolfhud_killcounter_team_show_ai_title": "AIのキルカウンターを表示する",
    "wolfhud_killcounter_team_show_ai_desc": "HUDにAIのキルカウンターを表示します",
    "wolfhud_corpse_limit_title": "死体の上限数",
    "wolfhud_corpse_limit_desc": "同時に存在できる死体の数を変更します\n(反映にはマップの再読込が必要です)",

    "wolfhud_drivinghud_options_name": "Driving HUDの設定",
    "wolfhud_drivinghud_options_help": "Driving HUDに関する設定",

    "wolfhud_show_drivinghud_title": "Driving HUDを表示する",
    "wolfhud_show_drivinghud_desc": "乗り物に乗っている間、画面右下に乗り物の情報を表示します\n(反映にはマップの再読込が必要です)",
    "wolfhud_drivinghud_scale_title": "スケール",
    "wolfhud_drivinghud_scale_desc": "Driving HUDの表示倍率を変更します",
    "wolfhud_drivinghud_show_vehicle_title": "乗り物の画像を表示する",
    "wolfhud_drivinghud_show_vehicle_desc": "現在乗っている乗り物の画像と、乗っているプレイヤーのマスクアイコンを表示します",
    "wolfhud_drivinghud_show_health_title": "耐久力を表示する",
    "wolfhud_drivinghud_show_health_desc": "乗り物の耐久力を表示します",
    "wolfhud_drivinghud_show_loot_title": "戦利品を表示する",
    "wolfhud_drivinghud_show_loot_desc": "乗り物に積まれている戦利品の数と上限を表示します",
    "wolfhud_drivinghud_show_passengers_title": "搭乗者を表示する",
    "wolfhud_drivinghud_show_passengers_desc": "搭乗者の数と上限を表示します",
    "wolfhud_drivinghud_show_gear_title": "ギアを表示する",
    "wolfhud_drivinghud_show_gear_desc": "乗り物のギア数を表示します",
    "wolfhud_drivinghud_show_speed_title": "速度を表示する",
    "wolfhud_drivinghud_show_speed_desc": "乗り物の速度を表示します",
    "wolfhud_drivinghud_speed_in_mph_title": "速度をmph (マイル) で表示する",
    "wolfhud_drivinghud_speed_in_mph_desc": "速度表示をマイルに切替えます\n(デフォルトでは km/h です)",
    "wolfhud_drivinghud_show_rpm_title": "RPMを表示する",
    "wolfhud_drivinghud_show_rpm_desc": "乗り物のエンジンの回転数を表示します",

    "wolfhud_infopanels_options_name": "HUD Infoの設定",
    "wolfhud_infopanels_options_help": "HUDに表示する各種情報の設定",

    "wolfhud_hudlist_right_list_height_offset_title": "右側リストのオフセット",
    "wolfhud_hudlist_right_list_height_offset_desc": "右側リストの画面上部からのオフセットを変更します",
    "wolfhud_hudlist_left_list_height_offset_title": "左側リストのオフセット",
    "wolfhud_hudlist_left_list_height_offset_desc": "左側リストの画面上部からのオフセットを変更します",
    "wolfhud_hudlist_buff_list_height_offset_title": "バフリストのオフセット",
    "wolfhud_hudlist_buff_list_height_offset_desc": "バフリストの画面上部からのオフセットを変更します",
    "wolfhud_mui_buff_fix_title": "MUI向けのバフリスト修正",
    "wolfhud_mui_buff_fix_desc": "字幕と重なるバフリストの表示をしなくなります",

    "wolfhud_use_hudlist_title": "HUDListを有効化",
    "wolfhud_use_hudlist_desc": "HUDListにはドリル等の残り時間や、敵の数、戦利品の数等といった情報を表示できます (反映にはマップの再読込が必要です)",
    "wolfhud_hudlist_scale_right_title": "右側リストのスケール",
    "wolfhud_hudlist_scale_right_desc": "画面右側に表示されるリストの表示倍率を変更します",
    "wolfhud_hudlist_scale_left_title": "左側リストのスケール",
    "wolfhud_hudlist_scale_left_desc": "画面左側に表示されるリストの表示倍率を変更します",
    "wolfhud_hudlist_scale_buff_title": "バフリストのスケール",
    "wolfhud_hudlist_scale_buff_desc": "バフリストの表示倍率を変更します",
    "wolfhud_hudlist_box_color_title": "ボックスの文字色",
    "wolfhud_hudlist_box_color_desc": "左右のリストで使用する文字の色を変更します\n(反映にはマップの再読込が必要です)",
    "wolfhud_hudlist_box_bg_color_title": "ボックスの背景色",
    "wolfhud_hudlist_box_bg_color_desc": "左右のリストで使用する背景色を変更します\n(反映にはマップの再読込が必要です)",
    "wolfhud_hudlist_civcolor_title": "市民の色",
    "wolfhud_hudlist_civcolor_desc": "市民と人質の表示に使う色を変更します",
    "wolfhud_hudlist_thugcolor_title": "ギャングの色",
    "wolfhud_hudlist_thugcolor_desc": "ギャングなどの表示に使う色を変更します",
    "wolfhud_hudlist_copcolor_title": "警察関係者の色",
    "wolfhud_hudlist_copcolor_desc": "警察やSWAT隊員など、通常の敵の表示に使う色を変更します",
    "wolfhud_hudlist_specialcolor_title": "特殊部隊員の色",
    "wolfhud_hudlist_specialcolor_desc": "特殊部隊員と敵のタレットの表示に使う色を変更します",
    "wolfhud_hudlist_progress_alpha_left_title": "左のプログレスバーの不透明度",
    "wolfhud_hudlist_progress_alpha_left_desc": "左側リストのプログレスバーの不透明度を変更します",
    "wolfhud_hudlist_progress_alpha_right_title": "右のプログレスバーの不透明度",
    "wolfhud_hudlist_progress_alpha_right_desc": "右側リストのプログレスバーの不透明度を変更します",
    "wolfhud_hudlist_progress_alpha_buff_title": "バフのプログレスバーの不透明度",
    "wolfhud_hudlist_progress_alpha_buff_desc": "バフリストのプログレスバーの不透明度を変更します",

    "wolfhud_infopanels_left_options_name": "左側リストの設定",
    "wolfhud_infopanels_left_options_help": "画面左側のリストの設定を変更します",

    "wolfhud_hudlist_show_timers_title": "タイマーを表示する",
    "wolfhud_hudlist_show_timers_desc": "ドリルやハッキングの残り時間を表示します",
    "wolfhud_hudlist_show_equipment_desc": "装備品の情報を表示するかどうかを設定します",
    "wolfhud_hudlist_show_ammo_bags_title": "弾薬バッグを表示する",
    "wolfhud_hudlist_show_doc_bags_title": "ドクターバッグを表示する",
    "wolfhud_hudlist_show_first_aid_kits_title": "救急キットを表示する",
    "wolfhud_hudlist_show_body_bags_title": "ボディーバッグケースを表示する",
    "wolfhud_hudlist_show_grenade_crates_title": "手榴弾ケースを表示する",
    "wolfhud_hudlist_sentries_title": "セントリーガンを表示する",
    "wolfhud_hudlist_sentries_desc": "セントリーガンの耐久値と残弾数を表示します",
    "wolfhud_hudlist_hide_empty_sentries_title": "弾切れのセントリーを隠す",
    "wolfhud_hudlist_hide_empty_sentries_desc": "弾切れのセントリーの表示を隠します",
    "wolfhud_hudlist_show_ecms_title": "ECMを表示する",
    "wolfhud_hudlist_show_ecms_desc": "ECMの残り時間を表示します",
    "wolfhud_hudlist_show_ecm_retrigger_title": "再利用可能なECMを表示する",
    "wolfhud_hudlist_show_ecm_retrigger_desc": "再利用可能になったECMを表示します",
    "wolfhud_hudlist_show_minions_title": "ジョーカーを表示する",
    "wolfhud_hudlist_show_minions_desc": "全てのジョーカーのヘルスを表示します",
    "wolfhud_hudlist_show_own_minions_only_title": "表示を自分のジョーカーだけに限定する",
    "wolfhud_hudlist_show_own_minions_only_desc": "自分が変換したジョーカーのヘルスだけを表示します",
    "wolfhud_hudlist_show_pagers_title": "ペイジャーを表示する",
    "wolfhud_hudlist_show_pagers_desc": "ペイジャー応答に失敗してアラームが鳴るまでの残り時間を表示します",
    "wolfhud_hudlist_show_tape_loop_title": "カメラループを表示する",
    "wolfhud_hudlist_show_tape_loop_desc": "カメラループの効果時間を表示します",
    "wolfhud_hudlist_remove_answered_pagers_title": "ペイジャーのハイライトを消す",
    "wolfhud_hudlist_remove_answered_pagers_desc": "応答済みのペイジャーのハイライトを消します",

    "wolfhud_infopanels_right_options_name": "右側リストの設定",
    "wolfhud_infopanels_right_options_help": "画面右側のリストの設定を変更します",

    "wolfhud_hudlist_show_enemies_title": "敵の数を表示する",
    "wolfhud_hudlist_show_enemies_desc": "マップ上に存在する敵の数を表示します",
    "wolfhud_hudlist_aggregate_enemies_title": "敵の表示をひとまとめにする",
    "wolfhud_hudlist_aggregate_enemies_desc": "敵を種類ごとに分けず、全ての敵の総数を表示します",
    "wolfhud_hudlist_show_turrets_title": "タレットを表示する",
    "wolfhud_hudlist_show_turrets_desc": "敵のタレットの数を表示します",
    "wolfhud_hudlist_show_civilians_title": "市民を表示する",
    "wolfhud_hudlist_show_civilians_desc": "拘束されていない市民の数を表示します",
    "wolfhud_hudlist_show_hostages_title": "人質を表示する",
    "wolfhud_hudlist_show_hostages_desc": "人質にした市民の数を表示します",
    "wolfhud_hudlist_aggregate_hostages_title": "人質の表示をひとまとめにする",
    "wolfhud_hudlist_aggregate_hostages_desc": "人質を種類ごとに分けず、総数を表示します",
    "wolfhud_hudlist_show_minion_count_title": "降伏させた敵を表示する",
    "wolfhud_hudlist_show_minion_count_desc": "降伏させた敵の数を表示します",
    "wolfhud_hudlist_show_pager_count_title": "ペイジャー数を表示する",
    "wolfhud_hudlist_show_pager_count_desc": "ステルス中のみ、応答したペイジャーの数を表示します",
    "wolfhud_hudlist_show_cam_count_title": "カメラの数を表示する",
    "wolfhud_hudlist_show_cam_count_desc": "ステルス中のみ、有効なカメラの数を表示します",
    "wolfhud_hudlist_show_bodybags_count_title": "死体袋を表示する",
    "wolfhud_hudlist_show_bodybags_count_desc": "ステルス中のみ、所持している死体袋の数を表示します",
    "wolfhud_hudlist_show_corpse_count_title": "死体の数を表示する",
    "wolfhud_hudlist_show_corpse_count_desc": "ステルス中のみ、放置されている死体と袋詰めの死体の数をそれぞれ表示します",
    "wolfhud_hudlist_show_loot_title": "戦利品を表示する",
    "wolfhud_hudlist_show_loot_desc": "袋詰め可能な戦利品の数を表示します",
    "wolfhud_hudlist_aggregate_loot_title": "戦利品の総数を表示する",
    "wolfhud_hudlist_aggregate_loot_desc": "全ての戦利品の数をひとまとめにして表示します",
    "wolfhud_hudlist_separate_bagged_loot_title": "袋詰めした戦利品の表示を分ける",
    "wolfhud_hudlist_separate_bagged_loot_desc": "袋詰めした戦利品とされていない戦利品の表示を分けます",
    "wolfhud_hudlist_show_potential_loot_title": "潜在的な戦利品の数を表示する",
    "wolfhud_hudlist_show_potential_loot_desc": "戦利品が入っているかもしれない、破壊可能な箱の数を表示します \n(空の箱も含まれている事に注意！)",
    "wolfhud_hudlist_show_special_pickups_title": "拾得可能なアイテムの数を表示する",
    "wolfhud_hudlist_show_special_pickups_desc": "薬品やキーカードといったミッションアイテムや各種収集品の数を表示します",
    "wolfhud_hudlist_show_mission_pickups_title": "ミッションアイテムを表示する",
    "wolfhud_hudlist_show_mission_pickups_desc": "薬品やキーカード、板などのミッションアイテムの数を表示します",
    "wolfhud_hudlist_show_collectables_pickups_title": "収集品を表示する",
    "wolfhud_hudlist_show_collectables_pickups_desc": "Gage Courierのパッケージや、Gage Spec Opsの箱・キーの数を表示します",
    "wolfhud_hudlist_show_valuables_pickups_title": "現金類を表示する",
    "wolfhud_hudlist_show_valuables_pickups_desc": "札束やアクセサリーといった現金類の数を表示します",

    "wolfhud_infopanels_buff_options_name": "バフリストの設定",
    "wolfhud_infopanels_buff_options_help": "バフリストに冠する設定を変更します",

    "wolfhud_infopanels_buff_mastermind_options_name": "マスターマインド",
    "wolfhud_infopanels_buff_mastermind_options_help": "マスターマインドのスキルの表示のON/OFFを設定します",
    "wolfhud_infopanels_buff_enforcer_options_name": "エンフォーサー",
    "wolfhud_infopanels_buff_enforcer_options_help": "エンフォーサーのスキルの表示のON/OFFを設定します",
    "wolfhud_infopanels_buff_technician_options_name": "テクニシャン",
    "wolfhud_infopanels_buff_technician_options_help": "テクニシャンのスキルの表示のON/OFFを設定します",
    "wolfhud_infopanels_buff_ghost_options_name": "ゴースト",
    "wolfhud_infopanels_buff_ghost_options_help": "ゴーストのスキルの表示のON/OFFを設定します",
    "wolfhud_infopanels_buff_fugitive_options_name": "フュージティブ",
    "wolfhud_infopanels_buff_fugitive_options_help": "フュージティブのスキルの表示のON/OFFを設定します",
    "wolfhud_infopanels_buff_perkdecks_options_name": "パーク",
    "wolfhud_infopanels_buff_perkdecks_options_help": "パークの効果の表示のON/OFFを設定します",
    "wolfhud_infopanels_buff_gageboosts_options_name": "ゲージブースト",
    "wolfhud_infopanels_buff_gageboosts_options_help": "クライムスプリーのゲージブーストの表示のON/OFFを設定します",
    "wolfhud_infopanels_buff_henchmen_options_name": "仲間の能力",
    "wolfhud_infopanels_buff_henchmen_options_help": "AIの仲間の能力の効果の表示のON/OFFを設定します",

    "wolfhud_hudlist_show_buffs_title": "バフを表示する",
    "wolfhud_hudlist_show_buffs_desc": "起動中のバフを画面中央下部に表示します",
    "wolfhud_hudlist_damage_increase_compbuff_title": "与ダメージ増加バフ",
    "wolfhud_hudlist_damage_increase_compbuff_desc": "全ての与ダメージ増加バフの合計値を表示します",
    "wolfhud_hudlist_damage_reduction_compbuff_title": "被ダメージ軽減バフ",
    "wolfhud_hudlist_damage_reduction_compbuff_desc": "全ての被ダメージ軽減バフの合計値を表示します",
    "wolfhud_hudlist_melee_damage_increase_compbuff_title": "近接ダメージ増加",
    "wolfhud_hudlist_melee_damage_increase_compbuff_desc": "全ての近接ダメージ増加バフの合計値を表示します",
    "wolfhud_hudlist_passive_health_regen_compbuff_title": "ヘルス自動回復",
    "wolfhud_hudlist_passive_health_regen_compbuff_desc": "全てのヘルス自動回復バフの合計値を表示します",
    "wolfhud_hudlist_total_dodge_chance_compbuff_title": "回避率",
    "wolfhud_hudlist_total_dodge_chance_compbuff_desc": "全ての回避率増加バフの合計値を表示します",
    "wolfhud_hudlist_aggressive_reload_aced_buff_title": "アグレッシブリロード",
    "wolfhud_hudlist_aggressive_reload_aced_buff_desc": "",
    "wolfhud_hudlist_ammo_efficiency_buff_title": "弾薬効率",
    "wolfhud_hudlist_ammo_efficiency_buff_desc": "",
    "wolfhud_hudlist_armor_break_invulnerable_buff_title": "アーマー全損時の無敵バフのクールダウン",
    "wolfhud_hudlist_armor_break_invulnerable_buff_desc": "アーマラーとアナーキストで共通",
    "wolfhud_hudlist_berserker_buff_title": "バーサーカー",
    "wolfhud_hudlist_berserker_buff_desc": "各種バフの合計値表示に含まれています",
    "wolfhud_hudlist_biker_buff_title": "回復のクールタイム (バイカー)",
    "wolfhud_hudlist_biker_buff_desc": "",
    "wolfhud_hudlist_bloodthirst_basic_buff_title": "残虐 (ベーシック)",
    "wolfhud_hudlist_bloodthirst_basic_buff_desc": "各種バフの合計値表示に含まれています",
    "wolfhud_hudlist_bloodthirst_aced_buff_title": "残虐 (エース)",
    "wolfhud_hudlist_bloodthirst_aced_buff_desc": "",
    "wolfhud_hudlist_bullet_storm_buff_title": "銃弾の嵐",
    "wolfhud_hudlist_bullet_storm_buff_desc": "",
    "wolfhud_hudlist_close_contact_buff_title": "接近戦 (インフィルトレーター)",
    "wolfhud_hudlist_close_contact_buff_desc": "各種バフの合計値表示に含まれています",
    "wolfhud_hudlist_combat_medic_buff_title": "コンバットメディック (エース)",
    "wolfhud_hudlist_combat_medic_buff_desc": "各種バフの合計値表示に含まれています",
    "wolfhud_hudlist_combat_medic_passive_buff_title": "コンバットメディック (ベーシック)",
    "wolfhud_hudlist_combat_medic_passive_buff_desc": "各種バフの合計値表示に含まれています",
    "wolfhud_hudlist_desperado_buff_title": "デスペラード",
    "wolfhud_hudlist_desperado_buff_desc": "",
    "wolfhud_hudlist_die_hard_buff_title": "ダイハード",
    "wolfhud_hudlist_die_hard_buff_desc": "各種バフの合計値表示に含まれています",
    "wolfhud_hudlist_dire_need_buff_title": "渇望",
    "wolfhud_hudlist_dire_need_buff_desc": "",
    "wolfhud_hudlist_frenzy_buff_title": "フレンジー",
    "wolfhud_hudlist_frenzy_buff_desc": "各種バフの合計値表示に含まれています",
    "wolfhud_hudlist_grinder_buff_title": "体力の自動回復 (グラインダー)",
    "wolfhud_hudlist_grinder_buff_desc": "",
    "wolfhud_hudlist_chico_injector_buff_title": "インジェクターの効果時間 (キングピン)",
    "wolfhud_hudlist_chico_injector_buff_desc": "",
    "wolfhud_hudlist_damage_control_debuff_title": "フラスクのクールタイム (ストイック)",
    "wolfhud_hudlist_damage_control_debuff_desc": "",
    "wolfhud_hudlist_delayed_damage_buff_title": "先送りされたダメージ (ストイック)",
    "wolfhud_hudlist_delayed_damage_buff_desc": "",
    "wolfhud_hudlist_hostage_situation_buff_title": "人質事件 (クルーチーフ)",
    "wolfhud_hudlist_hostage_situation_buff_desc": "各種バフの合計値表示に含まれています",
    "wolfhud_hudlist_hostage_taker_buff_title": "誘拐犯",
    "wolfhud_hudlist_hostage_taker_buff_desc": "",
    "wolfhud_hudlist_inspire_buff_title": "インスパイア (速度ブースト)",
    "wolfhud_hudlist_inspire_buff_desc": "",
    "wolfhud_hudlist_lock_n_load_buff_title": "ロック&ロード",
    "wolfhud_hudlist_lock_n_load_buff_desc": "",
    "wolfhud_hudlist_melee_stack_damage_buff_title": "近接ダメージスタック (インフィルトレーター)",
    "wolfhud_hudlist_melee_stack_damage_buff_desc": "各種バフの合計値表示に含まれています",
    "wolfhud_hudlist_maniac_buff_title": "ダメージ軽減率 (マニアック)",
    "wolfhud_hudlist_maniac_buff_desc": "",
    "wolfhud_hudlist_muscle_regen_buff_title": "ヘルスの自動回復 (マッスル)",
    "wolfhud_hudlist_muscle_regen_buff_desc": "",
    "wolfhud_hudlist_messiah_buff_title": "救世主",
    "wolfhud_hudlist_messiah_buff_desc": "",
    "wolfhud_hudlist_overdog_buff_title": "オーバードッグ (インフィルトレーター)",
    "wolfhud_hudlist_overdog_buff_desc": "",
    "wolfhud_hudlist_overkill_buff_title": "オーバーキル",
    "wolfhud_hudlist_overkill_buff_desc": "各種バフの合計値表示に含まれています",
    "wolfhud_hudlist_painkiller_buff_title": "鎮痛剤",
    "wolfhud_hudlist_painkiller_buff_desc": "各種バフの合計値表示に含まれています",
    "wolfhud_hudlist_partner_in_crime_buff_title": "犯罪のパートナー",
    "wolfhud_hudlist_partner_in_crime_buff_desc": "各種バフの合計値表示に含まれています",
    "wolfhud_hudlist_running_from_death_buff_title": "死からの逃走",
    "wolfhud_hudlist_running_from_death_buff_desc": "",
    "wolfhud_hudlist_pocket_ecm_jammer_buff_title": "携帯用ECMの効果時間 (ハッカー)",
    "wolfhud_hudlist_pocket_ecm_jammer_buff_desc": "",
    "wolfhud_hudlist_pocket_ecm_kill_dodge_buff_title": "携帯用ECMの回避バフ (ハッカー)",
    "wolfhud_hudlist_pocket_ecm_kill_dodge_buff_desc": "各種バフの合計値表示に含まれています",
    "wolfhud_hudlist_quick_fix_buff_title": "クイックフィックス",
    "wolfhud_hudlist_quick_fix_buff_desc": "各種バフの合計値表示に含まれています",
    "wolfhud_hudlist_second_wind_buff_title": "息を盛り返す",
    "wolfhud_hudlist_second_wind_buff_desc": "",
    "wolfhud_hudlist_sixth_sense_buff_title": "第六感",
    "wolfhud_hudlist_sixth_sense_buff_desc": "",
    "wolfhud_hudlist_sicario_dodge_buff_title": "回避率バフ (シカリオ)",
    "wolfhud_hudlist_sicario_dodge_buff_desc": "",
    "wolfhud_hudlist_smoke_screen_buff_title": "発煙弾 (シカリオ)",
    "wolfhud_hudlist_smoke_screen_buff_desc": "",
    "wolfhud_hudlist_tag_team_buff_title": "ガスディスペンサー (タッグチーム)",
    "wolfhud_hudlist_tag_team_buff_desc": "",
    "wolfhud_hudlist_swan_song_buff_title": "スワンソング",
    "wolfhud_hudlist_swan_song_buff_desc": "",
    "wolfhud_hudlist_tooth_and_claw_buff_title": "必死 (ヒットマン)",
    "wolfhud_hudlist_tooth_and_claw_buff_desc": "",
    "wolfhud_hudlist_trigger_happy_buff_title": "トリガーハッピー",
    "wolfhud_hudlist_trigger_happy_buff_desc": "各種バフの合計値表示に含まれています",
    "wolfhud_hudlist_underdog_buff_title": "敗北者",
    "wolfhud_hudlist_underdog_buff_desc": "各種バフの合計値表示に含まれています",
    "wolfhud_hudlist_unseen_strike_buff_title": "見えない攻撃",
    "wolfhud_hudlist_unseen_strike_buff_desc": "",
    "wolfhud_hudlist_up_you_go_buff_title": "時は今",
    "wolfhud_hudlist_up_you_go_buff_desc": "各種バフの合計値表示に含まれています",
    "wolfhud_hudlist_uppers_buff_title": "アッパー",
    "wolfhud_hudlist_uppers_buff_desc": "",
    "wolfhud_hudlist_yakuza_buff_title": "アーマー回復速度上昇 (ヤクザ)",
    "wolfhud_hudlist_yakuza_buff_desc": "",
    "wolfhud_hudlist_anarchist_armor_recovery_debuff_title": "ラスト・フォー・ライフ (アナーキスト)",
    "wolfhud_hudlist_anarchist_armor_recovery_debuff_desc": "",
    "wolfhud_hudlist_ammo_give_out_debuff_title": "弾薬配付のクールタイム (ギャンブラー)",
    "wolfhud_hudlist_ammo_give_out_debuff_desc": "",
    "wolfhud_hudlist_bullseye_debuff_title": "ブルズアイのクールタイム",
    "wolfhud_hudlist_bullseye_debuff_desc": "",
    "wolfhud_hudlist_inspire_debuff_title": "インスパイアのバフのクールタイム",
    "wolfhud_hudlist_inspire_debuff_desc": "",
    "wolfhud_hudlist_inspire_revive_debuff_title": "インスパイアの蘇生のクールタイム",
    "wolfhud_hudlist_inspire_revive_debuff_desc": "",
    "wolfhud_hudlist_life_drain_debuff_title": "体力吸収のクールタイム (インフィルトレーター)",
    "wolfhud_hudlist_life_drain_debuff_desc": "",
    "wolfhud_hudlist_medical_supplies_debuff_title": "医薬品のクールタイム (ギャンブラー)",
    "wolfhud_hudlist_medical_supplies_debuff_desc": "",
    "wolfhud_hudlist_sociopath_debuff_title": "各種回復効果のクールタイム (ソシオパス)",
    "wolfhud_hudlist_sociopath_debuff_desc": "",
    "wolfhud_hudlist_armorer_teambuff_title": "アーマー回復のチームバフ (アーマラー)",
    "wolfhud_hudlist_armorer_teambuff_desc": "",
    "wolfhud_hudlist_bulletproof_teambuff_title": "衝撃と畏怖のチームバフ",
    "wolfhud_hudlist_bulletproof_teambuff_desc": "",
    "wolfhud_hudlist_crew_chief_teambuff_title": "チームへのステータスバフの表示 (クルーチーフ)",
    "wolfhud_hudlist_crew_chief_teambuff_desc": "各種バフの合計値表示に含まれています",
    "wolfhud_hudlist_forced_friendship_teambuff_title": "強い絆のチームバフ",
    "wolfhud_hudlist_forced_friendship_teambuff_desc": "",
    "wolfhud_hudlist_life_steal_gage_debuff_title": "セルフ回復",
    "wolfhud_hudlist_life_steal_gage_debuff_desc": "",
    "wolfhud_hudlist_invulnerable_gage_buff_title": "一定時間無敵",
    "wolfhud_hudlist_invulnerable_gage_buff_desc": "",
    "wolfhud_hudlist_crew_inspire_debuff_title": "インスピレーション",
    "wolfhud_hudlist_crew_inspire_debuff_desc": "",
    "wolfhud_hudlist_crew_throwable_regen_buff_title": "備蓄",
    "wolfhud_hudlist_crew_throwable_regen_buff_desc": "",
    "wolfhud_hudlist_crew_health_regen_buff_title": "回復",
    "wolfhud_hudlist_crew_health_regen_buff_desc": "",

    "wolfhud_waypoints_options_name": "カスタムウェイポイントの設定",
    "wolfhud_waypoints_options_help": "カスタムウェイポイントの設定",

    "wolfhud_waypoints_color_title": "ウェイポイントの色",
    "wolfhud_waypoints_color_desc": "デフォルトのミッションウェイポイントの色を変更できます",
    "wolfhud_waypoints_show_ammo_bag_title": "弾薬バッグを表示",
    "wolfhud_waypoints_show_ammo_bag_desc": "弾薬バッグにウェイポイントを追加し、残量を表示します",
    "wolfhud_waypoints_show_doc_bag_title": "ドクターバッグを表示",
    "wolfhud_waypoints_show_doc_bag_desc": "ドクターバッグにウェイポイントを追加し、残量を表示します",
    "wolfhud_waypoints_show_first_aid_kit_title": "救急キットを表示",
    "wolfhud_waypoints_show_first_aid_kit_desc": "救急キットにウェイポイントを追加し、スキルによる付加効果を表示します",
    "wolfhud_waypoints_show_body_bag_title": "ボディーバッグケースを表示",
    "wolfhud_waypoints_show_body_bag_desc": "ボディーバッグケースにウェイポイントを追加し、残量を表示します",
    "wolfhud_waypoints_show_grenade_crate_title": "手榴弾ケースを表示",
    "wolfhud_waypoints_show_grenade_crate_desc": "手榴弾ケースにウェイポイントを追加し、残量を表示します",
    "wolfhud_waypoints_show_sentries_title": "セントリーガンを表示",
    "wolfhud_waypoints_show_sentries_desc": "セントリーガンにウェイポイントを追加し、残弾数を表示します",
    "wolfhud_waypoints_show_ecms_title": "ECMを表示",
    "wolfhud_waypoints_show_ecms_desc": "ECMにウェイポイントを追加し、ジャミングとフィードバックの残り時間を表示します",
    "wolfhud_waypoints_show_timers_title": "タイマーを表示",
    "wolfhud_waypoints_show_timers_desc": "各種タイマーにウェイポイントを追加し、残り時間とスキルによるアップグレードをを表示します",
    "wolfhud_waypoints_show_loot_title": "戦利品を表示",
    "wolfhud_waypoints_show_loot_desc": "戦利品に近寄ることで名前が見えるようになります",
    "wolfhud_waypoints_loot_icon_title": "バッグのアイコン",
    "wolfhud_waypoints_loot_icon_desc": "袋詰めされた戦利品にバッグのアイコンを追加します",
    "wolfhud_waypoints_loot_offset_title": "戦利品の高さオフセット",
    "wolfhud_waypoints_loot_offset_desc": "戦利品の名前の表示位置を調整できます",
    "wolfhud_waypoints_loot_bagged_offset_title": "バッグの高さオフセット",
    "wolfhud_waypoints_loot_bagged_offset_desc": "バッグの名前の表示位置を調整できます",
    "wolfhud_waypoints_loot_angle_title": "表示する角度",
    "wolfhud_waypoints_loot_angle_desc": "戦利品やバッグの名前が見える角度を変更できます",
    "wolfhud_waypoints_show_special_equipment_title": "ミッションアイテムを表示",
    "wolfhud_waypoints_show_special_equipment_desc": "ミッションアイテムにウェイポイントを追加します。位置を覚えるのに便利です。",
    "wolfhud_waypoints_show_minions_title": "ジョーカーを表示",
    "wolfhud_waypoints_show_minions_desc": "変換したプレイヤーの色で、ジョーカーの名前を頭上に表示します\nジョーカーのキルカウントも表示されます",
    "wolfhud_waypoints_show_pager_title": "ペイジャーを表示",
    "wolfhud_waypoints_show_pager_desc": "ペイジャーにウェイポイントを追加します。誰かが応答中は色が変化します。",

    "wolfhud_tabstats_options_name": "Tab Statsの設定",
    "wolfhud_tabstats_options_help": "Tab画面の表示の設定",

    "wolfhud_tabstats_clock_mode_title": "時計の表示",
    "wolfhud_tabstats_clock_mode_desc": "好きなものを選んでください",
    "wolfhud_tabstats_clock_mode_a": "12時間",
    "wolfhud_tabstats_clock_mode_b": "24時間",
    "wolfhud_tabstats_clock_mode_c": "ミッションタイマー",
    "wolfhud_use_tabstats_title": "TabStatsを有効化",
    "wolfhud_use_tabstats_desc": "Tab画面にミッションの目的の代わりに統計を表示します\n(反映にはマップの再読込が必要です)",
    "wolfhud_tabstats_font_size_title": "リストの文字サイズ",
    "wolfhud_tabstats_font_size_desc": "統計リストの文字サイズを変更します",
    "wolfhud_tabstats_color_title": "リストの文字色",
    "wolfhud_tabstats_color_desc": "統計リストの文字色を変更します",
    "wolfhud_tabstats_actual_mask_title": "マスクを表示する",
    "wolfhud_tabstats_actual_mask_desc": "キャラクターの顔画像ではなく、現在使用しているマスクを表示します",
    "wolfhud_tabstats_numberic_loot_title": "戦利品の数を表示",
    "wolfhud_tabstats_numberic_loot_desc": "もう自分でちまちま数える必要はなくなります！",

    "wolfhud_crewloadout_options_name": "仲間のロードアウトの設定",
    "wolfhud_crewloadout_options_help": "チームメイトのスキルなどの情報をどこで表示するかを変更できます",

    "wolfhud_crewloadout_lobby_title": "ロビーに表示する",
    "wolfhud_crewloadout_lobby_desc": "ロビー画面で自分や他プレイヤーのロードアウトを表示できるようにします",
    "wolfhud_crewloadout_cs_lobby_title": "クライムスプリーのロビーに表示する",
    "wolfhud_crewloadout_cs_lobby_desc": "モディファイアと報酬の右に新しくタブを追加し、ロードアウトを確認できるようにします",
    "wolfhud_crewloadout_briefing_title": "ブリーフィング画面に表示する",
    "wolfhud_crewloadout_briefing_desc": "ブリーフィング画面の「仲間の設定」を置換します",
    "wolfhud_crewloadout_tabscreen_title": "Tab画面に表示する",
    "wolfhud_crewloadout_tabscreen_desc": "Tab画面に各プレイヤーのPing、スキル配分、パークを表示します\n(Lobby Player Infoの同機能を使用している場合、こちらは無効になります)",
    "wolfhud_profilemenu_replace_title": "プロフィールメニューの拡張",
    "wolfhud_profilemenu_replace_desc": "デフォルトのプロフィールメニューをWolfHUDによる拡張版に置き換えます",

    "wolfhud_dmgindicator_options_name": "ダメージインジケータ",
    "wolfhud_dmgindicator_options_help": "サイズや色、消えるまでの時間などの設定",

    "wolfhud_show_dmg_indicator_title": "ダイナミックダメージインジケータ",
    "wolfhud_show_dmg_indicator_desc": "表示を動的なものに置き換え、自分の位置などによって表示位置を変化させます",
    "wolfhud_dmg_ind_time_title": "表示時間",
    "wolfhud_dmg_ind_time_desc": "インジケータの表示時間を変更します",
    "wolfhud_dmg_ind_size_title": "サイズ",
    "wolfhud_dmg_ind_size_desc": "インジケータの表示位置のベースとなる円のサイズを変更します",
    "wolfhud_dmg_indicator_max_count_title": "表示上限数",
    "wolfhud_dmg_indicator_max_count_desc": "インジケータの表示上限数を変更します",
    "wolfhud_dmg_shield_color_title": "アーマーダメージ",
    "wolfhud_dmg_shield_color_desc": "アーマーで受けきった場合のインジケータの色を変更します",
    "wolfhud_dmg_health_color_title": "ヘルスダメージ",
    "wolfhud_dmg_health_color_desc": "ヘルスにダメージを受けた場合のインジケータの色を変更します",
    "wolfhud_dmg_crit_color_title": "低ヘルス時のダメージ",
    "wolfhud_dmg_crit_color_desc": "残りヘルスが低い時にダメージを受けた場合のインジケータの色を変更します",
    "wolfhud_dmg_vehicle_color_title": "車両が受けたダメージ",
    "wolfhud_dmg_vehicle_color_desc": "乗っている車両がダメージを受けた場合のインジケータの色を変更します",
    "wolfhud_dmg_friendlyfire_color_title": "フレンドリーファイア",
    "wolfhud_dmg_friendlyfire_color_desc": "自爆や味方の攻撃でダメージを受けた場合のインジケータの色を変更します",

    "wolfhud_dmgpopup_options_name": "敵のダメージポップアップ",
    "wolfhud_dmgpopup_options_help": "敵の頭の近くに与えたダメージを表示します",

    "wolfhud_show_dmg_popup_title": "WolfHUD版のポップアップ",
    "wolfhud_show_dmg_popup_desc": "WolfHUD版のダメージポップアップの表示対象を選択します",
    "wolfhud_dmg_popup_player": "プレイヤー",
    "wolfhud_dmg_popup_all": "全て",
    "wolfhud_dmg_popup_scale_title": "表示サイズ",
    "wolfhud_dmg_popup_scale_desc": "ポップアップの表示サイズを変更します",
    "wolfhud_dmg_popup_skull_scale_title": "スカルの表示サイズ",
    "wolfhud_dmg_popup_skull_scale_desc": "敵を殺害した場合に表示するスカルの表示サイズを変更します",
    "wolfhud_dmg_popup_skull_align_title": "スカルの配置",
    "wolfhud_dmg_popup_skull_align_desc": "スカルを表示する位置を変更します",
    "wolfhud_dmg_popup_time_title": "表示する時間",
    "wolfhud_dmg_popup_time_desc": "ポップアップを表示する時間を変更します",
    "wolfhud_dmg_popup_height_title": "ポップアップの高さ",
    "wolfhud_dmg_popup_height_desc": "ポップアップを表示する高さを変更します",
    "wolfhud_dmg_popup_alpha_title": "ポップアップの不透明度",
    "wolfhud_dmg_popup_alpha_desc": "ポップアップの不透明度を変更します",
    "wolfhud_dmg_popup_color_title": "ヒット時の色",
    "wolfhud_dmg_popup_color_desc": "攻撃を当てた際のポップアップの色を変更します",
    "wolfhud_dmg_popup_critical_color_title": "クリティカルヒットの色",
    "wolfhud_dmg_popup_critical_color_desc": "クリティカルが発生した際のポップアップの色を変更します",
    "wolfhud_dmg_popup_headshot_color_title": "ヘッドショットの色",
    "wolfhud_dmg_popup_headshot_color_desc": "ヘッドショット時のポップアップの色を変更します",

    "wolfhud_dmg_popup_show_alt_popup_title": "HoxHud版のダメージポップアップを表示する",
    "wolfhud_dmg_popup_show_alt_popup_desc": "HoxHud版のダメージポップアップを有効にします",
    "wolfhud_dmg_popup_headshot_glow_color_title": "HS時のグローの色",
    "wolfhud_dmg_popup_headshot_glow_color_desc": "ヘッドショット時のグローの色を変更します",

    "wolfhud_enemyhealthbar_options_name": "エネミーヘルスインジケータの設定",
    "wolfhud_enemyhealthbar_options_help": "敵のヘルスの表示に関する設定",

    "wolfhud_enemyhealthbar_enable_enemy_health_circle": "ヘルスサークルを表示",
    "wolfhud_enemyhealthbar_enable_enemy_health_circle_desc": "敵に照準を合わせた際にHUD上に敵のヘルスを表示します",
    "wolfhud_show_enemyhealthbar_title": "ヘルスバーを表示",
    "wolfhud_show_enemyhealthbar_desc": "サークルではなくヘルスバーとして表示します\n(反映にはマップの再読込が必要です)",
    "wolfhud_enemyhealthbar_ignore_civilian_health": "市民を無視する",
    "wolfhud_enemyhealthbar_ignore_civilian_health_desc": "市民に照準を合わせてもインジケータを表示しないようにします",
    "wolfhud_enemyhealthbar_enemy_health_size": "サイズ",
    "wolfhud_enemyhealthbar_enemy_health_size_desc": "ヘルスインジケータのサイズを変更します \n(反映するにはリスタートする必要があります)",
    "wolfhud_enemyhealthbar_enemy_text_size": "文字サイズ",
    "wolfhud_enemyhealthbar_enemy_text_size_desc": "ヘルスの数値の文字サイズを変更します \n(反映するにはリスタートする必要があります)",
    "wolfhud_enemyhealthbar_enemy_health_vertical_offset": "縦位置",
    "wolfhud_enemyhealthbar_enemy_health_vertical_offset_desc": "インジケータの縦位置を変更します。左端に合わせると画面の上端になります。\n(反映するにはリスタートする必要があります)",
    "wolfhud_enemyhealthbar_enemy_health_horizontal_offset": "横位置",
    "wolfhud_enemyhealthbar_enemy_health_horizontal_offset_desc": "インジケータの横位置を変更します。左端に合わせると画面の左端になります。\n(反映するにはリスタートする必要があります)",
    "wolfhud_enemyhealthbar_ignore_team_ai_health": "味方AIを無視する",
    "wolfhud_enemyhealthbar_ignore_team_ai_health_desc": "味方AIに照準を合わせてもインジケータを表示しないようにします",
    "wolfhud_ignore_carhealthbar_title": "車両の耐久値を表示",
    "wolfhud_ignore_carhealthbar_desc": "操縦可能な車両の耐久値を表示します",
    "wolfhud_show_healthbar_pointer_title": "ポインタを表示",
    "wolfhud_show_healthbar_pointer_desc": "ヘルスバーの下に対象の敵を示す矢印を表示します",

    "wolfhud_interaction_options_name": "インタラクトの設定",
    "wolfhud_interaction_options_help": "インタラクトに関する設定",

    "wolfhud_press2hold_custom_huds_support_title": "カスタムHUDのサポート",
    "wolfhud_press2hold_custom_huds_support_desc": "MUIやPD:TH HUDに対応するための修正",

    "wolfhud_press2hold_lock_mode_title": "Press2Holdの動作",
    "wolfhud_press2hold_lock_mode_desc": "インタラクトをホールドする条件を変更します。「プログレス」にした場合は指定の秒数以上インタラクトしていた場合に、\n「トータル」にした場合はインタラクト完了までに指定の秒数以上かかる場合にホールドされます",
    "wolfhud_press2hold_lock_mode_a": "プログレス",
    "wolfhud_press2hold_lock_mode_b": "トータル",
    "wolfhud_press2hold_lock_mode_c": "ペイジャーとピッキング",
    "wolfhud_press2hold_lock_mode_d": "ペイジャーのみ",
    "wolfhud_press2hold_min_timer_duration_title": "最小時間",
    "wolfhud_press2hold_min_timer_duration_desc": "インタラクトをホールドする条件となる秒数を指定します",
    "wolfhud_press2hold_show_lockindicator_title": "ホールドインジケータを表示する",
    "wolfhud_press2hold_show_lockindicator_desc": "ホールドされたかどうかをわかりやすくするために、インタラクトサークルを赤/緑に薄く色を付けます",
    "wolfhud_press2hold_equipment_cancel_title": "装備品キーで中断する",
    "wolfhud_press2hold_equipment_cancel_desc": "ホールドされたインタラクトを装備品キーで中断するようにします\n(OFFの場合、インタラクトキーをもう一度押す事で中断されます)",
    "wolfhud_press2hold_interrupt_hint_title": "中断操作を表示する",
    "wolfhud_press2hold_interrupt_hint_desc": "どのキーでインタラクトを中断するかの案内を表示します",
    "wolfhud_press2hold_show_timer_title": "残り時間を表示する",
    "wolfhud_press2hold_show_timer_desc": "インタラクトサークルの内側に残り時間を表示します",
    "wolfhud_press2hold_show_circle_title": "インタラクトサークルを表示する",
    "wolfhud_press2hold_show_circle_desc": "標準のインタラクトサークルを表示します",
    "wolfhud_press2hold_circle_scale_title": "サークルのスケール",
    "wolfhud_press2hold_circle_scale_desc": "インタラクトサークルの表示倍率を変更します",
    "wolfhud_press2hold_timer_scale_title": "タイマーのスケール",
    "wolfhud_press2hold_timer_scale_desc": "中央のインタラクトタイマーの表示倍率を変更します (サークルのスケールの影響を受けます)",
    "wolfhud_press2hold_text_scale_title": "文字のスケール",
    "wolfhud_press2hold_text_scale_desc": "サークルの下に表示するインタラクト内容の文字の表示倍率を変更します",
    "wolfhud_press2hold_show_reload_circle_title": "リロードタイマーを表示する",
    "wolfhud_press2hold_show_reload_circle_desc": "リロードでもインタラクトサークルを表示します",
    "wolfhud_press2hold_show_melee_circle_title": "近接武器のチャージを表示する",
    "wolfhud_press2hold_show_melee_circle_desc": "近接武器のチャージでもインタラクトサークルを表示します",
    "wolfhud_press2hold_timer_color_start_title": "タイマーの色 (開始)",
    "wolfhud_press2hold_timer_color_start_desc": "インタラクト開始時のタイマーの色を変更します",
    "wolfhud_press2hold_timer_color_title": "タイマーの色 (終了)",
    "wolfhud_press2hold_timer_color_desc": "インタラクト終了直前のタイマーの色を表示します",
    "wolfhud_press2hold_show_timer_outline_title": "黒で縁取る",
    "wolfhud_press2hold_show_timer_outline_desc": "タイマーの文字を黒で縁取ります",
    "wolfhud_doubletap_nades_stealth_title": "ステルス中のグレネード抑制",
    "wolfhud_doubletap_nades_stealth_desc": "ステルス中のみ、ダブルタップしないとグレネードを投げないようにします\n事故防止のための機能です",
    "wolfhud_hold_to_pick_title": "Hold2Pickを有効化",
    "wolfhud_hold_to_pick_desc": "インタラクトキーを長押しするだけで現金を自動で拾えるようになります",

    "wolfhud_inventory_options_name": "インベントリ関連の設定",
    "wolfhud_inventory_options_help": "インベントリの表示や装備品に関しての設定",

    "wolfhud_equipment_senty_auto_ap_title": "自動AP弾モード",
    "wolfhud_equipment_senty_auto_ap_desc": "必要なスキルを取得している場合、セントリーガンがAP弾モードで設置されるようになります",
    "wolfhud_equipment_tripmine_auto_sensor_stealth_title": "自動センサーモード",
    "wolfhud_equipment_tripmine_auto_sensor_stealth_desc": "ステルス中のみ、トリップマインがセンサーモードで設置されるようになります",
    "wolfhud_equipment_ecm_feedback_disabled_stealth_title": "ECMフィードバックの抑制",
    "wolfhud_equipment_ecm_feedback_disabled_stealth_desc": "ステルス中にECMフィードバックを発動できないようにします",
    "wolfhud_equipment_shaped_charge_disabled_stealth_title": "シェープドチャージの抑制",
    "wolfhud_equipment_shaped_charge_disabled_stealth_desc": "ステルス中のみ、ダブルタップしないとシェープドチャージを設置しないようにします\n事故防止のための機能です",
    "wolfhud_equipment_keycard_doors_disabled_title": "カードキー扉の抑制",
    "wolfhud_equipment_keycard_doors_disabled_desc": "Hoxton Breakout Day2 (The Search) の扉を閉じる際に、ダブルタップ操作が必要になります\n事故防止のための機能です",

    "wolfhud_gadget_options_name": "武器ガジェットの設定",
    "wolfhud_gadget_options_help": "レーザーやフラッシュライトに関する設定",

    "wolfhud_laser_autoon_title": "自動でレーザーを点灯する",
    "wolfhud_laser_autoon_desc": "ジョブの開始時と武器を持ち替えた際に、自動でレーザーを点灯させます",
    "wolfhud_show_angeled_sight_title": "腰だめでもアングルドサイトを表示する",
    "wolfhud_show_angeled_sight_desc": "アングルドサイトに切替えている場合、ADSしていなくても武器を傾けて持つようになります",

    "wolfhud_gadget_player_laser_options_name": "自分のレーザー",
    "wolfhud_gadget_player_laser_options_help": "自分のレーザーの設定",
    "wolfhud_gadget_player_sentry_laser_options_name": "自分のセントリーガン",
    "wolfhud_gadget_player_sentry_laser_options_help": "自分のセントリーガンのレーザーの設定",
    "wolfhud_gadget_team_laser_options_name": "味方のレーザー",
    "wolfhud_gadget_team_laser_options_help": "味方のレーザーの設定",
    "wolfhud_gadget_team_sentry_laser_options_name": "味方のセントリーガン",
    "wolfhud_gadget_team_sentry_laser_options_help": "味方のセントリーガンのレーザーの設定",
    "wolfhud_gadget_sniper_laser_options_name": "敵のスナイパー",
    "wolfhud_gadget_sniper_laser_options_help": "敵のスナイパーのレーザーの設定",
    "wolfhud_gadget_turret_laser_active_options_name": "敵のタレット (通常)",
    "wolfhud_gadget_turret_laser_active_options_help": "通常時の敵のタレットのレーザーの設定",
    "wolfhud_gadget_turret_laser_rearming_options_name": "敵のタレット (リロード)",
    "wolfhud_gadget_turret_laser_rearming_options_help": "リロード中の敵のタレットのレーザーの設定",
    "wolfhud_gadget_turret_laser_mad_options_name": "敵のタレット (停止)",
    "wolfhud_gadget_turret_laser_mad_options_help": "ジャミングを受けている敵のタレットのレーザーの設定",
    "wolfhud_gadget_player_flashlight_options_name": "自分のフラッシュライト",
    "wolfhud_gadget_player_flashlight_options_help": "自分のフラッシュライトの設定",
    "wolfhud_gadget_team_flashlight_options_name": "味方のフラッシュライト",
    "wolfhud_gadget_team_flashlight_options_help": "味方のフラッシュライトの設定",

    "wolfhud_gadgets_enabled_title": "色を上書きする",
    "wolfhud_gadgets_enabled_desc": "ガジェットの設定を無視し、ここで設定した色で上書きします",
    "wolfhud_gadgets_beam_r_title": "ビームの色 (赤)",
    "wolfhud_gadgets_beam_r_desc": "レーザーの赤色の強さを変更します",
    "wolfhud_gadgets_beam_g_title": "ビームの色 (緑)",
    "wolfhud_gadgets_beam_g_desc": "レーザーの緑色の強さを変更します",
    "wolfhud_gadgets_beam_b_title": "ビームの色 (青)",
    "wolfhud_gadgets_beam_b_desc": "レーザーの青色の強さを変更します",
    "wolfhud_gadgets_beam_a_title": "ビームの不透明度",
    "wolfhud_gadgets_beam_a_desc": "レーザーの不透明度を変更します",
    "wolfhud_gadgets_dot_match_title": "ドットの色をビームと揃える",
    "wolfhud_gadgets_dot_match_desc": "ビームの色の設定をドットにも適用します",
    "wolfhud_gadgets_dot_r_title": "ドットの色 (赤)",
    "wolfhud_gadgets_dot_r_desc": "ドットの赤色の強さを変更します",
    "wolfhud_gadgets_dot_g_title": "ドットの色 (緑)",
    "wolfhud_gadgets_dot_g_desc": "ドットの緑色の強さを変更します",
    "wolfhud_gadgets_dot_b_title": "ドットの色 (青)",
    "wolfhud_gadgets_dot_b_desc": "ドットの青色の強さを変更します",
    "wolfhud_gadgets_dot_a_title": "ドットの不透明度",
    "wolfhud_gadgets_dot_a_desc": "ドットの不透明度を変更します",
    "wolfhud_gadgets_glow_match_title": "グローの色をビームと揃える",
    "wolfhud_gadgets_glow_match_desc": "ビームの色の設定をグローにも適用します",
    "wolfhud_gadgets_glow_r_title": "グローの色 (赤)",
    "wolfhud_gadgets_glow_r_desc": "グローの赤色の強さを変更します",
    "wolfhud_gadgets_glow_g_title": "グローの色 (緑)",
    "wolfhud_gadgets_glow_g_desc": "グローの緑色の強さを変更します",
    "wolfhud_gadgets_glow_b_title": "グローの色 (青)",
    "wolfhud_gadgets_glow_b_desc": "グローの青色の強さを変更します",
    "wolfhud_gadgets_glow_a_title": "グローの色不透明度",
    "wolfhud_gadgets_glow_a_desc": "グローの不透明度を変更します",
    "wolfhud_gadgets_light_r_title": "フラッシュライトの色 (赤)",
    "wolfhud_gadgets_light_r_desc": "フラッシュライトの赤色の強さを変更します",
    "wolfhud_gadgets_light_g_title": "フラッシュライトの色 (緑)",
    "wolfhud_gadgets_light_g_desc": "フラッシュライトの緑色の強さを変更します",
    "wolfhud_gadgets_light_b_title": "フラッシュライトの色 (青)",
    "wolfhud_gadgets_light_b_desc": "フラッシュライトの青色の強さを変更します",
    "wolfhud_gadgets_light_brightness_title": "明るさ",
    "wolfhud_gadgets_light_brightness_desc": "フラッシュライトの明るさを変更します",
    "wolfhud_gadgets_light_angle_title": "角度",
    "wolfhud_gadgets_light_angle_desc": "フラッシュライトの照射角度を変更します",
    "wolfhud_gadgets_light_range_title": "距離",
    "wolfhud_gadgets_light_range_desc": "フラッシュライトの照射距離を変更します",
    "wolfhud_gadgets_rainbow_enabled_title": "レインボーモード",
    "wolfhud_gadgets_rainbow_enabled_desc": "色が虹色に変化するようになります",
    "wolfhud_gadgets_rainbow_frequency_title": "レインボーモードの周期",
    "wolfhud_gadgets_rainbow_frequency_desc": "色が変わる速さを変更します",
    "wolfhud_gadgets_pulse_enabled_title": "明滅モード",
    "wolfhud_gadgets_pulse_enabled_desc": "明滅するようになります",
    "wolfhud_gadgets_pulse_min_title": "明るさの最低値",
    "wolfhud_gadgets_pulse_min_desc": "明滅モードの明るさの下限値を変更します",
    "wolfhud_gadgets_pulse_max_title": "明るさの最大値",
    "wolfhud_gadgets_pulse_max_desc": "明滅モードの明るさの上限値を変更します",
    "wolfhud_gadgets_pulse_frequency_title": "明滅する周期",
    "wolfhud_gadgets_pulse_frequency_desc": "明るさが変わる速さを変更します",

    "wolfhud_skipit_options_name": "スキップの設定",
    "wolfhud_skipit_options_help": "必要無い画面を自動的にスキップする設定",
    "wolfhud_assaultbanner_options_name": "アサルトバナーの設定",
    "wolfhud_assaultbanner_options_help": "アサルトバナーに関する設定",

    "wolfhud_panels_show_bulletstorm_title": "銃弾の嵐を強調表示",
    "wolfhud_panels_show_bulletstorm_desc": "銃弾の嵐の発動中、点滅によって表示を強調します",
    "wolfhud_invertedfbg_title": "フラッシュバンの光を反転する",
    "wolfhud_invertedfbg_desc": "フラッシュバンの光を白から黒に変更します",

    "wolfhud_infopanels_buff_player_actions_options_name": "プレイヤーのアクションに関する設定",
    "wolfhud_infopanels_buff_player_actions_options_help": "特定の行動に関しての表示のON/OFFを切り替えます",
    "wolfhud_hudlist_anarchist_armor_regeneration_action_title": "アナーキストのアーマー回復",
    "wolfhud_hudlist_anarchist_armor_regeneration_buff_desc": "",
    "wolfhud_hudlist_standard_armor_regeneration_action_title": "アーマー回復",
    "wolfhud_hudlist_standard_armor_regeneration_action_desc": "",
    "wolfhud_hudlist_weapon_charge_action_title": "武器チャージ",
    "wolfhud_hudlist_weapon_charge_action_desc": "",
    "wolfhud_hudlist_melee_charge_action_title": "近接チャージ",
    "wolfhud_hudlist_melee_charge_action_desc": "",
    "wolfhud_hudlist_reload_action_title": "リロード時間",
    "wolfhud_hudlist_reload_action_desc": "",
    "wolfhud_hudlist_interact_action_title": "インタラクト時間",
    "wolfhud_hudlist_interact_action_desc": "",
    "wolfhud_heist_timer_title": "ミッションタイマーを表示する",
    "wolfhud_heist_timer_desc": "発言の横にジョブ開始からの経過時間を表示します",
    "wolfhud_enable_time_left_title": "途中参加の残り時間",
    "wolfhud_enable_time_left_desc": "途中参加が完了するまでの残り時間を表示します",
    "wolfhud_infopanels_show_special_pickups_options_name": "表示するアイテムの設定",
    "wolfhud_infopanels_show_special_pickups_options_help": "アイテムの種類ごとに表示/非表示を切替えられます",
    "wolfhud_hudlist_show_crowbar_title": "バールを表示する",
    "wolfhud_hudlist_show_crowbar_desc": "",
    "wolfhud_hudlist_show_planks_title": "板を表示する",
    "wolfhud_hudlist_show_planks_desc": "",
    "wolfhud_hudlist_show_keycard_title": "キーカードを表示する",
    "wolfhud_hudlist_show_keycard_desc": "",
    "wolfhud_enable_peer_ping_title": "ロビーでPingを表示する",
    "wolfhud_enable_peer_ping_desc": "ロビー画面で各プレイヤーとのPingを表示します",
    "wolfhud_pacified_civs_alt_icon_title": "別のアイコンを使う",
    "wolfhud_pacified_civs_alt_icon_desc": "制圧した市民を別のアイコンで表示します",
    "wolfhud_enable_headshot_title": "ヘッドショットの表示",
    "wolfhud_enable_headshot_desc": "ヘッドショット時、ヒットマーカーの周囲にサークルを表示します",
    "wolfhud_enable_mask_instruct_title": "マスクの指示を表示する",
    "wolfhud_enable_mask_instruct_desc": "ミッション開始時にマスクを被るように指示を出します",
    "wolfhud_enable_joker_contour_title": "ジョーカーのハイライトに色を付ける",
    "wolfhud_enable_joker_contour_desc": "ジョーカーのハイライトを変換したプレイヤーの色に変更します",
    "wolfhud_enable_sub_title": "字幕に影を付ける",
    "wolfhud_enable_sub_desc": "字幕の後ろに影を付けます",
    "wolfhud_sub_scale_title": "文字サイズ",
    "wolfhud_sub_scale_desc": "字幕の文字サイズを変更します",
    "wolfhud_enable_inspire_hint_title": "インスパイアのクールダウンのヒントを表示する",
    "wolfhud_enable_inspire_hint_desc": "クールダウン中にインスパイアの蘇生効果を発動しようとした際に、残りのクールタイムをヒントとして表示します",
    "wolfhud_inspire_hint_text": "インスパイアは%.f秒後に再度使用可能になります",
    "wolfhud_create_empty_lobby_title": "空のロビーを作成",
    "wolfhud_create_empty_lobby_desc": "契約無しでオンラインロビーを作成します",
    "wolfhud_mischud_options_name": "その他のHUDの設定",
    "wolfhud_mischud_options_help": "その他のHUD関連の設定",
    "wolfhud_show_heat_title": "Heat (EXP Boost) を表示する",
    "wolfhud_show_heat_desc": "契約ブローカーにHeat (EXP Boost) のアイコンを表示します",
    "wolfhud_crnt_size_title": "Crime.netの文字サイス",
    "wolfhud_crnt_size_desc": "Crime.netの文字サイズを変更します",
    "wolfhud_crnt_sort_title": "Crime.netをソート",
    "wolfhud_crnt_sort_desc": "Crime.netの表示を難易度でソートします\n「Crime.netの表示を揃える」を有効にしないと機能しません",
    "wolfhud_crnt_align_title": "Crime.netの表示を揃える",
    "wolfhud_crnt_align_desc": "Crime.netの表示をグリッド状に揃えます",
    "wolfhud_crnt_colorize_title": "Crime.netに色を付ける",
    "wolfhud_crnt_colorize_desc": "Crime.netの表示を難易度別に色分けし、Heat (EXP Boost) のグローを少し暗くします",
    "wolfhud_show_reduction_title": "経験値ペナルティを表示する",
    "wolfhud_show_reduction_desc": "契約ブローカーに経験値ペナルティのアイコンを表示します",
    "wolfhud_waypoints_color_enable_title": "ウェイポイントに色を付ける",
    "wolfhud_waypoints_color_enable_desc": "ミッションウェイポイントの色を好きな色に変更できます",
    "wolfhud_wolfhud_pacified_civs_new_icons_title": "新しい疑惑アイコンを有効にする",
    "wolfhud_wolfhud_pacified_civs_new_icons_desc": "様々な疑惑アイコンを使用できるようになります",
    "wolfhud_pacified_civs_new_wolf_icon_title": "制圧済みの市民を青のチェックで表示する",
    "wolfhud_pacified_civs_new_wolf_icon_desc": "制圧済みの市民のアイコンを青のチェックに変更します",
    "wolfhud_pacified_civs_new_icon_title": "疑惑アイコンの改善",
    "wolfhud_pacified_civs_new_icon_desc": "デフォルトの ? と ! を置き換え、警備員・カメラ・市民でそれぞれ違うアイコンを使用します",
    "wolfhud_drill_icons_title": "ドリルのアップグレードアイコンを表示する",
    "wolfhud_drill_icons_desc": "ドリルとポータブルソーをインタラクトする際に、取得済みのアップグレードスキルのアイコンを表示します",
    "wolfhud_hud_scale_title": "HUDのスケール",
    "wolfhud_hud_scale_desc": "HUD全体の表示倍率を変更します",
    "wolfhud_enable_joker_floating_name_title": "ジョーカーの名前を表示する",
    "wolfhud_enable_joker_floating_name_desc": "ジョーカーの頭上に名前 (敵の種類) を表示します",
    "wolfhud_enable_joker_floating_hp_title": "ジョーカーのヘルスを表示する",
    "wolfhud_enable_joker_floating_hp_desc": "ジョーカーの頭上にヘルスを表示します",
    "wolfhud_enable_joker_floating_kills_title": "ジョーカーのキル数を表示する",
    "wolfhud_enable_joker_floating_kills_desc": "ジョーカーの頭上にキル数を表示します",
    "wolfhud_enable_swan_song_effect_title": "スワンソングに画面効果を付ける",
    "wolfhud_enable_swan_song_effect_desc": "スワンソングの発動中、画面を青く点滅させます",
    "wolfhud_enable_kingpin_effect_title": "キングピン注射器に画面効果を付ける",
    "wolfhud_enable_kingpin_effect_desc": "キングピン注射器の発動中、画面をオレンジに点滅させます",
    "wolfhud_enemyhealthbarenemy_hurt_color_title": "ダメージの色",
    "wolfhud_enemyhealthbarenemy_hurt_color_desc": "敵にダメージを与えた際にインジケータをフラッシュさせる色を変更します",
    "wolfhud_enemyhealthbarenemy_kill_color_title": "キル時の色",
    "wolfhud_enemyhealthbarenemy_kill_color_desc": "敵を倒した際にインジケータをフラッシュさせる色を変更します",
    "wolfhud_dmg_popup_show_alt_civ_popup_title": "Show Civillian Damage Popup",
    "wolfhud_dmg_popup_show_alt_civ_popup_desc": "Enables civillian damage popup.",
    "wolfhud_dmg_popup_time_alt_title": "Popup Alt Time",
    "wolfhud_dmg_popup_time_alt_desc": "Determines how long the popup will stay.",
    "wolfhud_enemyhealthbar_show_multiplied_enemy_health": "Show enemy health x10",
    "wolfhud_enemyhealthbar_show_multiplied_enemy_health_desc": "Shows the enemy health x10. This makes the health values consistent with weapon damage stats.",
    "wolfhud_dmg_popup_body_glow_color_title": "Bodyshot Glow Popup Color",
    "wolfhud_dmg_popup_body_glow_color_desc": "Configure the bodyshot glow color.",
    "wolfhud_original_hostage_box_title": "デフォルトの人質数表示を有効にする",
    "wolfhud_original_hostage_box_desc": "ゲーム本来の人質数表示を有効にします",
    "wolfhud_shuffle_music_title": "BGMをシャッフルする",
    "wolfhud_shuffle_music_desc": "アサルトが始まるごとにBGMをランダムに変更します",
    "wolfhud_wave_counter_title": "ウェーブカウンタ",
    "wolfhud_wave_counter_desc": "ウェーブ数を表示します",
    "wolfhud_dmg_popup_show_rainbow_popups": "ポップアップを虹色にする",
    "wolfhud_dmg_popup_show_rainbow_popups_desc": "ポップアップの色を虹色に変更します\n(反映するにはリスタートする必要があります)",
    "wolfhud_dmg_popup_show_damage_per_hit": "ヒットごとのダメージを表示する",
    "wolfhud_dmg_popup_show_damage_per_hit_desc": "ダメージを与えるごとにポップアップを出します\n無効の場合、一つのポップアップでダメージ表示が増加していくようになります",
    "wolfhud_dmg_popup_show_enemy_health_mul": "Show enemy health x10",
    "wolfhud_dmg_popup_show_enemy_health_mul_desc": "Shows the enemy health x10. This makes the health values consistent with weapon damage stats.",
    "wolfhud_dmg_popup_hit_display_duration": "Damage popup display time",
    "wolfhud_dmg_popup_hit_display_duration_desc": "Change the time that the damage popup stays on screen",
    "wolfhud_dmg_popup_hit_chg_per_tick": "ポップアップの速度",
    "wolfhud_dmg_popup_hit_chg_per_tick_desc": "ダメージポップアップが上へ浮かぶ速度を変更します",
    "wolfhud_dmg_popup_fatal_hit_chg_per_tick": "致命打の浮上速度",
    "wolfhud_dmg_popup_fatal_hit_chg_per_tick_desc": "致命打のダメージポップアップが上へ浮かぶ速度を変更します",
    "wolfhud_dmg_popup_damage_vert_offset": "ポップアップの表示位置",
    "wolfhud_dmg_popup_damage_vert_offset_desc": "ポップアップを表示する高さを調整します",
    "wolfhud_dmg_popup_damage_kill_flash_spd": "ポップアップの明滅速度",
    "wolfhud_dmg_popup_damage_kill_flash_spd_desc": "ポップアップが明滅する速さを変更します",
    "wolfhud_confirn_dialogs_title": "確認ダイアログを無効化する",
    "wolfhud_confirn_dialogs_desc": "様々な場面で表示される確認のダイアログを抑制します",
    "wolfhud_save_filters_title": "ロビーの設定を保存する",
    "wolfhud_save_filters_desc": "ロビーの設定を保存するようになります",
    "wolfhud_shoot_through_bots_title": "弾が味方AIとジョーカーを貫通するようにする",
    "wolfhud_shoot_through_bots_desc": "味方AIとジョーカーに攻撃を遮られることがなくなります",
    "wolfhud_dmg_popup_linux_compat_title": "Windowsとの互換性",
    "wolfhud_dmg_popup_linux_compat_desc": "Linuxを使用している場合のみチェックを外してください",
    "wolfhud_replace_joker_title": "ジョーカーを入れ替える",
    "wolfhud_replace_joker_desc": "ジョーカーを上限以上に作成しようとした際に、最も古いジョーカーを死亡させて新しいジョーカーを作成します",
    "wolfhud_dmg_popup_scale_alt_title": "ポップアップスケール (WolfHUD)",
    "wolfhud_dmg_popup_scale_alt_desc": "ダメージポップアップ (WolfHUD) のサイズを変更します",
    "wolfhud_show_silent_weapons_title": "消音武器のアイコンを表示",
    "wolfhud_show_silent_weapons_desc": "インベントリ画面で、サプレッサーの付いた武器にゴーストマークを表示します",
    "wolfhud_chat_y_pos_title": "表示位置",
    "wolfhud_chat_y_pos_desc": "チャットボックスを画面の下からどれだけ離すかを変更します",
    "wolfhud_panels_health_armor_num_title": "ヘルスとアーマーの数値を表示する",
    "wolfhud_panels_health_armor_num_desc": "ヘルスとアーマーの現在値を数字で表示します",
    "wolfhud_panels_hide_health_armor_title": "ヘルス/アーマーサークルを非表示にする",
    "wolfhud_panels_hide_health_armor_desc": "デフォルトのヘルスとアーマーの表示を消します",
    "fastnet_sa": "FAST.Net",
    "state_filter": "状態",
    "menu_state_filter": "状態フィルタ",
    "menu_lobby_days_title": "日:",
    "menu_state_lobby": "ロビー内",
    "menu_state_loading": "ロード中",
    "menu_state_ingame": "ゲーム中",
    "menu_state_filter_help": "ロビーの状態に基づいて、どのサーバーを表示するかを変更します",
    "menu_servers_filter": "最大サーバー",
    "menu_servers_filter_help": "一度に表示するサーバー数の上限を変更します",
    "menu_lobby_job_plan_title": "戦術:",
    "menu_job_plan_-1": "指定しない",
    "menu_job_plan_1": "ラウド",
    "menu_job_plan_2": "ステルス",
    "menu_stat_job_completed_new": "$stat",
    "menu_stat_job_new": "完遂した契約: ",
    "menu_fastnet_help": "新しいサーバブラウザ: 目的にあった部屋を探しやすくなります",
    "FastNETMenuSortAlphabeticallyHeistsTitleID": "Fast.Netの契約フィルタをソート",
    "FastNETMenuSortAlphabeticallyHeistsDescID": "フィルタ設定画面の契約名をアルファベット順にソートします",
    "xp_amount": "Levels Gain: $XP",
    "wolfhud_show_custom_inv_names_title": "Rename Inventory Pagesを有効化する",
    "wolfhud_show_custom_inv_names_desc": "インベントリのページに自分でつけた名前を表示するようにします\nTdLQ氏作の同名Modをインストールしている場合はチェックを外してください",
    "FastNETENABLEDTitleID": "Fast.Netをメインメニューに表示する",
    "FastNETENABLEDDescID": "メインメニューにFast.Netの項目を追加します",
    "wolfhud_hide_interaction_text_title": "インタラクトの指示を表示する",
    "wolfhud_hide_interaction_text_desc": "チェックを外すと、「[key]長押しでインタラクトする」といったテキストの表示が無くなります",
    "wolfhud_hudlist_show_jokers_health_bar_title": "ジョーカーのヘルスを表示する",
    "wolfhud_hudlist_show_jokers_health_bar_desc": "ジョーカーのヘルスバーを表示します",
    "wolfhud_hudlist_show_jokers_kill_counter_title": "ジョーカーのキル数を表示する",
    "wolfhud_hudlist_show_jokers_kill_counter_desc": "ジョーカーのキル数を表示します",

    "wolfhud_disable_blend_mode_title": "CustomHUDのBlend Modeを無効化",
    "wolfhud_disable_blend_mode_desc": "CustomHUDのBlend Modeを無効化します",
    "wolfhud_pd2stylebox_title": "Payday2様式の枠を使用する",
    "wolfhud_pd2stylebox_desc": "HUDListの枠をPayday2本体の表示と同じ様式で表示します",

    "wolfhud_use_enhanced_objective_title": "改良型オブジェクティブパネルの有効化",
    "wolfhud_use_enhanced_objective_desc": "ミッション目標のパネルをカスタム版に置き換えます",
    "wolfhud_use_customhud_title": "WolfHUD's CustomHUD",
    "wolfhud_use_customhud_desc": "HUDの表示をSe7en氏作のCustomHUDへと変更します。\n(反映にはマップの再読込が必要です)",
    "wolfhud_use_vanilla": "バニラ",

    "wolfhud_menu_options_name": "メニューの設定",
    "wolfhud_menu_options_help": "メニューとインベントリ関連の設定",
    "wolfhud_equipment_options_name": "装備品の設定",
    "wolfhud_equipment_options_help": "装備品関連の設定",

    "wolfhud_hud_type_title": "HUDタイプ",
    "wolfhud_hud_type_desc": "使用するHUDのタイプを選択します。\n(反映にはマップの再読込が必要です)",
    "wolfhud_waypoint_scale_title": "カスタムウェイポイントのスケール",
    "wolfhud_waypoint_scale_desc": "カスタムウェイポイントのスケールを変更します",

    "wolfhud_show_empty_lobby_title": "「空のロビーを作成」を無効化",
    "wolfhud_show_empty_lobby_desc": "メインメニューに「空のロビーを作成」を表示しないようにします",

	"wolfhud_panels_show_new_downcounter_title" : "Show Vanilla Downcounter",
	"wolfhud_panels_show_new_downcounter_desc" : "Shows the vanilla downcounter for each non AI.",

	"wolfhud_hudlist_copr_buff_title" : "Ampule (Leech)",
	"wolfhud_hudlist_copr_buff_desc" : "",
	"wolfhud_dialog_force_start_msg" : "The game was forced to start",

	"wolfhud_chat_x_pos_title" : "Set Position From Left",
	"wolfhud_chat_x_pos_desc" : "Moves the custom chat box left or right",

	"wolfhud_enemy_yufuwang_armored_boss" : "Armored Yufu Wang",
	"wolfhud_enemy_yufuwang_no_armor_boss" : "Yufu Wang",

	"wolfhud_enable_bg_title" : "Enable Background HUDList Box",
	"wolfhud_enable_bg_desc" : "Adds a background to HUDList boxes, allowing you to change the colors",

	"wolfhud_hide_bag_value_text_title" : "Hide Bag Value",
	"wolfhud_hide_bag_value_text_desc" : "Hides the bag value when looking at a bag",

	"wolfhud_hide_casing_title" : "Hide Casing Mode",
	"wolfhud_hide_casing_desc" : "Hides the casing panel",

	"wolfhud_hudlist_armor_break_invulnerable_debuff_title" : "Armor Break Invulnerability Debuff",
	"wolfhud_hudlist_armor_break_invulnerable_debuff_desc" : "",

	"wolfhud_fastnet_update" : "$BTN_X; Update",
	"wolfhud_fastnet_filters" : "$BTN_Y; Filters",

	"wolfhud_enemy_marshal_marksman" : "Marshal Marksman",

	"wolfhud_sub_height_title" : "Set Subtitles Position",
	"wolfhud_sub_height_desc" : "Sets subtitles position starting from 0 is at the top and 800 at the bottom",

	"wolfhud_hudlist_buff_list_x_offset_title" : "Buff List Horizontal Offset",
	"wolfhud_hudlist_buff_list_x_offset_desc" : "Sets the horizontal offset for the buffs list",

	"wolfhud_hudlist_loot_tea" : "Tea",
    "wolfhud_hudlist_loot_dragon" : "Dragon",
	
	"wolfhud_panels_show_detectioncounter_title" : "Show Detection Risk",
	"wolfhud_panels_show_detectioncounter_desc" : "Shows the current detection risk for each non AI. \nThe counter shows either your detection risk or your teammates detection risk or both.",

	"wolfhud_drill_icons_x_pos_title" : "Drill Upgrades Icons Horizontal Position",
	"wolfhud_drill_icons_x_pos_desc" : "Sets the horizontal position of the drill upgrades icons",
	"wolfhud_drill_icons_y_pos_title" : "Drill Upgrades Icons Vertical Position",
	"wolfhud_drill_icons_y_pos_desc" : "Sets the vertical position of the drill upgrades icons",
	"wolfhud_drill_icons_scale_title" : "Drill Upgrades Icons Scale",
	"wolfhud_drill_icons_scale_desc" : "Sets the scale of the drill upgrade icons",

	"wolfhud_use_standard_scene_title" : "FAST.NET Use Standard Scene",
	"wolfhud_use_standard_scene_desc" : "Uses the main menu scene for FAST.NET",

	"wolfhud_infopanels_color_options_name" : "HUDList Color Options",
	"wolfhud_infopanels_color_options_help" : "Color options for HUDList",
	"wolfhud_hudlist_left_box_color_title" : "Left Box Font Color",
	"wolfhud_hudlist_left_box_color_desc" : "Front color for Left List Boxes.\n(Currently a Map change is needed to apply...)",
	"wolfhud_hudlist_left_box_bg_color_title" : "Left Box Background Color",
	"wolfhud_hudlist_left_box_bg_color_desc" : "Background color for Left List Boxes.\n(Currently a Map change is needed to apply...)",
	"wolfhud_hudlist_turret_color_title" : "Turret Color",
	"wolfhud_hudlist_turret_color_desc" : "Color for Turrets in EnemyCounter.",
	"wolfhud_hudlist_shield_color_title" : "Shield Color",
	"wolfhud_hudlist_shield_color_desc" : "Color for Shields in EnemyCounter.",
	"wolfhud_hudlist_tank_color_title" : "Bulldozer Color",
	"wolfhud_hudlist_tank_color_desc" : "Color for Bulldozers in EnemyCounter.",
	"wolfhud_hudlist_sniper_color_title" : "Sniper Color",
	"wolfhud_hudlist_sniper_color_desc" : "Color for Snipers in EnemyCounter.",
	"wolfhud_hudlist_spooc_color_title" : "Cloaker Color",
	"wolfhud_hudlist_spooc_color_desc" : "Color for Cloakers in EnemyCounter.",
	"wolfhud_hudlist_taser_color_title" : "Taser Color",
	"wolfhud_hudlist_taser_color_desc" : "Color for Tasers in EnemyCounter.",
	"wolfhud_hudlist_medic_color_title" : "Medic Color",
	"wolfhud_hudlist_medic_color_desc" : "Color for Medic in EnemyCounter.",
	"wolfhud_hudlist_phalanx_color_title" : "Captain Winters Color",
	"wolfhud_hudlist_phalanx_color_desc" : "Color for Captain Winters in EnemyCounter.",
	"wolfhud_hudlist_buff_icon_color_standard_title" : "Buff Icon Color Standard",
	"wolfhud_hudlist_buff_icon_color_standard_desc" : "",
	"wolfhud_hudlist_buff_icon_color_buff_title" : "Buff Icon Color Buffs",
	"wolfhud_hudlist_buff_icon_color_buff_desc" : "",
	"wolfhud_hudlist_buff_icon_color_debuff_title" : "Buff Icon Color Debuffs",
	"wolfhud_hudlist_buff_icon_color_debuff_desc" : "",
	"wolfhud_hudlist_buff_icon_color_team_title" : "Buff Icon Color Team",
	"wolfhud_hudlist_buff_icon_color_team_desc" : "",
	"wolfhud_enemy_marshal_shield" : "Marshal Shield",
	"wolfhud_enemy_marshal_shield_break" : "Marshal Special",
	"wolfhud_enemy_ranchmanager" : "Esteban",
	"wolfhud_hudlist_right_list_bg_alpha_title" : "Right List Background Alpha",
	"wolfhud_hudlist_right_list_bg_alpha_desc" : "Changes the right list background alpha",
	"wolfhud_hudlist_left_list_bg_alpha_title" : "Left List Background Alpha",
	"wolfhud_hudlist_left_list_bg_alpha_desc" : "Changes the left list background alpha",
	"wolfhud_hudlist_loot_plates" : "Printing Plates",
	"wolfhud_colors_debuff" : "Debuff",
	"wolfhud_colors_team" : "Team",

    "wolfhud_languages_polish" : "Polish",
	"wolfhud_hide_content_news_title" : "Hide New Content Banner",
	"wolfhud_hide_content_news_desc" : "Hides the new content news banner in the main menu",
	"wolfhud_hudlist_old_sixth_sense_buff_title" : "Old Sixth Sense Faster Contour Highlight",
	"wolfhud_hudlist_old_sixth_sense_buff_desc" : "Makes the contour highlight instant after the countdown, instead of one at a time",

	"wolfhud_hudlist_copycat_health_invul_buff_title" : "Copycat (Health Invulnerability)",
	"wolfhud_hudlist_copycat_health_invul_buff_desc" : "",
	"wolfhud_hudlist_copycat_health_shot_buff_title" : "Copycat (Headshot Health Regen)",
	"wolfhud_hudlist_copycat_health_shot_buff_desc" : "",

	"wolfhud_hudlist_guard_color_title" : "Guard Color",
	"wolfhud_hudlist_guard_color_desc" : "Color for Guards in EnemyCounter.",
	"wolfhud_hudlist_timers_color_title" : "Timers Color",
	"wolfhud_hudlist_timers_color_desc" : "Color for drills/saws/hacks etc",
	"wolfhud_hudlist_equipment_color_title" : "Deployable Color",
	"wolfhud_hudlist_equipment_color_desc" : "Color for the number of deployables on the map",
	"wolfhud_hudlist_minions_info_color_title" : "Joker Kill and Health Info Color",
	"wolfhud_hudlist_minions_info_color_desc" : "Color for Jokers kill and health info",
	"wolfhud_hudlist_pagers_timer_color_title" : "Pagers Timer Color",
	"wolfhud_hudlist_pagers_timer_color_desc" : "Color for pagers timer",
	"wolfhud_hudlist_ecms_color_title" : "ECM Timer Color",
	"wolfhud_hudlist_ecms_color_desc" : "Color for ECM timer",
	"wolfhud_hudlist_ecm_feedback_color_title" : "ECM Feedback Timer Color",
	"wolfhud_hudlist_ecm_feedback_color_desc" : "Color for the ECM timer",
	"wolfhud_hudlist_tape_loop_color_title" : "Camera Loop Timer Color",
	"wolfhud_hudlist_tape_loop_color_desc" : "Color for the camera loop timer",
	"wolfhud_hudlist_jokers_color_title" : "Jokers Color",
	"wolfhud_hudlist_jokers_color_desc" : "Color for the number of current jokers",
	"wolfhud_hudlist_pagers_color_title" : "Pagers Color",
	"wolfhud_hudlist_pagers_color_desc" : "Color for the number of active pagers on a map",
	"wolfhud_hudlist_cam_color_title" : "Camera Color",
	"wolfhud_hudlist_cam_color_desc" : "Color for the number of cameras active on a map",
	"wolfhud_hudlist_bodybags_color_title" : "Body Bags Color",
	"wolfhud_hudlist_bodybags_color_desc" : "Color for bodybags left in your inventory",
	"wolfhud_hudlist_corpse_color_title" : "Corpse Color",
	"wolfhud_hudlist_corpse_color_desc" : "Color for the number of corpses on Boiling Point",
	"wolfhud_hudlist_loot_color_title" : "Lootbags Color",
	"wolfhud_hudlist_loot_color_desc" : "Color for the number of loot available on a map",
	"wolfhud_hudlist_special_items_color_title" : "Special Items Color",
	"wolfhud_hudlist_special_items_color_desc" : "Color for the number of special items available on a map",

	"wolfhud_hudlist_show_gage_packages_title" : "Show Gage Packages",
	"wolfhud_hudlist_show_gage_packages_desc" : "",

	"wolfhud_hudlist_loot_papers" : "Papers",
	"wolfhud_fastnet_reconnect" : "$BTN_START Reconnect",
	"wolfhud_no_lobby_collect_to" : "Seems like there's no server to connect to",

	"wolfhud_enemy_zeal_heavy_swat" : "Zeal Heavy SWAT",
	"wolfhud_enemy_zeal_swat" : "Zeal SWAT",
	"wolfhud_colored_ammo" : ""
}
